#Mon Jan 24 16:05:26 CET 2011
col10=\#Mon Jan 24 16\:05\:26 CET 2011\r\nsort.value\=false\r\nbody.value\=ivy.cms.co("/Content/Shared/Images/edit")\r\nlink.value\=\\\#Thu Oct 28 14\\\:55\\\:44 CEST 2010\\r\\nivp\\\=edit.ivp\\r\\nrow.index\\\=in.i\\r\\n\r\nheader.value\=Edit\r\nname.value\=\r\n
header.show.value=true
table.default.page.size.value=ivy.var.MaxRowsPerPage.toNumber()
table.empty.value=No Attributes found
default.sort.value=-1
table.caption.value=Attribute Content
col9=\#Mon Jan 24 16\:05\:26 CET 2011\r\nsort.value\=true\r\ncondition.value\=in.rsAttributes.getKeys().indexOf("InputType")>-1\r\nbody.value\=ivy.html.escape(value)\r\nheader.value\=Input Type\r\nname.value\=InputType\r\n
col8=\#Mon Jan 24 16\:05\:26 CET 2011\r\nsort.value\=true\r\ncondition.value\=in.rsAttributes.getKeys().indexOf("InputCellAttributes")>-1\r\nbody.value\=ivy.html.escape(value)\r\nheader.value\=Input Cell Attributes\r\nname.value\=InputCellAttributes\r\n
col7=\#Mon Jan 24 16\:05\:26 CET 2011\r\nsort.value\=true\r\ncondition.value\=in.rsAttributes.getKeys().indexOf("InputMeta")>-1\r\nbody.value\=ivy.html.escape(value)\r\nheader.value\=Input Meta\r\nname.value\=InputMeta\r\n
col6=\#Mon Jan 24 16\:05\:26 CET 2011\r\nsort.value\=true\r\ncondition.value\=in.rsAttributes.getKeys().indexOf("LabelCellAttributes")>-1\r\nbody.value\=ivy.html.escape(value)\r\nheader.value\=Label Cell Attributes\r\nname.value\=LabelCellAttributes\r\n
table.source=in.rsAttributes
col5=\#Mon Jan 24 16\:05\:26 CET 2011\r\nsort.value\=true\r\ncondition.value\=in.rsAttributes.getKeys().indexOf("LabelAttributes")>-1\r\nbody.value\=ivy.html.escape(value)\r\nheader.value\=Label Attributes\r\nname.value\=LabelAttributes\r\n
footer.show.value=false
col4=\#Mon Jan 24 16\:05\:26 CET 2011\r\nsort.value\=true\r\nbody.value\=ivy.html.escape(value)\r\nheader.value\=Source\r\nname.value\=SOURCE\r\n
col3=\#Mon Jan 24 16\:05\:26 CET 2011\r\nsort.value\=true\r\nbody.value\=ivy.html.escape(value)\r\nheader.value\=Label\r\nname.value\=NAME\r\n
col2=\#Mon Jan 24 16\:05\:26 CET 2011\r\nsort.value\=true\r\nbody.value\=value\r\nheader.value\=Icon\r\nname.value\=ICON\r\n
col1=\#Mon Jan 24 16\:05\:26 CET 2011\r\nsort.value\=true\r\nbody.value\=ivy.html.escape(value)\r\nheader.value\=Name\r\nname.value\=fieldName\r\n
col0=\#Mon Jan 24 16\:05\:26 CET 2011\r\nsort.value\=true\r\nbody.value\=ivy.html.escape(value)\r\nheader.value\=Class\r\nname.value\=className\r\n
auto.header.value=false
