[Ivy]
[>Created: Tue Aug 23 13:54:52 CEST 2011]
12B1A071447AFADE 3.15 #module
>Proto >Proto Collection #zClass
ix0 index Big #zClass
ix0 B #cInfo
ix0 #process
ix0 @TextInP .resExport .resExport #zField
ix0 @TextInP .type .type #zField
ix0 @TextInP .processKind .processKind #zField
ix0 @AnnotationInP-0n ai ai #zField
ix0 @TextInP .xml .xml #zField
ix0 @TextInP .responsibility .responsibility #zField
ix0 @StartRequest f0 '' #zField
ix0 @EndTask f1 '' #zField
ix0 @Page f12 '' #zField
ix0 @PushWFArc f16 '' #zField
ix0 @PushWFArc f5 '' #zField
>Proto ix0 ix0 index #zField
ix0 f0 outLink index.ivp #txt
ix0 f0 type adressmutation.Data #txt
ix0 f0 inParamDecl '<> param;' #txt
ix0 f0 actionDecl 'adressmutation.Data out;
' #txt
ix0 f0 guid 12B1A074990A6079 #txt
ix0 f0 requestEnabled true #txt
ix0 f0 triggerEnabled false #txt
ix0 f0 callSignature index() #txt
ix0 f0 persist false #txt
ix0 f0 startName Index #txt
ix0 f0 startDescription 'Main Entry Point for workflow' #txt
ix0 f0 taskData '#
#Wed Jul 20 17:03:37 CEST 2011
TaskTriggered.ROL=Everybody
TaskTriggered.EXTYPE=0
TaskTriggered.EXPRI=2
TaskTriggered.TYPE=0
TaskTriggered.PRI=2
TaskTriggered.EXROL=Everybody
' #txt
ix0 f0 caseData '#
#Wed Jul 20 17:03:37 CEST 2011
businessCreator.user=
businessMilestone.timestamp=
businessObject.code=
businessObject.docDb.code=
businessObject.folder.id=
businessObject.name=
businessPriority=
businessStart.timestamp=
case.description=
case.name=
correspondent.id=
mainContact.docDb.code=
mainContact.folder.id=
mainContact.id=
mainContact.name=
mainContact.type=
process.code=
process.name=
processCategory.code=
processCategory.name=
subType.code=
subType.name=
type.code=
type.name=
' #txt
ix0 f0 showInStartList 1 #txt
ix0 f0 taskAndCaseSetupAction 'import ch.ivyteam.ivy.workflow.TaskUpdateDefinition;
ch.ivyteam.ivy.workflow.TaskUpdateDefinition taskUpdDef = new ch.ivyteam.ivy.workflow.TaskUpdateDefinition();taskUpdDef.setPriority(ch.ivyteam.ivy.workflow.WorkflowPriority.valueOf(2));
taskUpdDef.setExpiryActivator("Everybody");
taskUpdDef.setExpiryPriority(ch.ivyteam.ivy.workflow.WorkflowPriority.valueOf(2));
engine.updateCurrentTask(taskUpdDef);
' #txt
ix0 f0 @C|.xml '<?xml version="1.0" encoding="UTF-8" standalone="yes"?>
<elementInfo>
    <language>
        <name>index.ivp</name>
        <nameStyle>9,5,7
</nameStyle>
    </language>
</elementInfo>
' #txt
ix0 f0 @C|.responsibility Everybody #txt
ix0 f0 195 43 26 26 14 0 #rect
ix0 f0 @|StartRequestIcon #fIcon
ix0 f1 type adressmutation.Data #txt
ix0 f1 195 323 26 26 14 0 #rect
ix0 f1 @|EndIcon #fIcon
ix0 f12 outTypes "adressmutation.Data" #txt
ix0 f12 outLinks "exit.ivp" #txt
ix0 f12 template "index.ivc" #txt
ix0 f12 type adressmutation.Data #txt
ix0 f12 skipLink skip.ivp #txt
ix0 f12 sortLink sort.ivp #txt
ix0 f12 templateWizard '#
#Tue Aug 23 13:54:51 CEST 2011
' #txt
ix0 f12 pageArchivingActivated false #txt
ix0 f12 @C|.xml '<?xml version="1.0" encoding="UTF-8" standalone="yes"?>
<elementInfo>
    <language>
        <name>index</name>
        <nameStyle>5
</nameStyle>
    </language>
</elementInfo>
' #txt
ix0 f12 @C|.responsibility Everybody #txt
ix0 f12 190 172 36 24 20 -2 #rect
ix0 f12 @|PageIcon #fIcon
ix0 f16 expr out #txt
ix0 f16 208 69 208 172 #arcP
ix0 f16 0 0.4999999999999999 0 0 #arcLabel
ix0 f5 expr data #txt
ix0 f5 outCond ivp=="exit.ivp" #txt
ix0 f5 208 196 208 323 #arcP
>Proto ix0 .type adressmutation.Data #txt
>Proto ix0 .processKind NORMAL #txt
>Proto ix0 .xml '<?xml version="1.0" encoding="UTF-8" standalone="yes"?>
<elementInfo>
    <language/>
</elementInfo>
' #txt
>Proto ix0 0 0 32 24 18 0 #rect
>Proto ix0 @|BIcon #fIcon
ix0 f0 mainOut f16 tail #connect
ix0 f16 head f12 mainIn #connect
ix0 f12 out f5 tail #connect
ix0 f5 head f1 mainIn #connect
