<input id="NetShareOpener" type="Button" onclick="openNetShare()" value="Go To">
<script type="text/javascript">
function openNetShare(){
  var ref = $(".NetPath").val();
  ref = ref.replace("smb://", "file://");
  if ($.browser.msie) {
    document.location = ref;
  } else {
    alert('Cannot open '+ref+" \nAccess denied!");
  }
}
</script>