[Ivy]
[>Created: Tue Jul 05 14:14:44 CEST 2011]
12DE1F5E2C2DC70B 3.15 #module
>Proto >Proto Collection #zClass
Cs0 Configurations Big #zClass
Cs0 B #cInfo
Cs0 #process
Cs0 @TextInP .resExport .resExport #zField
Cs0 @TextInP .type .type #zField
Cs0 @TextInP .processKind .processKind #zField
Cs0 @AnnotationInP-0n ai ai #zField
Cs0 @TextInP .xml .xml #zField
Cs0 @TextInP .responsibility .responsibility #zField
Cs0 @EndTask f4 '' #zField
Cs0 @CallSub f36 '' #zField
Cs0 @CallSub f2 '' #zField
Cs0 @StartRequest f0 '' #zField
Cs0 @PushWFArc f1 '' #zField
Cs0 @PushWFArc f3 '' #zField
Cs0 @PushWFArc f5 '' #zField
Cs0 @EndRequest f6 '' #zField
Cs0 @ProcessException f7 '' #zField
Cs0 @PushWFArc f8 '' #zField
>Proto Cs0 Cs0 Configurations #zField
Cs0 f4 type adressmutation.Data #txt
Cs0 f4 195 323 26 26 14 0 #rect
Cs0 f4 @|EndIcon #fIcon
Cs0 f36 type adressmutation.Data #txt
Cs0 f36 processCall 'Functional Processes/Login:call()' #txt
Cs0 f36 doCall true #txt
Cs0 f36 requestActionDecl '<> param;
' #txt
Cs0 f36 responseActionDecl 'adressmutation.Data out;
' #txt
Cs0 f36 responseMappingAction 'out=in;
' #txt
Cs0 f36 @C|.xml '<?xml version="1.0" encoding="UTF-8" standalone="yes"?>
<elementInfo>
    <language>
        <name>login?</name>
        <nameStyle>6
</nameStyle>
    </language>
</elementInfo>
' #txt
Cs0 f36 190 148 36 24 20 -2 #rect
Cs0 f36 @|CallSubIcon #fIcon
Cs0 f2 type adressmutation.Data #txt
Cs0 f2 processCall 'Business Processes/Administration/ConfigurationAdmin:call()' #txt
Cs0 f2 doCall true #txt
Cs0 f2 requestActionDecl '<> param;
' #txt
Cs0 f2 responseActionDecl 'adressmutation.Data out;
' #txt
Cs0 f2 responseMappingAction 'out=in;
' #txt
Cs0 f2 @C|.xml '<?xml version="1.0" encoding="UTF-8" standalone="yes"?>
<elementInfo>
    <language>
        <name>Maintain Configurations</name>
        <nameStyle>23
</nameStyle>
    </language>
</elementInfo>
' #txt
Cs0 f2 190 260 36 24 20 -2 #rect
Cs0 f2 @|CallSubIcon #fIcon
Cs0 f0 outLink start.ivp #txt
Cs0 f0 type adressmutation.Data #txt
Cs0 f0 inParamDecl '<> param;' #txt
Cs0 f0 actionDecl 'adressmutation.Data out;
' #txt
Cs0 f0 guid 12DE1F62D96AFC02 #txt
Cs0 f0 requestEnabled true #txt
Cs0 f0 triggerEnabled false #txt
Cs0 f0 callSignature start() #txt
Cs0 f0 persist false #txt
Cs0 f0 startName 'Administration - Configurations' #txt
Cs0 f0 taskData '#
#Tue Jul 05 14:07:39 CEST 2011
TaskTriggered.ROL=Everybody
TaskTriggered.EXTYPE=0
TaskTriggered.EXPRI=2
TaskTriggered.TYPE=0
TaskTriggered.PRI=2
TaskTriggered.EXROL=Everybody
' #txt
Cs0 f0 caseData '#
#Tue Jul 05 14:07:39 CEST 2011
businessCreator.user=
businessMilestone.timestamp=
businessObject.code=
businessObject.docDb.code=
businessObject.folder.id=
businessObject.name=
businessPriority=
businessStart.timestamp=
case.description=
case.name=
correspondent.id=
mainContact.docDb.code=
mainContact.folder.id=
mainContact.id=
mainContact.name=
mainContact.type=
process.code=
process.name=
processCategory.code=
processCategory.name=
subType.code=
subType.name=
type.code=
type.name=
' #txt
Cs0 f0 showInStartList 1 #txt
Cs0 f0 roleExceptionId 12DE1F5E2C2DC70B-f7-buffer #txt
Cs0 f0 taskAndCaseSetupAction 'import ch.ivyteam.ivy.workflow.TaskUpdateDefinition;
ch.ivyteam.ivy.workflow.TaskUpdateDefinition taskUpdDef = new ch.ivyteam.ivy.workflow.TaskUpdateDefinition();taskUpdDef.setPriority(ch.ivyteam.ivy.workflow.WorkflowPriority.valueOf(2));
taskUpdDef.setExpiryActivator("Everybody");
taskUpdDef.setExpiryPriority(ch.ivyteam.ivy.workflow.WorkflowPriority.valueOf(2));
engine.updateCurrentTask(taskUpdDef);
' #txt
Cs0 f0 @C|.xml '<?xml version="1.0" encoding="UTF-8" standalone="yes"?>
<elementInfo>
    <language>
        <name>start.ivp</name>
        <nameStyle>9,5,7
</nameStyle>
    </language>
</elementInfo>
' #txt
Cs0 f0 @C|.responsibility Administrator #txt
Cs0 f0 195 83 26 26 14 0 #rect
Cs0 f0 @|StartRequestIcon #fIcon
Cs0 f1 expr out #txt
Cs0 f1 208 109 208 148 #arcP
Cs0 f3 expr out #txt
Cs0 f3 208 172 208 260 #arcP
Cs0 f5 expr out #txt
Cs0 f5 208 284 208 323 #arcP
Cs0 f6 type adressmutation.Data #txt
Cs0 f6 template "RoleViolation.ivc" #txt
Cs0 f6 @C|.xml '<?xml version="1.0" encoding="UTF-8" standalone="yes"?>
<elementInfo>
    <language>
        <name>Role Exception</name>
        <nameStyle>14
</nameStyle>
    </language>
</elementInfo>
' #txt
Cs0 f6 379 275 26 26 14 0 #rect
Cs0 f6 @|EndRequestIcon #fIcon
Cs0 f7 .resExport export #txt
Cs0 f7 actionDecl 'adressmutation.Data out;
' #txt
Cs0 f7 actionTable 'out=in;
out.error=exception;
' #txt
Cs0 f7 type adressmutation.Data #txt
Cs0 f7 @C|.xml '<?xml version="1.0" encoding="UTF-8" standalone="yes"?>
<elementInfo>
    <language>
        <name>RoleViolation</name>
        <nameStyle>13
</nameStyle>
    </language>
</elementInfo>
' #txt
Cs0 f7 379 83 26 26 14 0 #rect
Cs0 f7 @|ExceptionIcon #fIcon
Cs0 f8 expr out #txt
Cs0 f8 392 109 392 275 #arcP
>Proto Cs0 .type adressmutation.Data #txt
>Proto Cs0 .processKind NORMAL #txt
>Proto Cs0 0 0 32 24 18 0 #rect
>Proto Cs0 @|BIcon #fIcon
Cs0 f0 mainOut f1 tail #connect
Cs0 f1 head f36 mainIn #connect
Cs0 f36 mainOut f3 tail #connect
Cs0 f3 head f2 mainIn #connect
Cs0 f2 mainOut f5 tail #connect
Cs0 f5 head f4 mainIn #connect
Cs0 f7 mainOut f8 tail #connect
Cs0 f8 head f6 mainIn #connect
