[Ivy]
[>Created: Tue Jul 05 14:14:27 CEST 2011]
12BF23167A82277D 3.15 #module
>Proto >Proto Collection #zClass
Ct0 ContentManagemnt Big #zClass
Ct0 B #cInfo
Ct0 #process
Ct0 @TextInP .resExport .resExport #zField
Ct0 @TextInP .type .type #zField
Ct0 @TextInP .processKind .processKind #zField
Ct0 @AnnotationInP-0n ai ai #zField
Ct0 @TextInP .xml .xml #zField
Ct0 @TextInP .responsibility .responsibility #zField
Ct0 @StartRequest f0 '' #zField
Ct0 @EndTask f1 '' #zField
Ct0 @CallSub f3 '' #zField
Ct0 @PushWFArc f2 '' #zField
Ct0 @CallSub f36 '' #zField
Ct0 @PushWFArc f5 '' #zField
Ct0 @PushWFArc f4 '' #zField
Ct0 @ProcessException f7 '' #zField
Ct0 @EndRequest f6 '' #zField
Ct0 @PushWFArc f8 '' #zField
>Proto Ct0 Ct0 ContentManagemnt #zField
Ct0 f0 outLink start.ivp #txt
Ct0 f0 type adressmutation.Data #txt
Ct0 f0 inParamDecl '<> param;' #txt
Ct0 f0 actionDecl 'adressmutation.Data out;
' #txt
Ct0 f0 guid 12BF231BCBE99A84 #txt
Ct0 f0 requestEnabled true #txt
Ct0 f0 triggerEnabled false #txt
Ct0 f0 callSignature start() #txt
Ct0 f0 persist false #txt
Ct0 f0 startName 'Administration - Addresmutation CMS' #txt
Ct0 f0 taskData '#
#Tue Jul 05 14:13:16 CEST 2011
TaskTriggered.ROL=Everybody
TaskTriggered.EXTYPE=0
TaskTriggered.EXPRI=2
TaskTriggered.TYPE=0
TaskTriggered.PRI=2
TaskTriggered.EXROL=Everybody
' #txt
Ct0 f0 caseData '#
#Tue Jul 05 14:13:16 CEST 2011
businessCreator.user=
businessMilestone.timestamp=
businessObject.code=
businessObject.docDb.code=
businessObject.folder.id=
businessObject.name=
businessPriority=
businessStart.timestamp=
case.description=
case.name=
correspondent.id=
mainContact.docDb.code=
mainContact.folder.id=
mainContact.id=
mainContact.name=
mainContact.type=
process.code=
process.name=
processCategory.code=
processCategory.name=
subType.code=
subType.name=
type.code=
type.name=
' #txt
Ct0 f0 showInStartList 1 #txt
Ct0 f0 roleExceptionId 12BF23167A82277D-f7-buffer #txt
Ct0 f0 taskAndCaseSetupAction 'import ch.ivyteam.ivy.workflow.TaskUpdateDefinition;
ch.ivyteam.ivy.workflow.TaskUpdateDefinition taskUpdDef = new ch.ivyteam.ivy.workflow.TaskUpdateDefinition();taskUpdDef.setPriority(ch.ivyteam.ivy.workflow.WorkflowPriority.valueOf(2));
taskUpdDef.setExpiryActivator("Everybody");
taskUpdDef.setExpiryPriority(ch.ivyteam.ivy.workflow.WorkflowPriority.valueOf(2));
engine.updateCurrentTask(taskUpdDef);
' #txt
Ct0 f0 @C|.xml '<?xml version="1.0" encoding="UTF-8" standalone="yes"?>
<elementInfo>
    <language>
        <name>cms.ivp</name>
        <nameStyle>7,5,7
</nameStyle>
    </language>
</elementInfo>
' #txt
Ct0 f0 @C|.responsibility Administrator #txt
Ct0 f0 123 71 26 26 14 0 #rect
Ct0 f0 @|StartRequestIcon #fIcon
Ct0 f1 type adressmutation.Data #txt
Ct0 f1 123 287 26 26 14 0 #rect
Ct0 f1 @|EndIcon #fIcon
Ct0 f3 type adressmutation.Data #txt
Ct0 f3 processCall 'Functional Processes/cms:call()' #txt
Ct0 f3 doCall true #txt
Ct0 f3 requestActionDecl '<> param;
' #txt
Ct0 f3 responseActionDecl 'adressmutation.Data out;
' #txt
Ct0 f3 responseMappingAction 'out=in;
' #txt
Ct0 f3 @C|.xml '<?xml version="1.0" encoding="UTF-8" standalone="yes"?>
<elementInfo>
    <language>
        <name>get CMS</name>
        <nameStyle>7,5,7
</nameStyle>
    </language>
</elementInfo>
' #txt
Ct0 f3 118 220 36 24 20 -2 #rect
Ct0 f3 @|CallSubIcon #fIcon
Ct0 f2 expr out #txt
Ct0 f2 136 244 136 287 #arcP
Ct0 f36 type adressmutation.Data #txt
Ct0 f36 processCall 'Functional Processes/Login:call()' #txt
Ct0 f36 doCall true #txt
Ct0 f36 requestActionDecl '<> param;
' #txt
Ct0 f36 responseActionDecl 'adressmutation.Data out;
' #txt
Ct0 f36 responseMappingAction 'out=in;
' #txt
Ct0 f36 @C|.xml '<?xml version="1.0" encoding="UTF-8" standalone="yes"?>
<elementInfo>
    <language>
        <name>login?</name>
        <nameStyle>6
</nameStyle>
    </language>
</elementInfo>
' #txt
Ct0 f36 118 132 36 24 20 -2 #rect
Ct0 f36 @|CallSubIcon #fIcon
Ct0 f5 expr out #txt
Ct0 f5 136 97 136 132 #arcP
Ct0 f4 expr out #txt
Ct0 f4 136 156 136 220 #arcP
Ct0 f7 .resExport export #txt
Ct0 f7 actionDecl 'adressmutation.Data out;
' #txt
Ct0 f7 actionTable 'out=in;
out.error=exception;
' #txt
Ct0 f7 type adressmutation.Data #txt
Ct0 f7 @C|.xml '<?xml version="1.0" encoding="UTF-8" standalone="yes"?>
<elementInfo>
    <language>
        <name>RoleViolation</name>
        <nameStyle>13
</nameStyle>
    </language>
</elementInfo>
' #txt
Ct0 f7 395 99 26 26 14 0 #rect
Ct0 f7 @|ExceptionIcon #fIcon
Ct0 f6 type adressmutation.Data #txt
Ct0 f6 template "/ProcessPages/Configurations/RoleViolation.ivc" #txt
Ct0 f6 @C|.xml '<?xml version="1.0" encoding="UTF-8" standalone="yes"?>
<elementInfo>
    <language>
        <name>Role Exception</name>
        <nameStyle>14
</nameStyle>
    </language>
</elementInfo>
' #txt
Ct0 f6 395 291 26 26 14 0 #rect
Ct0 f6 @|EndRequestIcon #fIcon
Ct0 f8 expr out #txt
Ct0 f8 408 125 408 291 #arcP
>Proto Ct0 .type adressmutation.Data #txt
>Proto Ct0 .processKind NORMAL #txt
>Proto Ct0 0 0 32 24 18 0 #rect
>Proto Ct0 @|BIcon #fIcon
Ct0 f3 mainOut f2 tail #connect
Ct0 f2 head f1 mainIn #connect
Ct0 f0 mainOut f5 tail #connect
Ct0 f5 head f36 mainIn #connect
Ct0 f36 mainOut f4 tail #connect
Ct0 f4 head f3 mainIn #connect
Ct0 f7 mainOut f8 tail #connect
Ct0 f8 head f6 mainIn #connect
