[Ivy]
[>Created: Tue Jul 05 14:15:14 CEST 2011]
1308DF3F72FF2C10 3.15 #module
>Proto >Proto Collection #zClass
Gs0 Generics Big #zClass
Gs0 B #cInfo
Gs0 #process
Gs0 @TextInP .resExport .resExport #zField
Gs0 @TextInP .type .type #zField
Gs0 @TextInP .processKind .processKind #zField
Gs0 @AnnotationInP-0n ai ai #zField
Gs0 @TextInP .xml .xml #zField
Gs0 @TextInP .responsibility .responsibility #zField
Gs0 @CallSub f36 '' #zField
Gs0 @EndTask f4 '' #zField
Gs0 @CallSub f2 '' #zField
Gs0 @StartRequest f0 '' #zField
Gs0 @PushWFArc f3 '' #zField
Gs0 @PushWFArc f5 '' #zField
Gs0 @PushWFArc f8 '' #zField
Gs0 @EndRequest f6 '' #zField
Gs0 @ProcessException f7 '' #zField
Gs0 @PushWFArc f1 '' #zField
>Proto Gs0 Gs0 Generics #zField
Gs0 f36 type adressmutation.Data #txt
Gs0 f36 processCall 'Functional Processes/Login:call()' #txt
Gs0 f36 doCall true #txt
Gs0 f36 requestActionDecl '<> param;
' #txt
Gs0 f36 responseActionDecl 'adressmutation.Data out;
' #txt
Gs0 f36 responseMappingAction 'out=in;
' #txt
Gs0 f36 @C|.xml '<?xml version="1.0" encoding="UTF-8" standalone="yes"?>
<elementInfo>
    <language>
        <name>login?</name>
        <nameStyle>6
</nameStyle>
    </language>
</elementInfo>
' #txt
Gs0 f36 206 164 36 24 20 -2 #rect
Gs0 f36 @|CallSubIcon #fIcon
Gs0 f4 type adressmutation.Data #txt
Gs0 f4 211 291 26 26 14 0 #rect
Gs0 f4 @|EndIcon #fIcon
Gs0 f2 type adressmutation.Data #txt
Gs0 f2 processCall 'Business Processes/Generics/Admin/Classes:call()' #txt
Gs0 f2 doCall true #txt
Gs0 f2 requestActionDecl '<> param;
' #txt
Gs0 f2 responseActionDecl 'adressmutation.Data out;
' #txt
Gs0 f2 responseMappingAction 'out=in;
' #txt
Gs0 f2 @C|.xml '<?xml version="1.0" encoding="UTF-8" standalone="yes"?>
<elementInfo>
    <language>
        <name>Maintain Generics</name>
        <nameStyle>17
</nameStyle>
    </language>
</elementInfo>
' #txt
Gs0 f2 206 228 36 24 20 -2 #rect
Gs0 f2 @|CallSubIcon #fIcon
Gs0 f0 outLink start.ivp #txt
Gs0 f0 type adressmutation.Data #txt
Gs0 f0 inParamDecl '<> param;' #txt
Gs0 f0 actionDecl 'adressmutation.Data out;
' #txt
Gs0 f0 guid 1308DF4452615095 #txt
Gs0 f0 requestEnabled true #txt
Gs0 f0 triggerEnabled false #txt
Gs0 f0 callSignature start() #txt
Gs0 f0 persist false #txt
Gs0 f0 startName 'Administration - Generics Admin' #txt
Gs0 f0 taskData '#
#Tue Jul 05 14:15:12 CEST 2011
TaskTriggered.ROL=Everybody
TaskTriggered.EXTYPE=0
TaskTriggered.EXPRI=2
TaskTriggered.TYPE=0
TaskTriggered.PRI=2
TaskTriggered.EXROL=Everybody
' #txt
Gs0 f0 caseData '#
#Tue Jul 05 14:15:12 CEST 2011
businessCreator.user=
businessMilestone.timestamp=
businessObject.code=
businessObject.docDb.code=
businessObject.folder.id=
businessObject.name=
businessPriority=
businessStart.timestamp=
case.description=
case.name=Administration of Generics
correspondent.id=
mainContact.docDb.code=
mainContact.folder.id=
mainContact.id=
mainContact.name=
mainContact.type=
process.code=
process.name=
processCategory.code=
processCategory.name=
subType.code=
subType.name=
type.code=
type.name=
' #txt
Gs0 f0 showInStartList 1 #txt
Gs0 f0 roleExceptionId 1308DF3F72FF2C10-f7-buffer #txt
Gs0 f0 taskAndCaseSetupAction 'import ch.ivyteam.ivy.workflow.TaskUpdateDefinition;
ch.ivyteam.ivy.workflow.TaskUpdateDefinition taskUpdDef = new ch.ivyteam.ivy.workflow.TaskUpdateDefinition();taskUpdDef.setPriority(ch.ivyteam.ivy.workflow.WorkflowPriority.valueOf(2));
taskUpdDef.setExpiryActivator("Everybody");
taskUpdDef.setExpiryPriority(ch.ivyteam.ivy.workflow.WorkflowPriority.valueOf(2));
engine.updateCurrentTask(taskUpdDef);
ivy.case.setName(engine.expandMacros("Administration of Generics"));
' #txt
Gs0 f0 @C|.xml '<?xml version="1.0" encoding="UTF-8" standalone="yes"?>
<elementInfo>
    <language>
        <name>start.ivp</name>
        <nameStyle>9,5,7
</nameStyle>
    </language>
</elementInfo>
' #txt
Gs0 f0 @C|.responsibility Administrator #txt
Gs0 f0 211 99 26 26 14 0 #rect
Gs0 f0 @|StartRequestIcon #fIcon
Gs0 f3 expr out #txt
Gs0 f3 224 188 224 228 #arcP
Gs0 f5 expr out #txt
Gs0 f5 224 252 224 291 #arcP
Gs0 f8 expr out #txt
Gs0 f8 224 125 224 164 #arcP
Gs0 f6 type adressmutation.Data #txt
Gs0 f6 template "/ProcessPages/Configurations/RoleViolation.ivc" #txt
Gs0 f6 @C|.xml '<?xml version="1.0" encoding="UTF-8" standalone="yes"?>
<elementInfo>
    <language>
        <name>Role Exception</name>
        <nameStyle>14
</nameStyle>
    </language>
</elementInfo>
' #txt
Gs0 f6 411 307 26 26 14 0 #rect
Gs0 f6 @|EndRequestIcon #fIcon
Gs0 f7 .resExport export #txt
Gs0 f7 actionDecl 'adressmutation.Data out;
' #txt
Gs0 f7 actionTable 'out=in;
out.error=exception;
' #txt
Gs0 f7 type adressmutation.Data #txt
Gs0 f7 @C|.xml '<?xml version="1.0" encoding="UTF-8" standalone="yes"?>
<elementInfo>
    <language>
        <name>RoleViolation</name>
        <nameStyle>13
</nameStyle>
    </language>
</elementInfo>
' #txt
Gs0 f7 411 115 26 26 14 0 #rect
Gs0 f7 @|ExceptionIcon #fIcon
Gs0 f1 expr out #txt
Gs0 f1 424 141 424 307 #arcP
>Proto Gs0 .type adressmutation.Data #txt
>Proto Gs0 .processKind NORMAL #txt
>Proto Gs0 0 0 32 24 18 0 #rect
>Proto Gs0 @|BIcon #fIcon
Gs0 f36 mainOut f3 tail #connect
Gs0 f3 head f2 mainIn #connect
Gs0 f2 mainOut f5 tail #connect
Gs0 f5 head f4 mainIn #connect
Gs0 f0 mainOut f8 tail #connect
Gs0 f8 head f36 mainIn #connect
Gs0 f7 mainOut f1 tail #connect
Gs0 f1 head f6 mainIn #connect
