[Ivy]
[>Created: Wed Jul 20 16:18:06 CEST 2011]
12B56A5EB849663E 3.15 #module
>Proto >Proto Collection #zClass
js0 jQueryWidgets Big #zClass
js0 B #cInfo
js0 #process
js0 @TextInP .resExport .resExport #zField
js0 @TextInP .type .type #zField
js0 @TextInP .processKind .processKind #zField
js0 @AnnotationInP-0n ai ai #zField
js0 @TextInP .xml .xml #zField
js0 @TextInP .responsibility .responsibility #zField
js0 @StartRequest f0 '' #zField
js0 @EndTask f1 '' #zField
js0 @Page f2 '' #zField
js0 @PushWFArc f3 '' #zField
js0 @PushWFArc f4 '' #zField
>Proto js0 js0 jQueryWidgets #zField
js0 f0 outLink start.ivp #txt
js0 f0 type adressmutation.Data #txt
js0 f0 inParamDecl '<> param;' #txt
js0 f0 actionDecl 'adressmutation.Data out;
' #txt
js0 f0 guid 12B56A60BED12495 #txt
js0 f0 requestEnabled true #txt
js0 f0 triggerEnabled false #txt
js0 f0 callSignature start() #txt
js0 f0 persist false #txt
js0 f0 startName 'Administration - jQuery UI - Widgets' #txt
js0 f0 taskData '#
#Wed Jul 20 16:18:03 CEST 2011
TaskTriggered.ROL=Everybody
TaskTriggered.EXTYPE=0
TaskTriggered.EXPRI=2
TaskTriggered.TYPE=0
TaskTriggered.PRI=2
TaskTriggered.EXROL=Everybody
' #txt
js0 f0 caseData '#
#Wed Jul 20 16:18:03 CEST 2011
businessCreator.user=
businessMilestone.timestamp=
businessObject.code=
businessObject.docDb.code=
businessObject.folder.id=
businessObject.name=
businessPriority=
businessStart.timestamp=
case.description=
case.name=
correspondent.id=
mainContact.docDb.code=
mainContact.folder.id=
mainContact.id=
mainContact.name=
mainContact.type=
process.code=
process.name=
processCategory.code=
processCategory.name=
subType.code=
subType.name=
type.code=
type.name=
' #txt
js0 f0 showInStartList 0 #txt
js0 f0 taskAndCaseSetupAction 'import ch.ivyteam.ivy.workflow.TaskUpdateDefinition;
ch.ivyteam.ivy.workflow.TaskUpdateDefinition taskUpdDef = new ch.ivyteam.ivy.workflow.TaskUpdateDefinition();taskUpdDef.setPriority(ch.ivyteam.ivy.workflow.WorkflowPriority.valueOf(2));
taskUpdDef.setExpiryActivator("Everybody");
taskUpdDef.setExpiryPriority(ch.ivyteam.ivy.workflow.WorkflowPriority.valueOf(2));
engine.updateCurrentTask(taskUpdDef);
' #txt
js0 f0 @C|.xml '<?xml version="1.0" encoding="UTF-8" standalone="yes"?>
<elementInfo>
    <language>
        <name>start.ivp</name>
        <nameStyle>9,5,7
</nameStyle>
    </language>
</elementInfo>
' #txt
js0 f0 @C|.responsibility Everybody #txt
js0 f0 175 51 26 26 14 0 #rect
js0 f0 @|StartRequestIcon #fIcon
js0 f1 type adressmutation.Data #txt
js0 f1 175 215 26 26 14 0 #rect
js0 f1 @|EndIcon #fIcon
js0 f2 outTypes "adressmutation.Data" #txt
js0 f2 outLinks "exit.ivp" #txt
js0 f2 template "WidgetDemo.ivc" #txt
js0 f2 type adressmutation.Data #txt
js0 f2 skipLink skip.ivp #txt
js0 f2 sortLink sort.ivp #txt
js0 f2 templateWizard '#
#Tue Sep 28 08:13:22 CEST 2010
' #txt
js0 f2 pageArchivingActivated false #txt
js0 f2 @C|.xml '<?xml version="1.0" encoding="UTF-8" standalone="yes"?>
<elementInfo>
    <language>
        <name>jquery Widgets Demo</name>
        <nameStyle>19
</nameStyle>
    </language>
</elementInfo>
' #txt
js0 f2 @C|.responsibility Everybody #txt
js0 f2 170 132 36 24 20 -2 #rect
js0 f2 @|PageIcon #fIcon
js0 f3 expr out #txt
js0 f3 188 77 188 132 #arcP
js0 f4 expr data #txt
js0 f4 outCond ivp=="exit.ivp" #txt
js0 f4 188 156 188 215 #arcP
>Proto js0 .type adressmutation.Data #txt
>Proto js0 .processKind NORMAL #txt
>Proto js0 0 0 32 24 18 0 #rect
>Proto js0 @|BIcon #fIcon
js0 f0 mainOut f3 tail #connect
js0 f3 head f2 mainIn #connect
js0 f2 out f4 tail #connect
js0 f4 head f1 mainIn #connect
