[Ivy]
[>Created: Wed Aug 24 13:33:57 CEST 2011]
131FB4D1A7030C33 3.15 #module
>Proto >Proto Collection #zClass
My0 Memory Big #zClass
My0 B #cInfo
My0 #process
My0 @TextInP .resExport .resExport #zField
My0 @TextInP .type .type #zField
My0 @TextInP .processKind .processKind #zField
My0 @AnnotationInP-0n ai ai #zField
My0 @TextInP .xml .xml #zField
My0 @TextInP .responsibility .responsibility #zField
My0 @StartRequest f0 '' #zField
My0 @EndTask f1 '' #zField
My0 @CallSub f36 '' #zField
My0 @PushWFArc f2 '' #zField
My0 @CallSub f3 '' #zField
My0 @PushWFArc f4 '' #zField
My0 @PushWFArc f5 '' #zField
My0 @ProcessException f7 '' #zField
My0 @EndRequest f6 '' #zField
My0 @PushWFArc f8 '' #zField
>Proto My0 My0 Memory #zField
My0 f0 outLink startMemoryMonitor.ivp #txt
My0 f0 type adressmutation.Data #txt
My0 f0 inParamDecl '<> param;' #txt
My0 f0 actionDecl 'adressmutation.Data out;
' #txt
My0 f0 guid 131FB4D250F8F422 #txt
My0 f0 requestEnabled true #txt
My0 f0 triggerEnabled false #txt
My0 f0 callSignature startMemoryMonitor() #txt
My0 f0 persist false #txt
My0 f0 startName Memory #txt
My0 f0 taskData '#
#Wed Aug 24 13:33:55 CEST 2011
TaskTriggered.ROL=Everybody
TaskTriggered.EXTYPE=0
TaskTriggered.EXPRI=2
TaskTriggered.TYPE=0
TaskTriggered.PRI=2
TaskTriggered.EXROL=Everybody
' #txt
My0 f0 caseData '#
#Wed Aug 24 13:33:55 CEST 2011
businessCreator.user=
businessMilestone.timestamp=
businessObject.code=
businessObject.docDb.code=
businessObject.folder.id=
businessObject.name=
businessPriority=
businessStart.timestamp=
case.description=
case.name=
correspondent.id=
mainContact.docDb.code=
mainContact.folder.id=
mainContact.id=
mainContact.name=
mainContact.type=
process.code=
process.name=
processCategory.code=
processCategory.name=
subType.code=
subType.name=
type.code=
type.name=
' #txt
My0 f0 showInStartList 1 #txt
My0 f0 roleExceptionId 131FB4D1A7030C33-f7-buffer #txt
My0 f0 taskAndCaseSetupAction 'import ch.ivyteam.ivy.workflow.TaskUpdateDefinition;
ch.ivyteam.ivy.workflow.TaskUpdateDefinition taskUpdDef = new ch.ivyteam.ivy.workflow.TaskUpdateDefinition();taskUpdDef.setPriority(ch.ivyteam.ivy.workflow.WorkflowPriority.valueOf(2));
taskUpdDef.setExpiryActivator("Everybody");
taskUpdDef.setExpiryPriority(ch.ivyteam.ivy.workflow.WorkflowPriority.valueOf(2));
engine.updateCurrentTask(taskUpdDef);
' #txt
My0 f0 @C|.xml '<?xml version="1.0" encoding="UTF-8" standalone="yes"?>
<elementInfo>
    <language>
        <name>startMemoryMonitor.ivp</name>
        <nameStyle>22,5,7
</nameStyle>
    </language>
</elementInfo>
' #txt
My0 f0 @C|.responsibility Administrator #txt
My0 f0 211 67 26 26 14 0 #rect
My0 f0 @|StartRequestIcon #fIcon
My0 f1 type adressmutation.Data #txt
My0 f1 211 235 26 26 14 0 #rect
My0 f1 @|EndIcon #fIcon
My0 f36 type adressmutation.Data #txt
My0 f36 processCall 'Functional Processes/Login:call()' #txt
My0 f36 doCall true #txt
My0 f36 requestActionDecl '<> param;
' #txt
My0 f36 responseActionDecl 'adressmutation.Data out;
' #txt
My0 f36 responseMappingAction 'out=in;
' #txt
My0 f36 @C|.xml '<?xml version="1.0" encoding="UTF-8" standalone="yes"?>
<elementInfo>
    <language>
        <name>login?</name>
        <nameStyle>6
</nameStyle>
    </language>
</elementInfo>
' #txt
My0 f36 206 124 36 24 20 -2 #rect
My0 f36 @|CallSubIcon #fIcon
My0 f2 expr out #txt
My0 f2 224 93 224 124 #arcP
My0 f3 type adressmutation.Data #txt
My0 f3 processCall 'Business Processes/Administration/Memory:call()' #txt
My0 f3 doCall true #txt
My0 f3 requestActionDecl '<> param;
' #txt
My0 f3 responseActionDecl 'adressmutation.Data out;
' #txt
My0 f3 responseMappingAction 'out=in;
' #txt
My0 f3 @C|.xml '<?xml version="1.0" encoding="UTF-8" standalone="yes"?>
<elementInfo>
    <language>
        <name>call()</name>
    </language>
</elementInfo>
' #txt
My0 f3 206 180 36 24 20 -2 #rect
My0 f3 @|CallSubIcon #fIcon
My0 f4 expr out #txt
My0 f4 224 148 224 180 #arcP
My0 f5 expr out #txt
My0 f5 224 204 224 235 #arcP
My0 f7 .resExport export #txt
My0 f7 actionDecl 'adressmutation.Data out;
' #txt
My0 f7 actionTable 'out=in;
out.error=exception;
' #txt
My0 f7 type adressmutation.Data #txt
My0 f7 @C|.xml '<?xml version="1.0" encoding="UTF-8" standalone="yes"?>
<elementInfo>
    <language>
        <name>RoleViolation</name>
        <nameStyle>13
</nameStyle>
    </language>
</elementInfo>
' #txt
My0 f7 411 115 26 26 14 0 #rect
My0 f7 @|ExceptionIcon #fIcon
My0 f6 type adressmutation.Data #txt
My0 f6 template "/ProcessPages/Configurations/RoleViolation.ivc" #txt
My0 f6 @C|.xml '<?xml version="1.0" encoding="UTF-8" standalone="yes"?>
<elementInfo>
    <language>
        <name>Role Exception</name>
        <nameStyle>14
</nameStyle>
    </language>
</elementInfo>
' #txt
My0 f6 411 307 26 26 14 0 #rect
My0 f6 @|EndRequestIcon #fIcon
My0 f8 expr out #txt
My0 f8 424 141 424 307 #arcP
>Proto My0 .type adressmutation.Data #txt
>Proto My0 .processKind NORMAL #txt
>Proto My0 0 0 32 24 18 0 #rect
>Proto My0 @|BIcon #fIcon
My0 f0 mainOut f2 tail #connect
My0 f2 head f36 mainIn #connect
My0 f36 mainOut f4 tail #connect
My0 f4 head f3 mainIn #connect
My0 f3 mainOut f5 tail #connect
My0 f5 head f1 mainIn #connect
My0 f7 mainOut f8 tail #connect
My0 f8 head f6 mainIn #connect
