<iframe id="getPDFS" name="getPDFS" src="<%=ivy.html.ref("showScanFile.ivp")%>"  frameborder=0></iframe>
<script language="JavaScript">

	// old fixed size:
	// height="800px"
	// width="500px"
	
	// dynamic size
	$('#getPDFS').height($(parent).height()); 
	$('#getPDFS').width($(parent).width()/<%=ivy.cms.co("/Content/Shared/Configuration/Layout/getPDFsWidthFactor")%>);

	$('#getPDFS').load(function(){
		$(this.contentDocument).find("#tFrame").height($(parent).height()-65);
	});
	
</script>