auto.header.value=false
col0=body.td\=nowrap\\\=nowrap\\nstyle\\\=background-color\\\\\\\:white;padding\\\\\\\:0 0;\nbody.value\=IF(in.orderBookId\\\=\\\=record.getField("orderBookid").toString().toNumber()\\n, "<span style\\\='display\\\:block;background-color\\\:\\\#630000;color\\\: white; height\\\: 20px; padding-top\\\: 4px; padding-left\\\: 4px;'>"\\n, "<span style\\\='display\\\:block;height\\\: 20px; padding-top\\\: 4px; padding-left\\\: 4px;'>"\\n)+ivy.html.escape(value)+"</span>"\nheader.value\=Auftragsbuch\nlink.value\=a\\\=class\\\\\\\=noCache\\nivp\\\=getStatistics.ivp\\nrow.index\\\=in.i\nname.value\=name
col1=body.td\=\\\#Thu Jul 21 17\\\:00\\\:13 CEST 2011\\r\\nnowrap\\\=nowrap\\r\\n\nbody.value\=value\ncondition.value\=false\nheader.value\=Typen\nname.value\=orderTypes
default.sort.value=-1
footer.show.value=false
header.show.value=true
table.caption.value=
table.default.page.size.value=
table.empty.value=Keine Auftragsb\u00FCcher definiert.
table.source=in.rsOrderBooks