[Ivy]
[>Created: Wed Aug 24 12:22:35 CEST 2011]
131FB3D79A139414 3.15 #module
>Proto >Proto Collection #zClass
My0 Memory Big #zClass
My0 B #cInfo
My0 #process
My0 @TextInP .resExport .resExport #zField
My0 @TextInP .type .type #zField
My0 @TextInP .processKind .processKind #zField
My0 @AnnotationInP-0n ai ai #zField
My0 @TextInP .xml .xml #zField
My0 @TextInP .responsibility .responsibility #zField
My0 @StartSub f0 '' #zField
My0 @EndSub f1 '' #zField
My0 @Page f2 '' #zField
My0 @PushWFArc f3 '' #zField
My0 @PushWFArc f4 '' #zField
>Proto My0 My0 Memory #zField
My0 f0 outParamDecl '<> result;
' #txt
My0 f0 actionDecl 'adressmutation.Data out;
' #txt
My0 f0 callSignature call() #txt
My0 f0 type adressmutation.Data #txt
My0 f0 @C|.xml '<?xml version="1.0" encoding="UTF-8" standalone="yes"?>
<elementInfo>
    <language>
        <name>call()</name>
    </language>
</elementInfo>
' #txt
My0 f0 87 37 26 26 14 0 #rect
My0 f0 @|StartSubIcon #fIcon
My0 f1 type adressmutation.Data #txt
My0 f1 87 287 26 26 14 0 #rect
My0 f1 @|EndSubIcon #fIcon
My0 f2 outTypes "adressmutation.Data" #txt
My0 f2 outLinks "LinkA.ivp" #txt
My0 f2 template "memory.ivc" #txt
My0 f2 type adressmutation.Data #txt
My0 f2 skipLink skip.ivp #txt
My0 f2 sortLink sort.ivp #txt
My0 f2 templateWizard '#
#Wed Aug 24 12:22:33 CEST 2011
' #txt
My0 f2 pageArchivingActivated false #txt
My0 f2 @C|.responsibility Everybody #txt
My0 f2 82 148 36 24 20 -2 #rect
My0 f2 @|PageIcon #fIcon
My0 f3 expr out #txt
My0 f3 100 63 100 148 #arcP
My0 f4 expr data #txt
My0 f4 outCond ivp=="LinkA.ivp" #txt
My0 f4 100 172 100 287 #arcP
>Proto My0 .type adressmutation.Data #txt
>Proto My0 .processKind CALLABLE_SUB #txt
>Proto My0 0 0 32 24 18 0 #rect
>Proto My0 @|BIcon #fIcon
My0 f0 mainOut f3 tail #connect
My0 f3 head f2 mainIn #connect
My0 f2 out f4 tail #connect
My0 f4 head f1 mainIn #connect
