#Tue Feb 01 17:45:19 CET 2011
default.sort.value=-1
table.default.page.size.value=ivy.var.MaxRowsPerPage.toNumber()
table.source=in.configs
footer.show.value=true
table.empty.value=
header.show.value=true
col1=\#Tue Feb 01 17\:45\:19 CET 2011\r\nbody.value\=ivy.cms.co("/Content/Shared/Images/edit")\r\nlink.value\=\\\#Tue Feb 01 17\\\:45\\\:01 CET 2011\\r\\nivp\\\=getConfig.ivp\\r\\nrow.index\\\=in.i\\r\\n\r\n
table.caption.value=
col0=\#Tue Feb 01 17\:45\:19 CET 2011\r\nbody.value\=ivy.html.escape(value)\r\nname.value\=Konfiguration\r\n
auto.header.value=true
