<FORM NAME="formsetLotSize" METHOD="POST" ACTION='<%=ivy.html.ref("setLotSize.ivp")%>'  >
<!--ivyform--><table BORDER="0"><tr >
<td ><!--i.tlotSize-->Anzahl Datensätze</td>
<td ><!--i.alotSize--><%=ivy.html.menu("\"@_;25;_50;_100;_0;Alle_\"","lotSize",0,"in.lotSize","onchange=\"this.form.submit();\" ")%></td>
</tr>




</table></FORM>