<script type="text/javascript">
$(document).ready(function() {
	if("<%=ivy.html.get("in.eViewType")%>"=="CHECK"){
	    $(".bpOrderNo").trigger("disabled");
	    $(".orderNo ").trigger("disabled");	
	}
});
</script>