[Ivy]
[>Created: Mon Sep 19 11:47:57 CEST 2016]
1307B08C5D463B87 3.17 #module
>Proto >Proto Collection #zClass
As0 Attributes Big #zClass
As0 B #cInfo
As0 #process
As0 @TextInP .resExport .resExport #zField
As0 @TextInP .type .type #zField
As0 @TextInP .processKind .processKind #zField
As0 @AnnotationInP-0n ai ai #zField
As0 @TextInP .xml .xml #zField
As0 @TextInP .responsibility .responsibility #zField
As0 @Page f4 '' #zField
As0 @Page f10 '' #zField
As0 @GridStep f2 '' #zField
As0 @GridStep f12 '' #zField
As0 @GridStep f19 '' #zField
As0 @GridStep f32 '' #zField
As0 @CallSub f14 '' #zField
As0 @GridStep f31 '' #zField
As0 @GridStep f23 '' #zField
As0 @EndSub f1 '' #zField
As0 @GridStep f28 '' #zField
As0 @EndSub f8 '' #zField
As0 @GridStep f39 '' #zField
As0 @StartSub f0 '' #zField
As0 @GridStep f36 '' #zField
As0 @Alternative f50 '' #zField
As0 @Alternative f34 '' #zField
As0 @GridStep f16 '' #zField
As0 @GridStep f48 '' #zField
As0 @GridStep f22 '' #zField
As0 @GridStep f35 '' #zField
As0 @GridStep f7 '' #zField
As0 @Alternative f26 '' #zField
As0 @StartSub f44 '' #zField
As0 @GridStep f21 '' #zField
As0 @PushWFArc f5 '' #zField
As0 @PushWFArc f6 '' #zField
As0 @PushWFArc f9 '' #zField
As0 @PushWFArc f13 '' #zField
As0 @PushWFArc f15 '' #zField
As0 @PushWFArc f17 '' #zField
As0 @PushWFArc f18 '' #zField
As0 @PushWFArc f20 '' #zField
As0 @PushWFArc f11 '' #zField
As0 @PushWFArc f25 '' #zField
As0 @PushWFArc f3 '' #zField
As0 @PushWFArc f37 '' #zField
As0 @PushWFArc f27 '' #zField
As0 @PushWFArc f30 '' #zField
As0 @PushWFArc f42 '' #zField
As0 @PushWFArc f45 '' #zField
As0 @PushWFArc f33 '' #zField
As0 @PushWFArc f49 '' #zField
As0 @PushWFArc f53 '' #zField
As0 @PushWFArc f54 '' #zField
As0 @PushWFArc f41 '' #zField
As0 @PushWFArc f46 '' #zField
As0 @PushWFArc f43 '' #zField
As0 @PushWFArc f40 '' #zField
As0 @PushWFArc f52 '' #zField
As0 @CallSub f55 '' #zField
As0 @PushWFArc f57 '' #zField
As0 @PushWFArc f58 '' #zField
As0 @GridStep f59 '' #zField
As0 @PushWFArc f60 '' #zField
As0 @GridStep f61 '' #zField
As0 @PushWFArc f62 '' #zField
As0 @CallSub f63 '' #zField
As0 @PushWFArc f64 '' #zField
As0 @GridStep f68 '' #zField
As0 @PushWFArc f65 '' #zField
As0 @Page f66 '' #zField
As0 @PushWFArc f69 '' #zField
As0 @GridStep f70 '' #zField
As0 @PushWFArc f71 '' #zField
As0 @PushWFArc f72 '' #zField
As0 @GridStep f67 '' #zField
As0 @PushWFArc f74 '' #zField
As0 @GridStep f73 '' #zField
As0 @PushWFArc f75 '' #zField
As0 @PushWFArc f76 '' #zField
As0 @GridStep f77 '' #zField
As0 @PushWFArc f78 '' #zField
As0 @PushWFArc f79 '' #zField
As0 @PushWFArc f56 '' #zField
As0 @PushWFArc f29 '' #zField
As0 @PushWFArc f51 '' #zField
As0 @PushWFArc f38 '' #zField
>Proto As0 As0 Attributes #zField
As0 f4 outTypes "ch.soreco.common.webbies.entity.ui.admin.form.Attributes","ch.soreco.common.webbies.entity.ui.admin.form.Attributes","ch.soreco.common.webbies.entity.ui.admin.form.Attributes","ch.soreco.common.webbies.entity.ui.admin.form.Attributes" #txt
As0 f4 outLinks "exit.ivp","edit.ivp","changeView.ivp","export.ivp" #txt
As0 f4 template "/ProcessPages/Attributes/AttributesTable.ivc" #txt
As0 f4 type ch.soreco.common.webbies.entity.ui.admin.form.Attributes #txt
As0 f4 skipLink skip.ivp #txt
As0 f4 sortLink sort.ivp #txt
As0 f4 templateWizard '#
#Mon Jun 27 10:33:35 CEST 2011
' #txt
As0 f4 pageArchivingActivated false #txt
As0 f4 @C|.xml '<?xml version="1.0" encoding="UTF-8" standalone="yes"?>
<elementInfo>
    <language>
        <name>Attributes Table</name>
        <nameStyle>16
</nameStyle>
    </language>
</elementInfo>
' #txt
As0 f4 @C|.responsibility Everybody #txt
As0 f4 94 220 36 24 20 -2 #rect
As0 f4 @|PageIcon #fIcon
As0 f10 outTypes "ch.soreco.common.webbies.entity.ui.admin.form.Attributes","ch.soreco.common.webbies.entity.ui.admin.form.Attributes","ch.soreco.common.webbies.entity.ui.admin.form.Attributes","ch.soreco.common.webbies.entity.ui.admin.form.Attributes","ch.soreco.common.webbies.entity.ui.admin.form.Attributes","ch.soreco.common.webbies.entity.ui.admin.form.Attributes","ch.soreco.common.webbies.entity.ui.admin.form.Attributes" #txt
As0 f10 outLinks "exit.ivp","submit.ivp","resetProperties.ivp","getFields.ivp","uploadHelpFile.ivp","uploadHelpFile2.ivp","uploadIcon.ivp" #txt
As0 f10 template "/ProcessPages/Attributes/AttributeContentEdit.ivc" #txt
As0 f10 type ch.soreco.common.webbies.entity.ui.admin.form.Attributes #txt
As0 f10 skipLink skip.ivp #txt
As0 f10 sortLink sort.ivp #txt
As0 f10 templateWizard '#
#Tue Jul 26 15:53:52 CEST 2011
' #txt
As0 f10 pageArchivingActivated false #txt
As0 f10 @C|.xml '<?xml version="1.0" encoding="UTF-8" standalone="yes"?>
<elementInfo>
    <language>
        <name>Edit Attribute Content</name>
        <nameStyle>22
</nameStyle>
    </language>
</elementInfo>
' #txt
As0 f10 @C|.responsibility Everybody #txt
As0 f10 662 748 36 24 20 -2 #rect
As0 f10 @|PageIcon #fIcon
As0 f2 actionDecl 'ch.soreco.common.webbies.entity.ui.admin.form.Attributes out;
' #txt
As0 f2 actionTable 'out=in;
' #txt
As0 f2 actionCode 'import ch.soreco.webbies.common.html.generics.AttributeConstants;
import ch.soreco.webbies.common.html.generics.InputType;
import ch.soreco.webbies.common.html.generics.AttributeClass;
import ch.soreco.webbies.common.html.generics.AttributeContent;
import ch.soreco.webbies.common.html.generics.InputProperties;
import ch.soreco.webbies.common.html.generics.AttributeContentType;
import ch.soreco.webbies.common.cms.CMSUtils;

if(in.view.equals("")){
	in.view = AttributeConstants.CONTENTPREFIX;
	}
AttributeClass attributeClass = new AttributeClass(in.clazz, in.view);
in.views = attributeClass.getViews();

in.rs = new Recordset(["ordinal", "fieldName", "fieldType", "isComposite", "label", "InputType", "source", "attributeContent"]);
int i=0;
for(AttributeContent co :attributeClass.getAllContents()){
	i++;
	in.attributeContent = co;
	if(in.attributeContent.ordinal==0){
		in.attributeContent.setAttributeVisualOrder(i);
		}
	Record rec = new Record();
	rec.putField("attributeContent",in.attributeContent);
	rec.putField("ordinal",in.attributeContent.ordinal);
	rec.putField("isComposite",in.attributeContent.isComposite());
	rec.putField("fieldName",in.attributeContent.fieldName);
	rec.putField("fieldType",in.attributeContent.field.getType().getSimpleName());
	rec.putField("label",in.attributeContent.getLabelAndIcon());
	rec.putField("InputType",in.attributeContent.getInputTypeProperty().toString());
	//rec.putField("contentUri",in.attributeContent.getAttributeContentUri());
	rec.putField("source", in.attributeContent.getType(AttributeContentType.SOURCE));
	in.rs.add(rec);	
	}
' #txt
As0 f2 type ch.soreco.common.webbies.entity.ui.admin.form.Attributes #txt
As0 f2 @C|.xml '<?xml version="1.0" encoding="UTF-8" standalone="yes"?>
<elementInfo>
    <language>
        <name>Explore Class Attribute Content</name>
        <nameStyle>31
</nameStyle>
    </language>
</elementInfo>
' #txt
As0 f2 94 156 36 24 20 -2 #rect
As0 f2 @|StepIcon #fIcon
As0 f12 actionDecl 'ch.soreco.common.webbies.entity.ui.admin.form.Attributes out;
' #txt
As0 f12 actionTable 'out=in;
out.attributeContent=in.rs.getField(in.i,"attributeContent") as ch.soreco.webbies.common.html.generics.AttributeContent;
' #txt
As0 f12 type ch.soreco.common.webbies.entity.ui.admin.form.Attributes #txt
As0 f12 @C|.xml '<?xml version="1.0" encoding="UTF-8" standalone="yes"?>
<elementInfo>
    <language>
        <name>get Attribute</name>
        <nameStyle>13
</nameStyle>
    </language>
</elementInfo>
' #txt
As0 f12 230 220 36 24 20 -2 #rect
As0 f12 @|StepIcon #fIcon
As0 f19 actionDecl 'ch.soreco.common.webbies.entity.ui.admin.form.Attributes out;
' #txt
As0 f19 actionTable 'out=in;
' #txt
As0 f19 actionCode 'import ch.soreco.webbies.common.html.generics.InputProperties;
import ch.soreco.webbies.common.html.generics.ClassProperties;
import ch.soreco.webbies.common.html.generics.AttributeContentType;
import ch.soreco.webbies.common.html.generics.ViewProperties;

Boolean propertyChanged = false;
int i=0;
for(Record rec:in.rsEdit.getRecords()){
	i++;
	int index = rec.getField("Index").toString().toNumber();
	if(rec.getField("Index")!=null){
			String submitValue = rec.getField("Value").toString().trim();
			submitValue = submitValue.replace("<_%","<%").replace("%_>","%>");
	String oldValue = in.rs.getField(index,"Value").toString().trim();
	if(!oldValue.equals(submitValue)){
		Record contentRec = in.rs.getAt(index);
		String type = contentRec.getField("Type").toString();
		String name = contentRec.getField("Name").toString();
		if(type.equals("ordinal")){
			in.attributeContent.setAttributeVisualOrder(submitValue.toNumber());
			}
		if(type.equals("AttributeContentType")){
			AttributeContentType coType = AttributeContentType.valueOf(name);
			in.attributeContent.setType(coType,submitValue);
			}
		if(type.equals("InputProperties")){
			try {
				InputProperties property = InputProperties.valueOf(name);
				in.attributeContent.setProperty(property,submitValue);
				propertyChanged = true;
				}
			catch (Exception e){
				ivy.log.debug("Mapping of Input Property "+name+" failed",e);
				}
			}
		else if(type.equals("ClassProperties")){
			try {
				ClassProperties property = ClassProperties.valueOf(name);
				in.attributeContent.setProperty(property,submitValue);
				propertyChanged = true;
				}
			catch (Exception e){
				ivy.log.debug("Mapping of Class Property "+name+" failed",e);
				}
			}		
		else if(type.equals("ViewProperties")){
			try {
				ViewProperties property = ViewProperties.valueOf(name);
				in.attributeContent.setProperty(property,submitValue);
				propertyChanged = true;
				}
			catch (Exception e){
				ivy.log.debug("Mapping of Class Property "+name+" failed with value:"+submitValue,e);
				}
			}			
			
		}
		}
	}
String addableAssociations = "";	
for(Record rec:in.rsAssociations.getRecords()){
	if(rec.getField("Value").toString().equals("true")){
		if(addableAssociations.equals("")){
			addableAssociations = rec.getField("Name").toString().trim();
			}
		else {
			addableAssociations = addableAssociations +","+rec.getField("Name").toString().trim();
			}
		}
	}
in.associatedClasses = in.attributeContent.getProperty(ViewProperties.ADD_ASSOCIATED_CLASS);
if(!in.associationHtml.trim().equals(addableAssociations.trim())){
	in.attributeContent.setProperty(ViewProperties.ADD_ASSOCIATED_CLASS,addableAssociations);
	in.associatedClasses = addableAssociations;
	propertyChanged = true;
	}
if(propertyChanged){
	in.attributeContent.storeProperties();
}' #txt
As0 f19 type ch.soreco.common.webbies.entity.ui.admin.form.Attributes #txt
As0 f19 @C|.xml '<?xml version="1.0" encoding="UTF-8" standalone="yes"?>
<elementInfo>
    <language>
        <name>set Content &amp; Properties</name>
        <nameStyle>24
</nameStyle>
    </language>
</elementInfo>
' #txt
As0 f19 990 748 36 24 20 -2 #rect
As0 f19 @|StepIcon #fIcon
As0 f32 actionDecl 'ch.soreco.common.webbies.entity.ui.admin.form.Attributes out;
' #txt
As0 f32 actionTable 'out=in;
' #txt
As0 f32 actionCode 'import ch.soreco.webbies.common.db.PersistenceUtils;
in.clazz = in.attributeContent.clazz;
in.classLabel = in.clazz.getSimpleName();
if(in.attributeContent.isAttributeContent){
	in.classLabel = in.classLabel+"."+in.attributeContent.fieldName;
	}
in.isPersistentClass = in.clazz.isAnnotationPresent(javax.persistence.Entity.class);

if(in.isPersistentClass){
	in.persistenceUnits =	PersistenceUtils.getPersistenceUnitNames();
	}

' #txt
As0 f32 type ch.soreco.common.webbies.entity.ui.admin.form.Attributes #txt
As0 f32 @C|.xml '<?xml version="1.0" encoding="UTF-8" standalone="yes"?>
<elementInfo>
    <language>
        <name>get isPersistentClass</name>
        <nameStyle>21
</nameStyle>
    </language>
</elementInfo>
' #txt
As0 f32 662 100 36 24 20 -2 #rect
As0 f32 @|StepIcon #fIcon
As0 f14 type ch.soreco.common.webbies.entity.ui.admin.form.Attributes #txt
As0 f14 processCall 'Business Processes/Generics/Admin/Attributes:editAttributeContent(ch.soreco.webbies.common.html.generics.AttributeContent)' #txt
As0 f14 doCall true #txt
As0 f14 requestActionDecl '<ch.soreco.webbies.common.html.generics.AttributeContent attributeContent> param;
' #txt
As0 f14 requestMappingAction 'param.attributeContent=in.attributeContent;
' #txt
As0 f14 responseActionDecl 'ch.soreco.common.webbies.entity.ui.admin.form.Attributes out;
' #txt
As0 f14 responseMappingAction 'out=in;
' #txt
As0 f14 @C|.xml '<?xml version="1.0" encoding="UTF-8" standalone="yes"?>
<elementInfo>
    <language>
        <name>Edit Attribute</name>
        <nameStyle>14
</nameStyle>
    </language>
</elementInfo>
' #txt
As0 f14 230 284 36 24 20 -2 #rect
As0 f14 @|CallSubIcon #fIcon
As0 f31 actionDecl 'ch.soreco.common.webbies.entity.ui.admin.form.Attributes out;
' #txt
As0 f31 actionTable 'out=in;
' #txt
As0 f31 actionCode 'import ch.soreco.webbies.common.html.generics.ViewProperties;
import ch.soreco.webbies.common.db.EntityAssociation;
import ch.soreco.webbies.common.db.EntityClasses;
import ch.soreco.webbies.common.html.generics.HtmlInput;
import ch.soreco.webbies.common.html.generics.InputType;


in.associatedClasses = in.attributeContent.getProperty(ViewProperties.ADD_ASSOCIATED_CLASS);
//Get Associations
List<EntityAssociation> associations = EntityClasses.getAssociationsOf(in.clazz);
//Add This class as Addable
int iAssociation = 0;
Boolean isAssociated = in.associatedClasses.indexOf(in.clazz.getName())>-1;
String value = isAssociated.toString();
String addThis = "";
HtmlInput index = new HtmlInput(InputType.HIDDEN, "rsAssociations$$"+iAssociation+"$$Index", iAssociation.toString());		
HtmlInput input = new HtmlInput(InputType.CHECKBOX, "rsAssociations$$"+iAssociation+"$$Value", value);
HtmlInput checkValue = new HtmlInput(InputType.HIDDEN, "rsAssociations$$"+iAssociation+"$$Value", value);			
HtmlInput clazz = new HtmlInput(InputType.LABEL, "rsAssociations$$"+iAssociation+"$$Display", " add "+in.clazz.getSimpleName());
HtmlInput hidden = new HtmlInput(InputType.HIDDEN, "rsAssociations$$"+iAssociation+"$$Name", in.clazz.getName());
addThis = input.toHtmlNode().toHtml()
						+checkValue.toHtmlNode().toHtml()
						+index.toHtmlNode().toHtml()
						+clazz.toHtmlNode().toHtml()
						+hidden.toHtmlNode().toHtml();
	
Record rec = new Record();
rec.putField("InputType","")
	.putField("Type","EntityAssociations")
	.putField("Name","EntityAssociations")
	.putField("Label","Entity can add itself")
	.putField("Value",value)
	.putField("Input",addThis)
	.putField("Description","");
in.rs.add(rec);

if(associations.size()>0){
	StringBuilder tableAssociations = new StringBuilder("");
	tableAssociations.append("<table id=''EntityMetaAssociationMap'' border=''1''>");
		tableAssociations.append("<tr>");
		tableAssociations.append("<th>From</th>");
		tableAssociations.append("<th>type</th>");			
		tableAssociations.append("<th>To</th>");
		tableAssociations.append("<th>add Button</th>");				
		tableAssociations.append("</tr>");
	tableAssociations.append("<tbody>");

	for(EntityAssociation association :associations){
		iAssociation++;//as Present Class is set to addables start with base 1
		tableAssociations.append("<tr>");
		tableAssociations.append("<td>");
		tableAssociations.append(association.referencedFrom.getName().replace(in.clazz.getName(),"<b>this</b>"));		
		tableAssociations.append("</td>");
		tableAssociations.append("<td>");
		tableAssociations.append(association.associationType.toString());		
		tableAssociations.append("</td>");
		tableAssociations.append("<td>");
		tableAssociations.append(association.referencedTo.getName().replace(in.clazz.getName(),"<b>this</b>"));		
		tableAssociations.append("</td>");
		String html = "";
		if(in.clazz.getName().equals(association.referencedTo.getName())){
			Boolean isAssociated = in.associatedClasses.indexOf(association.referencedFrom.getName())>-1;
			String value = isAssociated.toString();
			HtmlInput index = new HtmlInput(InputType.HIDDEN, "rsAssociations$$"+iAssociation+"$$Index", iAssociation.toString());		
			HtmlInput input = new HtmlInput(InputType.CHECKBOX, "rsAssociations$$"+iAssociation+"$$Value", value);
			HtmlInput checkValue = new HtmlInput(InputType.HIDDEN, "rsAssociations$$"+iAssociation+"$$Value", value);			
			HtmlInput clazz = new HtmlInput(InputType.LABEL, "rsAssociations$$"+iAssociation+"$$Display", " add "+association.referencedFrom.getSimpleName());
			HtmlInput hidden = new HtmlInput(InputType.HIDDEN, "rsAssociations$$"+iAssociation+"$$Name", association.referencedFrom.getName());
			html = input.toHtmlNode().toHtml()
						+checkValue.toHtmlNode().toHtml()
						+index.toHtmlNode().toHtml()
						+clazz.toHtmlNode().toHtml()
						+hidden.toHtmlNode().toHtml();
			}
		tableAssociations.append("<td>");
		tableAssociations.append(html);		
		tableAssociations.append("</td>");

		tableAssociations.append("</tr>");
		}
	tableAssociations.append("</tbody></table>");
	in.associationHtml = tableAssociations.toString();
	}
else {
	in.associationHtml = "";
	}

Record recAssociations = new Record();
recAssociations.putField("InputType","")
	.putField("Type","EntityAssociations")
	.putField("Name","EntityAssociations")
	.putField("Label","Entity Associations")
	.putField("Value","")
	.putField("Input",in.associationHtml)
	.putField("Description","");
in.rs.add(recAssociations);' #txt
As0 f31 type ch.soreco.common.webbies.entity.ui.admin.form.Attributes #txt
As0 f31 @C|.xml '<?xml version="1.0" encoding="UTF-8" standalone="yes"?>
<elementInfo>
    <language>
        <name>Prepare Entity 
Class Annotations</name>
        <nameStyle>33
</nameStyle>
    </language>
</elementInfo>
' #txt
As0 f31 518 596 36 24 21 -16 #rect
As0 f31 @|StepIcon #fIcon
As0 f23 actionDecl 'ch.soreco.common.webbies.entity.ui.admin.form.Attributes out;
' #txt
As0 f23 actionTable 'out=in;
' #txt
As0 f23 actionCode 'import ch.soreco.webbies.common.html.generics.AttributeContent;
import ch.soreco.webbies.common.html.generics.AttributeClass;

AttributeClass attributeClass = new AttributeClass(in.clazz, in.attributeContent.getView());

for(int i=0;i<attributeClass.getContents().size();i++){
	AttributeContent co = attributeClass.getContents().get(i) as AttributeContent;
	int pos = i+1;
	if(co.ordinal<>pos){
		co.setAttributeVisualOrder(pos);
		}
	}' #txt
As0 f23 type ch.soreco.common.webbies.entity.ui.admin.form.Attributes #txt
As0 f23 @C|.xml '<?xml version="1.0" encoding="UTF-8" standalone="yes"?>
<elementInfo>
    <language>
        <name>Check Visual Order</name>
        <nameStyle>18
</nameStyle>
    </language>
</elementInfo>
' #txt
As0 f23 990 692 36 24 20 -2 #rect
As0 f23 @|StepIcon #fIcon
As0 f1 type ch.soreco.common.webbies.entity.ui.admin.form.Attributes #txt
As0 f1 99 323 26 26 14 0 #rect
As0 f1 @|EndSubIcon #fIcon
As0 f28 actionDecl 'ch.soreco.common.webbies.entity.ui.admin.form.Attributes out;
' #txt
As0 f28 actionTable 'out=in;
' #txt
As0 f28 actionCode 'import ch.soreco.webbies.common.html.generics.LabelPosition;
import ch.soreco.webbies.common.html.generics.AttributeConstants;
import ch.soreco.webbies.common.html.generics.AttributeClass;
import java.util.LinkedHashMap;
import ch.soreco.webbies.common.html.generics.InputProperties;
import ch.soreco.webbies.common.html.generics.InputType;
import ch.soreco.webbies.common.html.generics.HtmlInput;
import ch.soreco.webbies.common.eclipse.Classes;
import ch.soreco.common.enums.BooleanOption;

int iProperty=in.rs.size();	
List<String>  selectableClasses = new List<String>();

LinkedHashMap booleans = new LinkedHashMap();
booleans.put("TRUE","Ja");
booleans.put("FALSE","Nein");

selectableClasses.add("");
for(Class clazz:Classes.getAllEnums()){
	selectableClasses.add(clazz.getName());
	}

//Map Lables for InputTypes
AttributeClass inputTypesAttributeClass = new AttributeClass(InputType.class, in.contentView);
//Map Lables for LabelPosition
AttributeClass labelPositionAttributeClass = new AttributeClass(LabelPosition.class, in.contentView);
//AttributeClass booleanClass = new AttributeClass(BooleanOption.class, in.attributeContent.getView());

LinkedHashMap selectables = new LinkedHashMap();
selectables.put(InputProperties.InputType.toString(),inputTypesAttributeClass.getKeyLabelMap());
selectables.put(InputProperties.LabelPosition.toString(),labelPositionAttributeClass.getKeyLabelMap());
selectables.put(InputProperties.Required.toString(),booleans);

LinkedHashMap defaults = new LinkedHashMap();
defaults.put(InputProperties.InputType.toString(),InputType.UNDEFINED.toString());
defaults.put(InputProperties.LabelPosition.toString(),LabelPosition.LEFT.toString());
defaults.put(InputProperties.Required.toString(), BooleanOption.FALSE.toString());

AttributeClass acInputProperties = new AttributeClass(InputProperties.class, in.contentView);
LinkedHashMap inputPropertiesLabels = acInputProperties.getKeyLabelMap();

for(String propertyName:inputPropertiesLabels.keySet()){
	InputProperties property = InputProperties.valueOf(propertyName);
	String value = in.attributeContent.getProperty(property);
	String label = inputPropertiesLabels.get(property.toString()).toString();
	String html = "";
	InputType inputType = InputType.TEXTINPUT;
	if(value.equals("")&&defaults.containsKey(propertyName)){
		value = defaults.get(propertyName).toString();
	}
	if(selectables.containsKey(propertyName)){
		LinkedHashMap select = selectables.get(propertyName) as LinkedHashMap;	
		HtmlInput input = new HtmlInput("rsEdit$$"+iProperty+"$$Value", value, select);
		HtmlInput index = new HtmlInput(InputType.HIDDEN, "rsEdit$$"+iProperty+"$$Index", iProperty.toString());			
		html = input.toHtmlNode().toHtml()+index.toHtmlNode().toHtml();		
		inputType = InputType.SELECT;
	}
	else if(property.equals(InputProperties.SelectEnum)){
		if(in.attributeContent.isEntity()){
			//the select class option can only be the the entity
			HtmlInput input = new HtmlInput(InputType.LABEL, "rsEdit$$"+iProperty+"$$Value", in.attributeContent.field.getType().getName());			
			HtmlInput hidden = new HtmlInput(InputType.HIDDEN, "rsEdit$$"+iProperty+"$$Value",in.attributeContent.field.getType().getName());					
			HtmlInput index = new HtmlInput(InputType.HIDDEN, "rsEdit$$"+iProperty+"$$Index", iProperty.toString());	
			html = input.toHtmlNode().toHtml()+index.toHtmlNode().toHtml()+hidden.toHtmlNode().toHtml();	
			inputType = InputType.SELECT;			
		}
		else {
			HtmlInput input = new HtmlInput("rsEdit$$"+iProperty+"$$Value", value, selectableClasses);
			HtmlInput index = new HtmlInput(InputType.HIDDEN, "rsEdit$$"+iProperty+"$$Index", iProperty.toString());			
			html = input.toHtmlNode().toHtml()+index.toHtmlNode().toHtml();		
			inputType = InputType.SELECT;			
		}
	}		
	Record rec = new Record();
	rec.putField("InputType",inputType)
		.putField("Type","InputProperties")
		.putField("Name",property.toString())
		.putField("Label",label)
		.putField("Value",value)
		.putField("Input",html)
		.putField("Description","");
	in.rs.add(rec);

	iProperty++;	
}
	' #txt
As0 f28 type ch.soreco.common.webbies.entity.ui.admin.form.Attributes #txt
As0 f28 @C|.xml '<?xml version="1.0" encoding="UTF-8" standalone="yes"?>
<elementInfo>
    <language>
        <name>Prepare Attribute Properties</name>
        <nameStyle>28
</nameStyle>
    </language>
</elementInfo>
' #txt
As0 f28 854 444 36 24 20 -21 #rect
As0 f28 @|StepIcon #fIcon
As0 f8 type ch.soreco.common.webbies.entity.ui.admin.form.Attributes #txt
As0 f8 667 907 26 26 14 0 #rect
As0 f8 @|EndSubIcon #fIcon
As0 f39 actionDecl 'ch.soreco.common.webbies.entity.ui.admin.form.Attributes out;
' #txt
As0 f39 actionTable 'out=in;
' #txt
As0 f39 actionCode 'import java.util.LinkedHashMap;
import ch.soreco.webbies.common.html.generics.ViewProperties;
import ch.soreco.webbies.common.html.generics.ClassDisplayType;
import ch.soreco.webbies.common.db.PersistenceUtils;
import ch.soreco.webbies.common.util.CompositeUtils;
import java.lang.reflect.Field;
import ch.soreco.webbies.common.html.generics.AttributeClass;
import ch.soreco.common.enums.BooleanOption;
import ch.soreco.webbies.common.html.generics.ClassProperties;
import ch.soreco.webbies.common.html.generics.HtmlInput;
import ch.soreco.webbies.common.html.generics.InputType;

int iProperty=in.rs.size();	

AttributeClass booleanClass = new AttributeClass(BooleanOption.class, in.attributeContent.getView());
LinkedHashMap booleans = new LinkedHashMap();
booleans.put("TRUE","Ja");
booleans.put("FALSE","Nein");

LinkedHashMap views = new LinkedHashMap();
views.put("","");
for(String view :in.views){
	views.put(view,view);
	}

//Prepare Drop downs
List asBoolean = [ViewProperties.WRAP_FIELDSET.toString()];
LinkedHashMap fieldNames = new LinkedHashMap();
for(Field field:in.clazz.getDeclaredFields()){
	if(!field.getName().equals("serialVersionUID")){
		//fieldsNames will be used for Select Options
		//for Choosing the Value to display as placeholder
		if(!CompositeUtils.isComposite(field)){
			fieldNames.put(field.getName(), field.getName());			
			}
		}
	}
	
//Prepare persistenceUnits for Selection
LinkedHashMap persistenceUnits = new LinkedHashMap();
for(String unit:in.persistenceUnits){
	persistenceUnits.put(unit, unit);
	}
	
//Set Class Properties which are editable
List<ClassProperties> classProperties = ClassProperties.values();
AttributeClass acClassProperties = new AttributeClass(ClassProperties.class, in.contentView);
LinkedHashMap classPropertiesLabels = acClassProperties.getKeyLabelMap();

List<ViewProperties> viewProperties = ViewProperties.values();
AttributeClass acViewProperties = new AttributeClass(ViewProperties.class, in.contentView);
LinkedHashMap viewPropertiesLabels = acViewProperties.getKeyLabelMap();

AttributeClass displayTypesClass = new AttributeClass(ClassDisplayType.class, in.contentView);

if(in.isPersistentClass){
	//get Id FieldName if available
	String value = in.attributeContent.getProperty(ClassProperties.ID_FIELD_NAME);
	if(value.trim().equals("")){
		value = PersistenceUtils.getIdFieldName(in.clazz);
		in.attributeContent.setProperty(ClassProperties.ID_FIELD_NAME,value);
		in.attributeContent.storeProperties();
		}		
	}
	
LinkedHashMap selectables = new LinkedHashMap();
selectables.put(ClassProperties.PERSISTENCEUNIT.toString(),persistenceUnits);
selectables.put(ClassProperties.CONFIGURABLE.toString(),booleans);
selectables.put(ClassProperties.SORT_BY_LABEL.toString(),booleans);
selectables.put(ViewProperties.WRAP_FIELDSET.toString(),booleans);
selectables.put(ViewProperties.CAN_BE_DELETED.toString(),booleans);
selectables.put(ViewProperties.CAN_BE_EDITED.toString(),booleans);
selectables.put(ViewProperties.CAN_EXPORT_ALL.toString(),booleans);
selectables.put(ViewProperties.CAN_IMPORT_ALL.toString(),booleans);
selectables.put(ViewProperties.ADD_EMPTY_VALUE.toString(),booleans);
selectables.put(ViewProperties.CAN_FILTER.toString(),views);
selectables.put(ViewProperties.CLASS_DISPLAY_TYPE.toString(),displayTypesClass.getKeyLabelMap());
selectables.put(ViewProperties.USE_FORLABEL_FIELD.toString(),fieldNames);

LinkedHashMap defaults = new LinkedHashMap();
defaults.put(ClassProperties.CONFIGURABLE.toString(),"false");
defaults.put(ClassProperties.SORT_BY_LABEL.toString(),"false");
defaults.put(ViewProperties.CAN_BE_DELETED.toString(),"false");
defaults.put(ViewProperties.CAN_BE_EDITED.toString(),"false");
defaults.put(ViewProperties.CAN_EXPORT_ALL.toString(),"false");
defaults.put(ViewProperties.CAN_IMPORT_ALL.toString(),"false");
defaults.put(ViewProperties.CAN_FILTER.toString(),"");
defaults.put(ViewProperties.ADD_EMPTY_VALUE.toString(),"false");

for(String propertyName:classPropertiesLabels.keySet()){
		ClassProperties property = ClassProperties.valueOf(propertyName);
		String value = in.attributeContent.getProperty(property);
		if(value.equals("")&&defaults.containsKey(propertyName)){
			value = defaults.get(propertyName).toString();
		}
		String label = classPropertiesLabels.get(propertyName).toString();
		String html = "";
		InputType inputType = InputType.TEXTINPUT;
		if(selectables.containsKey(propertyName)){
			LinkedHashMap select = selectables.get(propertyName) as LinkedHashMap;
			HtmlInput input = new HtmlInput("rsEdit$$"+iProperty+"$$Value", value, select);
			HtmlInput index = new HtmlInput(InputType.HIDDEN, "rsEdit$$"+iProperty+"$$Index", iProperty.toString());			
			html = input.toHtmlNode().toHtml()+index.toHtmlNode().toHtml();
			inputType = InputType.SELECT;
			}
		else if(property.equals(ClassProperties.ID_FIELD_NAME)){
			inputType = InputType.LABEL;
			}
			
		Record rec = new Record();
		rec.putField("InputType",inputType)
		.putField("Type","ClassProperties")
		.putField("Name",property.toString())
		.putField("Label",label)
		.putField("Value",value)
		.putField("Input",html)
		.putField("Description","");
		in.rs.add(rec);
		iProperty++;
	}
for(String propertyName:viewPropertiesLabels.keySet()){
		ViewProperties property = ViewProperties.valueOf(propertyName);
		String value = in.attributeContent.getProperty(property);
		if(value.equals("")&&defaults.containsKey(propertyName)){
			value = defaults.get(propertyName).toString();
		}
		String label = viewPropertiesLabels.get(propertyName).toString();
		String html = "";
		InputType inputType = InputType.TEXTINPUT;
		if(selectables.containsKey(propertyName)){
			LinkedHashMap select = selectables.get(propertyName) as LinkedHashMap;
			HtmlInput input = new HtmlInput("rsEdit$$"+iProperty+"$$Value", value, select);
			HtmlInput index = new HtmlInput(InputType.HIDDEN, "rsEdit$$"+iProperty+"$$Index", iProperty.toString());			
			html = input.toHtmlNode().toHtml()+index.toHtmlNode().toHtml();
			inputType = InputType.SELECT;
			}
		Record rec = new Record();
		rec.putField("InputType",inputType)
		.putField("Type","ViewProperties")
		.putField("Name",property.toString())
		.putField("Label",label)
		.putField("Value",value)
		.putField("Input",html)
		.putField("Description","");
		in.rs.add(rec);
		iProperty++;
	}' #txt
As0 f39 type ch.soreco.common.webbies.entity.ui.admin.form.Attributes #txt
As0 f39 @C|.xml '<?xml version="1.0" encoding="UTF-8" standalone="yes"?>
<elementInfo>
    <language>
        <name>Prepare Class Properties</name>
        <nameStyle>24
</nameStyle>
    </language>
</elementInfo>
' #txt
As0 f39 662 444 36 24 20 -2 #rect
As0 f39 @|StepIcon #fIcon
As0 f0 inParamDecl '<java.lang.Class clazz> param;' #txt
As0 f0 inParamTable 'out.clazz=param.clazz;
' #txt
As0 f0 outParamDecl '<> result;
' #txt
As0 f0 actionDecl 'ch.soreco.common.webbies.entity.ui.admin.form.Attributes out;
' #txt
As0 f0 callSignature call(java.lang.Class) #txt
As0 f0 type ch.soreco.common.webbies.entity.ui.admin.form.Attributes #txt
As0 f0 @C|.xml '<?xml version="1.0" encoding="UTF-8" standalone="yes"?>
<elementInfo>
    <language>
        <name>call(Class)</name>
        <nameStyle>11,5,7
</nameStyle>
    </language>
</elementInfo>
' #txt
As0 f0 99 51 26 26 14 0 #rect
As0 f0 @|StartSubIcon #fIcon
As0 f36 actionDecl 'ch.soreco.common.webbies.entity.ui.admin.form.Attributes out;
' #txt
As0 f36 actionTable 'out=in;
' #txt
As0 f36 actionCode 'import ch.soreco.webbies.common.html.generics.InputType;
import ch.soreco.webbies.common.html.generics.HtmlInput;
import ch.soreco.webbies.common.html.generics.AttributeContentType;
import ch.soreco.webbies.common.html.generics.AttributeClass;

if(!in.attributeContent.isClassContent){
	Record rec = new Record();
	rec.putField("InputType",InputType.TEXTINPUT)
			.putField("Type","ordinal")
			.putField("Name","Ordinal")
			.putField("Label","Ordinal")
			.putField("Value",in.attributeContent.ordinal)
			.putField("Input","")
			.putField("Description","");
	in.rs.add(rec);
	}
	
AttributeClass types = new AttributeClass(AttributeContentType.class, in.contentView);
for(String key:types.getKeyLabelMap().keySet()){
	AttributeContentType type  = AttributeContentType.valueOf(key);
	String label = types.getKeyLabelMap().get(key).toString();
	
	String value ="";
	String input = "";
	//get the Content Value of Type
	if(in.attributeContent.exists(type)) {
		value = in.attributeContent.getType(type);
		}	
	InputType inputType = InputType.TEXTINPUT;
	if(type.equals(AttributeContentType.SOURCE)){
		inputType = InputType.TEXTAREA;
		value = value.replace("<%","<_%").replace("%>","%_>");
		}
	if(type.equals(AttributeContentType.ICON)){
		String html = "<p>"+value+"</p><p><a href=''<%=ivy.html.ref(\"uploadIcon.ivp\")%>'' class=''asButton''>Upload</a></p>";
		Record rec = new Record();
		rec.putField("InputType","")
			.putField("Type","AttributeContentType.ICON")
			.putField("Name",type.toString())
			.putField("Label",label)
			.putField("Value",value)
			.putField("Input",html)
			.putField("Description","");
		in.rs.add(rec);
		}	
	else if(type.equals(AttributeContentType.HELPFILE)){
		String html = "<p>"+value+"</p><p><a href=''<%=ivy.html.ref(\"uploadHelpFile.ivp\")%>'' class=''asButton''>Upload</a></p>";
		Record rec = new Record();
		rec.putField("InputType","")
			.putField("Type","AttributeContentType.HELPFILE")
			.putField("Name",type.toString())
			.putField("Label",label)
			.putField("Value",value)
			.putField("Input",html)
			.putField("Description","");
		in.rs.add(rec);
		}
	else if(type.equals(AttributeContentType.HELPFILE2)){
		String html = "<p>"+value+"</p><p><a href=''<%=ivy.html.ref(\"uploadHelpFile2.ivp\")%>'' class=''asButton''>Upload</a></p>";
		Record rec = new Record();
		rec.putField("InputType","")
			.putField("Type","AttributeContentType.HELPFILE2")
			.putField("Name",type.toString())
			.putField("Label",label)
			.putField("Value",value)
			.putField("Input",html)
			.putField("Description","");
		in.rs.add(rec);
		}		
	else {
		Record rec = new Record();
		rec.putField("InputType",inputType)
			.putField("Type","AttributeContentType")
			.putField("Name",type.toString())
			.putField("Label",label)
			.putField("Value",value)
			.putField("Input",value)
			.putField("Description","");
		in.rs.add(rec);
		}
	}
	
' #txt
As0 f36 type ch.soreco.common.webbies.entity.ui.admin.form.Attributes #txt
As0 f36 @C|.xml '<?xml version="1.0" encoding="UTF-8" standalone="yes"?>
<elementInfo>
    <language>
        <name>Prepare Attribute Content</name>
        <nameStyle>25
</nameStyle>
    </language>
</elementInfo>
' #txt
As0 f36 758 332 36 24 20 -2 #rect
As0 f36 @|StepIcon #fIcon
As0 f50 type ch.soreco.common.webbies.entity.ui.admin.form.Attributes #txt
As0 f50 @C|.xml '<?xml version="1.0" encoding="UTF-8" standalone="yes"?>
<elementInfo>
    <language>
        <name>is an Enum Class?</name>
        <nameStyle>17
</nameStyle>
    </language>
</elementInfo>
' #txt
As0 f50 666 274 28 28 14 0 #rect
As0 f50 @|AlternativeIcon #fIcon
As0 f34 type ch.soreco.common.webbies.entity.ui.admin.form.Attributes #txt
As0 f34 @C|.xml '<?xml version="1.0" encoding="UTF-8" standalone="yes"?>
<elementInfo>
    <language>
        <name>is Persistent Class?</name>
        <nameStyle>20
</nameStyle>
    </language>
</elementInfo>
' #txt
As0 f34 666 514 28 28 14 0 #rect
As0 f34 @|AlternativeIcon #fIcon
As0 f16 actionDecl 'ch.soreco.common.webbies.entity.ui.admin.form.Attributes out;
' #txt
As0 f16 actionTable 'out=in;
' #txt
As0 f16 type ch.soreco.common.webbies.entity.ui.admin.form.Attributes #txt
As0 f16 230 340 36 24 20 -2 #rect
As0 f16 @|StepIcon #fIcon
As0 f48 actionDecl 'ch.soreco.common.webbies.entity.ui.admin.form.Attributes out;
' #txt
As0 f48 actionTable 'out=in;
' #txt
As0 f48 actionCode 'in.rs = new Recordset();
in.rs.addColumn("InputType", []);
in.rs.addColumn("Type", []);
in.rs.addColumn("Name", []);
in.rs.addColumn("Label", []);
in.rs.addColumn("Value", []);
in.rs.addColumn("Input", []);
in.rs.addColumn("Description", []);' #txt
As0 f48 type ch.soreco.common.webbies.entity.ui.admin.form.Attributes #txt
As0 f48 @C|.xml '<?xml version="1.0" encoding="UTF-8" standalone="yes"?>
<elementInfo>
    <language>
        <name>Prepare Recordset</name>
        <nameStyle>17
</nameStyle>
    </language>
</elementInfo>
' #txt
As0 f48 662 164 36 24 20 -2 #rect
As0 f48 @|StepIcon #fIcon
As0 f22 actionDecl 'ch.soreco.common.webbies.entity.ui.admin.form.Attributes out;
' #txt
As0 f22 actionTable 'out=in;
' #txt
As0 f22 actionCode 'import ch.soreco.webbies.common.html.generics.InputType;	
import ch.soreco.webbies.common.html.generics.HtmlInput;
//set Form Inputs
for(int i=0;i<in.rs.size();i++){
	if(!in.rs.getField(i,"InputType").toString().trim().equals("")){
	InputType inputType = in.rs.getField(i,"InputType") as InputType;
		if(!inputType.equals(InputType.SELECT)){
			HtmlInput index = new HtmlInput(InputType.HIDDEN, "rsEdit$$"+i+"$$Index", i.toString());		
			HtmlInput input = new HtmlInput(inputType, "rsEdit$$"+i+"$$Value", in.rs.getField(i,"Value").toString());
			String html = input.toHtmlNode().toHtml()+index.toHtmlNode().toHtml();
			in.rs.putField(i,"Input",html);		
			}	
		}
	}' #txt
As0 f22 type ch.soreco.common.webbies.entity.ui.admin.form.Attributes #txt
As0 f22 @C|.xml '<?xml version="1.0" encoding="UTF-8" standalone="yes"?>
<elementInfo>
    <language>
        <name>set HtmlInputs</name>
        <nameStyle>14
</nameStyle>
    </language>
</elementInfo>
' #txt
As0 f22 662 684 36 24 20 -21 #rect
As0 f22 @|StepIcon #fIcon
As0 f35 actionDecl 'ch.soreco.common.webbies.entity.ui.admin.form.Attributes out;
' #txt
As0 f35 actionTable 'out=in;
' #txt
As0 f35 actionCode 'import ch.soreco.webbies.common.db.PersistenceMetaField;
import ch.soreco.webbies.common.db.PersistenceMetaClass;
import ch.soreco.webbies.common.html.generics.InputType;

//Get Entity Infos
if(in.clazz.isAnnotationPresent(javax.persistence.Entity.class)){				
	//Get Field Infos	
	PersistenceMetaClass entityMeta = new PersistenceMetaClass(in.clazz);	
		in.rs.add([InputType.LABEL, "EntityMeta", "Entity Name", entityMeta.getEntityName(), ""]);	
		if(entityMeta.getTable()!=null){
			in.rs.add([InputType.LABEL, "EntityMeta", "Entity Table Name", entityMeta.getTable().name(), ""]);			
			in.rs.add([InputType.LABEL, "EntityMeta", "Entity Table Catalog", entityMeta.getTable().catalog(), ""]);			
			in.rs.add([InputType.LABEL, "EntityMeta", "Entity Table Schema", entityMeta.getTable().schema(), ""]);			
			}
		if(entityMeta.getPrimaryKeyField()!=null){
			in.rs.add([InputType.LABEL, "EntityMeta", "Entity Table PrimaryKey", entityMeta.getPrimaryKeyField().getJavaField().getName(), "" ]);						
		}
		StringBuilder table = new StringBuilder("");
		table.append("<table id=''EntityMetaFieldMap'' border=''1''>");
		table.append("<thead><tr><th>Name</th><th>Column Info</th></tr></thead>");
		table.append("<tbody>");
		for(PersistenceMetaField entityField : entityMeta.getFieldList()){
			table.append("<tr>");
			table.append("<td valign=''top''>");
			table.append(entityField.getJavaField().getName());
			table.append("</td>");
			table.append("<td valign=''top''>");
			table.append(entityField.toString().replace("PersistenceMetaField(","").replace(")","").replace(",","<br>"));
			table.append("</td>");
			table.append("</tr>");
			}
			
		table.append("</tbody></table>");
		in.rs.add(["", "EntityMeta", "Entity Table Columns", "", table ]);						
	}' #txt
As0 f35 type ch.soreco.common.webbies.entity.ui.admin.form.Attributes #txt
As0 f35 @C|.xml '<?xml version="1.0" encoding="UTF-8" standalone="yes"?>
<elementInfo>
    <language>
        <name>Get Entity infos</name>
        <nameStyle>16
</nameStyle>
    </language>
</elementInfo>
' #txt
As0 f35 1270 532 36 24 20 -2 #rect
As0 f35 @|StepIcon #fIcon
As0 f7 actionDecl 'ch.soreco.common.webbies.entity.ui.admin.form.Attributes out;
' #txt
As0 f7 actionTable 'out=in;
' #txt
As0 f7 actionCode in.attributeContent.resetProperties(); #txt
As0 f7 type ch.soreco.common.webbies.entity.ui.admin.form.Attributes #txt
As0 f7 @C|.xml '<?xml version="1.0" encoding="UTF-8" standalone="yes"?>
<elementInfo>
    <language>
        <name>reset to default</name>
        <nameStyle>16
</nameStyle>
    </language>
</elementInfo>
' #txt
As0 f7 374 748 36 24 20 -2 #rect
As0 f7 @|StepIcon #fIcon
As0 f26 type ch.soreco.common.webbies.entity.ui.admin.form.Attributes #txt
As0 f26 @C|.xml '<?xml version="1.0" encoding="UTF-8" standalone="yes"?>
<elementInfo>
    <language>
        <name>isClassContent?</name>
        <nameStyle>15
</nameStyle>
    </language>
</elementInfo>
' #txt
As0 f26 762 386 28 28 14 0 #rect
As0 f26 @|AlternativeIcon #fIcon
As0 f44 inParamDecl '<ch.soreco.webbies.common.html.generics.AttributeContent attributeContent> param;' #txt
As0 f44 inParamTable 'out.attributeContent=param.attributeContent;
' #txt
As0 f44 outParamDecl '<> result;
' #txt
As0 f44 actionDecl 'ch.soreco.common.webbies.entity.ui.admin.form.Attributes out;
' #txt
As0 f44 callSignature editAttributeContent(ch.soreco.webbies.common.html.generics.AttributeContent) #txt
As0 f44 type ch.soreco.common.webbies.entity.ui.admin.form.Attributes #txt
As0 f44 @C|.xml '<?xml version="1.0" encoding="UTF-8" standalone="yes"?>
<elementInfo>
    <language>
        <name>editAttributeContent(AttributeContent)</name>
        <nameStyle>38,5,7
</nameStyle>
    </language>
</elementInfo>
' #txt
As0 f44 667 51 26 26 14 0 #rect
As0 f44 @|StartSubIcon #fIcon
As0 f21 actionDecl 'ch.soreco.common.webbies.entity.ui.admin.form.Attributes out;
' #txt
As0 f21 actionTable 'out=in;
' #txt
As0 f21 actionCode 'in.classLabel = in.clazz.getSimpleName();
/*
import ch.soreco.webbies.common.html.form.AttributeClass;
import ch.soreco.webbies.common.html.form.AttributeContent;

AttributeClass attributeClass = new AttributeClass(in.clazz);
in.attributeContent = attributeClass.getClassContent();
in.classLabel = in.attributeContent.getAttributeContentLabelAndIcon();
*/' #txt
As0 f21 type ch.soreco.common.webbies.entity.ui.admin.form.Attributes #txt
As0 f21 @C|.xml '<?xml version="1.0" encoding="UTF-8" standalone="yes"?>
<elementInfo>
    <language>
        <name>Get Class Label</name>
        <nameStyle>15
</nameStyle>
    </language>
</elementInfo>
' #txt
As0 f21 94 100 36 24 20 -2 #rect
As0 f21 @|StepIcon #fIcon
As0 f5 expr out #txt
As0 f5 112 180 112 220 #arcP
As0 f6 expr data #txt
As0 f6 outCond ivp=="exit.ivp" #txt
As0 f6 112 244 112 323 #arcP
As0 f9 expr data #txt
As0 f9 outCond ivp=="exit.ivp" #txt
As0 f9 680 772 680 907 #arcP
As0 f13 expr data #txt
As0 f13 outCond ivp=="edit.ivp" #txt
As0 f13 130 232 230 232 #arcP
As0 f15 expr out #txt
As0 f15 248 244 248 284 #arcP
As0 f17 expr out #txt
As0 f17 248 308 248 340 #arcP
As0 f18 expr out #txt
As0 f18 266 352 130 168 #arcP
As0 f18 1 336 352 #addKink
As0 f18 2 336 168 #addKink
As0 f18 1 0.6894377124165397 0 0 #arcLabel
As0 f20 expr data #txt
As0 f20 outCond ivp=="submit.ivp" #txt
As0 f20 698 760 990 760 #arcP
As0 f11 expr out #txt
As0 f11 680 708 680 748 #arcP
As0 f25 expr out #txt
As0 f25 112 77 112 100 #arcP
As0 f3 expr out #txt
As0 f3 112 124 112 156 #arcP
As0 f37 expr out #txt
As0 f37 776 356 776 386 #arcP
As0 f27 expr out #txt
As0 f27 872 468 698 691 #arcP
As0 f27 1 872 640 #addKink
As0 f27 1 0.03992857520209613 0 0 #arcLabel
As0 f30 expr out #txt
As0 f30 1008 748 1008 716 #arcP
As0 f42 expr data #txt
As0 f42 outCond ivp=="changeView.ivp" #txt
As0 f42 94 232 94 112 #arcP
As0 f42 1 48 232 #addKink
As0 f42 2 48 112 #addKink
As0 f42 1 0.5915631283046203 0 0 #arcLabel
As0 f45 expr out #txt
As0 f45 680 77 680 100 #arcP
As0 f33 expr data #txt
As0 f33 outCond ivp=="resetProperties.ivp" #txt
As0 f33 662 760 410 760 #arcP
As0 f49 expr in #txt
As0 f49 785 405 854 446 #arcP
As0 f49 0 0.42261288768782307 0 0 #arcLabel
As0 f53 expr out #txt
As0 f53 680 124 680 164 #arcP
As0 f54 expr out #txt
As0 f54 1008 692 698 176 #arcP
As0 f54 1 1008 176 #addKink
As0 f54 0 0.8480179399210861 0 0 #arcLabel
As0 f41 expr out #txt
As0 f41 392 748 662 176 #arcP
As0 f41 1 392 176 #addKink
As0 f41 0 0.7725099170111368 0 0 #arcLabel
As0 f46 expr out #txt
As0 f46 554 619 662 685 #arcP
As0 f43 expr out #txt
As0 f43 680 468 680 514 #arcP
As0 f40 expr in #txt
As0 f40 outCond in.isPersistentClass #txt
As0 f40 671 533 554 598 #arcP
As0 f52 expr in #txt
As0 f52 680 542 680 684 #arcP
As0 f55 type ch.soreco.common.webbies.entity.ui.admin.form.Attributes #txt
As0 f55 processCall 'Business Processes/Generics/Admin/Attributes:call(java.lang.Class)' #txt
As0 f55 doCall true #txt
As0 f55 requestActionDecl '<java.lang.Class clazz> param;
' #txt
As0 f55 requestMappingAction 'param.clazz=in.clazz;
' #txt
As0 f55 responseActionDecl 'ch.soreco.common.webbies.entity.ui.admin.form.Attributes out;
' #txt
As0 f55 responseMappingAction 'out=in;
' #txt
As0 f55 @C|.xml '<?xml version="1.0" encoding="UTF-8" standalone="yes"?>
<elementInfo>
    <language>
        <name>Get Class Fields</name>
        <nameStyle>16
</nameStyle>
    </language>
</elementInfo>
' #txt
As0 f55 582 796 36 24 20 -2 #rect
As0 f55 @|CallSubIcon #fIcon
As0 f57 expr data #txt
As0 f57 outCond ivp=="getFields.ivp" #txt
As0 f57 662 771 618 797 #arcP
As0 f58 expr out #txt
As0 f58 618 797 662 771 #arcP
As0 f59 actionDecl 'ch.soreco.common.webbies.entity.ui.admin.form.Attributes out;
' #txt
As0 f59 actionTable 'out=in;
' #txt
As0 f59 actionCode 'import ch.soreco.webbies.common.html.generics.AttributeClass;
List<Recordset> configs = new List<Recordset>();
List<String> fieldNames = new List<String>();

AttributeClass ac = new AttributeClass(in.clazz);
in.rsExport = in.rs;
//in.rsExport=ac.getPropertiesRecordset();	
' #txt
As0 f59 type ch.soreco.common.webbies.entity.ui.admin.form.Attributes #txt
As0 f59 @C|.xml '<?xml version="1.0" encoding="UTF-8" standalone="yes"?>
<elementInfo>
    <language>
        <name>Prepare Export</name>
        <nameStyle>14,7
</nameStyle>
    </language>
</elementInfo>
' #txt
As0 f59 22 284 36 24 20 -2 #rect
As0 f59 @|StepIcon #fIcon
As0 f60 expr data #txt
As0 f60 outCond ivp=="export.ivp" #txt
As0 f60 99 244 54 284 #arcP
As0 f61 actionDecl 'ch.soreco.common.webbies.entity.ui.admin.form.Attributes out;
' #txt
As0 f61 actionTable 'out=in;
' #txt
As0 f61 actionCode 'import ch.soreco.webbies.common.excel.ColumnMeta;
import ch.soreco.webbies.common.excel.SheetMeta;
import ch.soreco.webbies.common.excel.ExcelWriter;
SheetMeta meta = new SheetMeta(in.rsExport);
//meta.caption = "Class Configurations";
meta.sheetName = "Configs";
ExcelWriter excel = new ExcelWriter("Excel.xls");


try {
excel.export(meta);
File excelFile = excel.getExcelFile();
out.excel = new java.io.File(excelFile.getJavaFile().getAbsolutePath());//new java.io.File(excelFile.getPath());
} catch (Exception e){
	ivy.log.error("Error during exporting to excel.", e);
	}' #txt
As0 f61 type ch.soreco.common.webbies.entity.ui.admin.form.Attributes #txt
As0 f61 @C|.xml '<?xml version="1.0" encoding="UTF-8" standalone="yes"?>
<elementInfo>
    <language>
        <name>get Excel</name>
        <nameStyle>9
</nameStyle>
    </language>
</elementInfo>
' #txt
As0 f61 22 340 36 24 20 -2 #rect
As0 f61 @|StepIcon #fIcon
As0 f62 expr out #txt
As0 f62 40 308 40 340 #arcP
As0 f63 type ch.soreco.common.webbies.entity.ui.admin.form.Attributes #txt
As0 f63 processCall 'Functional Processes/common/File:show(java.io.File)' #txt
As0 f63 doCall true #txt
As0 f63 requestActionDecl '<java.io.File file> param;
' #txt
As0 f63 requestMappingAction 'param.file=in.excel;
' #txt
As0 f63 responseActionDecl 'ch.soreco.common.webbies.entity.ui.admin.form.Attributes out;
' #txt
As0 f63 responseMappingAction 'out=in;
' #txt
As0 f63 @C|.xml '<?xml version="1.0" encoding="UTF-8" standalone="yes"?>
<elementInfo>
    <language>
        <name>Show Excel</name>
        <nameStyle>10
</nameStyle>
    </language>
</elementInfo>
' #txt
As0 f63 22 412 36 24 20 -2 #rect
As0 f63 @|CallSubIcon #fIcon
As0 f64 expr out #txt
As0 f64 40 364 40 412 #arcP
As0 f68 actionDecl 'ch.soreco.common.webbies.entity.ui.admin.form.Attributes out;
' #txt
As0 f68 actionTable 'out=in;
' #txt
As0 f68 actionCode in.attributeContent.setType(in.currentType,in.contentFile.getJavaFile()); #txt
As0 f68 type ch.soreco.common.webbies.entity.ui.admin.form.Attributes #txt
As0 f68 @C|.xml '<?xml version="1.0" encoding="UTF-8" standalone="yes"?>
<elementInfo>
    <language>
        <name>set it to AttributeContent</name>
        <nameStyle>26
</nameStyle>
    </language>
</elementInfo>
' #txt
As0 f68 918 940 36 24 20 -2 #rect
As0 f68 @|StepIcon #fIcon
As0 f65 expr out #txt
As0 f65 954 952 695 164 #arcP
As0 f65 1 1192 952 #addKink
As0 f65 2 1192 144 #addKink
As0 f65 3 720 144 #addKink
As0 f65 1 0.8006505105479934 0 0 #arcLabel
As0 f66 outTypes "ch.soreco.common.webbies.entity.ui.admin.form.Attributes" #txt
As0 f66 outLinks "submit.ivp" #txt
As0 f66 template "/ProcessPages/Attributes/UploadFile.ivc" #txt
As0 f66 type ch.soreco.common.webbies.entity.ui.admin.form.Attributes #txt
As0 f66 skipLink skip.ivp #txt
As0 f66 sortLink sort.ivp #txt
As0 f66 templateWizard '#
#Wed Jul 20 15:02:59 CEST 2011
' #txt
As0 f66 pageArchivingActivated false #txt
As0 f66 @C|.xml '<?xml version="1.0" encoding="UTF-8" standalone="yes"?>
<elementInfo>
    <language>
        <name>UploadFile</name>
        <nameStyle>10
</nameStyle>
    </language>
</elementInfo>
' #txt
As0 f66 @C|.responsibility Everybody #txt
As0 f66 918 892 36 24 20 -2 #rect
As0 f66 @|PageIcon #fIcon
As0 f69 expr data #txt
As0 f69 outCond ivp=="submit.ivp" #txt
As0 f69 936 916 936 940 #arcP
As0 f70 actionDecl 'ch.soreco.common.webbies.entity.ui.admin.form.Attributes out;
' #txt
As0 f70 actionTable 'out=in;
out.currentType=ch.soreco.webbies.common.html.generics.AttributeContentType.HELPFILE;
' #txt
As0 f70 type ch.soreco.common.webbies.entity.ui.admin.form.Attributes #txt
As0 f70 @C|.xml '<?xml version="1.0" encoding="UTF-8" standalone="yes"?>
<elementInfo>
    <language>
        <name>set HelpFile</name>
        <nameStyle>12
</nameStyle>
    </language>
</elementInfo>
' #txt
As0 f70 918 852 36 24 20 -2 #rect
As0 f70 @|StepIcon #fIcon
As0 f71 expr out #txt
As0 f71 936 876 936 892 #arcP
As0 f72 expr data #txt
As0 f72 outCond ivp=="uploadHelpFile.ivp" #txt
As0 f72 698 765 936 852 #arcP
As0 f72 1 936 824 #addKink
As0 f72 0 0.5767985555354785 0 0 #arcLabel
As0 f67 actionDecl 'ch.soreco.common.webbies.entity.ui.admin.form.Attributes out;
' #txt
As0 f67 actionTable 'out=in;
' #txt
As0 f67 actionCode '//Set View
import ch.soreco.webbies.common.util.CompositeUtils;
String view = in.attributeContent.getView();
if(in.isPersistentClass){
	view = "Entity";
	}
else if(CompositeUtils.isCompositeClass(in.clazz)){
	view = "Composite";
	}
else if(in.clazz.isEnum()){
	view = "Enum";
	}
in.contentView = view;

in.views = in.attributeContent.getViews();



' #txt
As0 f67 type ch.soreco.common.webbies.entity.ui.admin.form.Attributes #txt
As0 f67 @C|.xml '<?xml version="1.0" encoding="UTF-8" standalone="yes"?>
<elementInfo>
    <language>
        <name>prepare content view</name>
        <nameStyle>20
</nameStyle>
    </language>
</elementInfo>
' #txt
As0 f67 662 220 36 24 20 -2 #rect
As0 f67 @|StepIcon #fIcon
As0 f74 expr in #txt
As0 f74 outCond in.attributeContent.isClassContent #txt
As0 f74 767 405 698 446 #arcP
As0 f73 actionDecl 'ch.soreco.common.webbies.entity.ui.admin.form.Attributes out;
' #txt
As0 f73 actionTable 'out=in;
out.currentType=ch.soreco.webbies.common.html.generics.AttributeContentType.HELPFILE2;
' #txt
As0 f73 type ch.soreco.common.webbies.entity.ui.admin.form.Attributes #txt
As0 f73 @C|.xml '<?xml version="1.0" encoding="UTF-8" standalone="yes"?>
<elementInfo>
    <language>
        <name>set HelpFile2</name>
        <nameStyle>13
</nameStyle>
    </language>
</elementInfo>
' #txt
As0 f73 1030 852 36 24 20 -2 #rect
As0 f73 @|StepIcon #fIcon
As0 f75 expr data #txt
As0 f75 outCond ivp=="uploadHelpFile2.ivp" #txt
As0 f75 698 763 1048 852 #arcP
As0 f75 1 1048 824 #addKink
As0 f75 0 0.5524425203608595 0 0 #arcLabel
As0 f76 expr out #txt
As0 f76 1030 870 954 898 #arcP
As0 f77 actionDecl 'ch.soreco.common.webbies.entity.ui.admin.form.Attributes out;
' #txt
As0 f77 actionTable 'out=in;
out.currentType=ch.soreco.webbies.common.html.generics.AttributeContentType.ICON;
' #txt
As0 f77 type ch.soreco.common.webbies.entity.ui.admin.form.Attributes #txt
As0 f77 @C|.xml '<?xml version="1.0" encoding="UTF-8" standalone="yes"?>
<elementInfo>
    <language>
        <name>set ICON</name>
        <nameStyle>8
</nameStyle>
    </language>
</elementInfo>
' #txt
As0 f77 798 852 36 24 20 -2 #rect
As0 f77 @|StepIcon #fIcon
As0 f78 expr data #txt
As0 f78 outCond ivp=="uploadIcon.ivp" #txt
As0 f78 698 768 816 852 #arcP
As0 f78 1 816 824 #addKink
As0 f78 0 0.6232928324941642 0 0 #arcLabel
As0 f79 expr out #txt
As0 f79 834 870 918 898 #arcP
As0 f56 expr in #txt
As0 f56 689 293 758 334 #arcP
As0 f29 expr out #txt
As0 f29 680 188 680 220 #arcP
As0 f51 expr out #txt
As0 f51 680 244 680 274 #arcP
As0 f38 expr in #txt
As0 f38 outCond in.attributeContent.isClassContent&&in.clazz.isEnum() #txt
As0 f38 680 302 680 444 #arcP
As0 f38 0 0.5887923664469324 0 0 #arcLabel
>Proto As0 .type ch.soreco.common.webbies.entity.ui.admin.form.Attributes #txt
>Proto As0 .processKind CALLABLE_SUB #txt
>Proto As0 0 0 32 24 18 0 #rect
>Proto As0 @|BIcon #fIcon
As0 f2 mainOut f5 tail #connect
As0 f5 head f4 mainIn #connect
As0 f4 out f6 tail #connect
As0 f6 head f1 mainIn #connect
As0 f10 out f9 tail #connect
As0 f9 head f8 mainIn #connect
As0 f4 out f13 tail #connect
As0 f13 head f12 mainIn #connect
As0 f12 mainOut f15 tail #connect
As0 f15 head f14 mainIn #connect
As0 f14 mainOut f17 tail #connect
As0 f17 head f16 mainIn #connect
As0 f16 mainOut f18 tail #connect
As0 f18 head f2 mainIn #connect
As0 f10 out f20 tail #connect
As0 f20 head f19 mainIn #connect
As0 f22 mainOut f11 tail #connect
As0 f11 head f10 mainIn #connect
As0 f0 mainOut f25 tail #connect
As0 f25 head f21 mainIn #connect
As0 f21 mainOut f3 tail #connect
As0 f3 head f2 mainIn #connect
As0 f36 mainOut f37 tail #connect
As0 f37 head f26 in #connect
As0 f28 mainOut f27 tail #connect
As0 f27 head f22 mainIn #connect
As0 f19 mainOut f30 tail #connect
As0 f30 head f23 mainIn #connect
As0 f4 out f42 tail #connect
As0 f42 head f21 mainIn #connect
As0 f44 mainOut f45 tail #connect
As0 f45 head f32 mainIn #connect
As0 f10 out f33 tail #connect
As0 f33 head f7 mainIn #connect
As0 f49 head f28 mainIn #connect
As0 f32 mainOut f53 tail #connect
As0 f53 head f48 mainIn #connect
As0 f23 mainOut f54 tail #connect
As0 f54 head f48 mainIn #connect
As0 f7 mainOut f41 tail #connect
As0 f41 head f48 mainIn #connect
As0 f31 mainOut f46 tail #connect
As0 f46 head f22 mainIn #connect
As0 f39 mainOut f43 tail #connect
As0 f43 head f34 in #connect
As0 f34 out f40 tail #connect
As0 f40 head f31 mainIn #connect
As0 f34 out f52 tail #connect
As0 f52 head f22 mainIn #connect
As0 f10 out f57 tail #connect
As0 f57 head f55 mainIn #connect
As0 f55 mainOut f58 tail #connect
As0 f58 head f10 mainIn #connect
As0 f4 out f60 tail #connect
As0 f60 head f59 mainIn #connect
As0 f59 mainOut f62 tail #connect
As0 f62 head f61 mainIn #connect
As0 f61 mainOut f64 tail #connect
As0 f64 head f63 mainIn #connect
As0 f68 mainOut f65 tail #connect
As0 f65 head f48 mainIn #connect
As0 f66 out f69 tail #connect
As0 f69 head f68 mainIn #connect
As0 f70 mainOut f71 tail #connect
As0 f71 head f66 mainIn #connect
As0 f10 out f72 tail #connect
As0 f72 head f70 mainIn #connect
As0 f26 out f74 tail #connect
As0 f74 head f39 mainIn #connect
As0 f26 out f49 tail #connect
As0 f10 out f75 tail #connect
As0 f75 head f73 mainIn #connect
As0 f73 mainOut f76 tail #connect
As0 f76 head f66 mainIn #connect
As0 f10 out f78 tail #connect
As0 f78 head f77 mainIn #connect
As0 f77 mainOut f79 tail #connect
As0 f79 head f66 mainIn #connect
As0 f56 head f36 mainIn #connect
As0 f48 mainOut f29 tail #connect
As0 f29 head f67 mainIn #connect
As0 f67 mainOut f51 tail #connect
As0 f51 head f50 in #connect
As0 f50 out f38 tail #connect
As0 f38 head f39 mainIn #connect
As0 f50 out f56 tail #connect
