[Ivy]
[>Created: Mon Oct 07 09:56:10 CEST 2013]
12B651EC6B1B0683 3.17 #module
>Proto >Proto Collection #zClass
Ck0 Check Big #zClass
Ck0 B #cInfo
Ck0 #process
1b0 '1 Sub' Big #zClass
1b0 B #cInfo
1b1 '1 Sub' Big #zClass
1b1 B #cInfo
1b2 '1 Sub' Big #zClass
1b2 B #cInfo
Ck0 @InfoButton f40 '' #zField
Ck0 1b0 1b0 '1 Sub' #zField
Ck0 @TextInP .resExport .resExport #zField
Ck0 @TextInP .type .type #zField
Ck0 @TextInP .processKind .processKind #zField
Ck0 @AnnotationInP-0n ai ai #zField
Ck0 @TextInP .xml .xml #zField
Ck0 @TextInP .responsibility .responsibility #zField
Ck0 @EndSub f2 '' #zField
Ck0 @Page f3 '' #zField
Ck0 @GridStep f8 '' #zField
Ck0 @StartSub f4 '' #zField
Ck0 @PushWFArc f5 '' #zField
Ck0 @PushWFArc f12 '' #zField
Ck0 @CallSub f0 '' #zField
Ck0 @GridStep f7 '' #zField
Ck0 @PushWFArc f10 '' #zField
Ck0 @CallSub f25 '' #zField
Ck0 @PushWFArc f15 '' #zField
Ck0 @CallSub f29 '' #zField
Ck0 @CallSub f34 '' #zField
Ck0 @PushWFArc f14 '' #zField
Ck0 @GridStep f36 '' #zField
Ck0 @CallSub f37 '' #zField
Ck0 @PushWFArc f39 '' #zField
Ck0 @CallSub f22 '' #zField
Ck0 @PushWFArc f13 '' #zField
Ck0 @GridStep f35 '' #zField
Ck0 @GridStep f26 '' #zField
Ck0 @CallSub f16 '' #zField
Ck0 @PushWFArc f20 '' #zField
Ck0 @PushWFArc f21 '' #zField
Ck0 @PushWFArc f24 '' #zField
Ck0 @PushWFArc f28 '' #zField
Ck0 @PushWFArc f30 '' #zField
Ck0 @CallSub f32 '' #zField
Ck0 1b1 1b1 '1 Sub' #zField
Ck0 @PushWFArc f11 '' #zField
Ck0 1b2 1b2 '1 Sub' #zField
Ck0 @PushWFArc f18 '' #zField
Ck0 @PushWFArc f19 '' #zField
Ck0 @CallSub f27 '' #zField
Ck0 @CallSub f33 '' #zField
Ck0 @PushWFArc f38 '' #zField
Ck0 @PushWFArc f23 '' #zField
Ck0 @Alternative f6 '' #zField
Ck0 @CallSub f45 '' #zField
Ck0 @PushWFArc f46 '' #zField
Ck0 @Alternative f47 '' #zField
Ck0 @PushWFArc f48 '' #zField
Ck0 @Alternative f51 '' #zField
Ck0 @PushWFArc f53 '' #zField
Ck0 @GridStep f54 '' #zField
Ck0 @PushWFArc f55 '' #zField
Ck0 @PushWFArc f17 '' #zField
Ck0 @CallSub f87 '' #zField
Ck0 @PushWFArc f56 '' #zField
Ck0 @PushWFArc f57 '' #zField
Ck0 @GridStep f58 '' #zField
Ck0 @Page f59 '' #zField
Ck0 @PushWFArc f60 '' #zField
Ck0 @PushWFArc f61 '' #zField
Ck0 @GridStep f108 '' #zField
Ck0 @PushWFArc f62 '' #zField
Ck0 @GridStep f64 '' #zField
Ck0 @PushWFArc f66 '' #zField
Ck0 @PushWFArc f65 '' #zField
Ck0 @PushWFArc f1 '' #zField
Ck0 @GridStep f86 '' #zField
Ck0 @PushWFArc f9 '' #zField
Ck0 @PushWFArc f31 '' #zField
Ck0 @PushWFArc f41 '' #zField
Ck0 @PushWFArc f63 '' #zField
Ck0 @PushWFArc f42 '' #zField
Ck0 @GridStep f43 '' #zField
Ck0 @PushWFArc f68 '' #zField
Ck0 @PushWFArc f44 '' #zField
Ck0 @PushWFArc f49 '' #zField
Ck0 @PushWFArc f67 '' #zField
Ck0 @PushWFArc f52 '' #zField
Ck0 @PushWFArc f69 '' #zField
Ck0 @CallSub f105 '' #zField
Ck0 @PushWFArc f50 '' #zField
>Proto Ck0 Ck0 Check #zField
1b0 @TextInP .resExport .resExport #zField
1b0 @TextInP .type .type #zField
1b0 @TextInP .processKind .processKind #zField
1b0 @AnnotationInP-0n ai ai #zField
1b0 @TextInP .xml .xml #zField
1b0 @TextInP .responsibility .responsibility #zField
1b0 @GridStep f46 '' #zField
1b0 @PushWFArc f11 '' #zField
1b0 @GridStep f6 '' #zField
1b0 @GridStep f52 '' #zField
1b0 @GridStep f49 '' #zField
1b0 @Alternative f42 '' #zField
1b0 @PushWFArc f53 '' #zField
1b0 @PushWFArc f45 '' #zField
1b0 @PushWFArc f47 '' #zField
1b0 @PushWFArc f50 '' #zField
1b0 @GridStep f41 '' #zField
1b0 @PushTrueWFOutG-01 g1 '' #zField
1b0 @GridStep f7 '' #zField
1b0 @PushWFArc f8 '' #zField
1b0 @PushWFArc f1 '' #zField
1b0 @PushWFArc f9 '' #zField
1b0 @PushWFArc f2 '' #zField
1b0 @PushWFArc f3 '' #zField
1b0 @PushWFArc f4 '' #zField
1b0 @GridStep f5 '' #zField
1b0 @PushWFArc f10 '' #zField
1b0 @PushWFArc f12 '' #zField
1b0 @PushTrueWFInG-01 g0 '' #zField
1b0 @PushWFArc f0 '' #zField
>Proto 1b0 1b0 '1 Sub' #zField
1b1 @TextInP .resExport .resExport #zField
1b1 @TextInP .type .type #zField
1b1 @TextInP .processKind .processKind #zField
1b1 @AnnotationInP-0n ai ai #zField
1b1 @TextInP .xml .xml #zField
1b1 @TextInP .responsibility .responsibility #zField
1b1 @GridStep f46 '' #zField
1b1 @PushWFArc f11 '' #zField
1b1 @GridStep f6 '' #zField
1b1 @GridStep f52 '' #zField
1b1 @GridStep f49 '' #zField
1b1 @Alternative f42 '' #zField
1b1 @PushWFArc f53 '' #zField
1b1 @PushWFArc f45 '' #zField
1b1 @PushWFArc f47 '' #zField
1b1 @PushWFArc f50 '' #zField
1b1 @GridStep f41 '' #zField
1b1 @PushTrueWFInG-01 g0 '' #zField
1b1 @PushWFArc f0 '' #zField
1b1 @PushTrueWFOutG-01 g1 '' #zField
1b1 @GridStep f7 '' #zField
1b1 @PushWFArc f8 '' #zField
1b1 @PushWFArc f1 '' #zField
1b1 @PushWFArc f9 '' #zField
1b1 @PushWFArc f2 '' #zField
1b1 @PushWFArc f3 '' #zField
1b1 @PushWFArc f4 '' #zField
1b1 @GridStep f5 '' #zField
1b1 @PushWFArc f10 '' #zField
1b1 @PushWFArc f12 '' #zField
>Proto 1b1 1b1 '1 Sub' #zField
1b2 @TextInP .resExport .resExport #zField
1b2 @TextInP .type .type #zField
1b2 @TextInP .processKind .processKind #zField
1b2 @AnnotationInP-0n ai ai #zField
1b2 @TextInP .xml .xml #zField
1b2 @TextInP .responsibility .responsibility #zField
1b2 @GridStep f46 '' #zField
1b2 @PushWFArc f11 '' #zField
1b2 @GridStep f6 '' #zField
1b2 @GridStep f52 '' #zField
1b2 @GridStep f49 '' #zField
1b2 @Alternative f42 '' #zField
1b2 @PushWFArc f53 '' #zField
1b2 @PushWFArc f45 '' #zField
1b2 @PushWFArc f47 '' #zField
1b2 @PushWFArc f50 '' #zField
1b2 @GridStep f41 '' #zField
1b2 @PushTrueWFInG-01 g0 '' #zField
1b2 @PushWFArc f0 '' #zField
1b2 @PushTrueWFOutG-01 g1 '' #zField
1b2 @GridStep f7 '' #zField
1b2 @PushWFArc f8 '' #zField
1b2 @PushWFArc f1 '' #zField
1b2 @PushWFArc f9 '' #zField
1b2 @PushWFArc f2 '' #zField
1b2 @PushWFArc f3 '' #zField
1b2 @PushWFArc f4 '' #zField
1b2 @GridStep f5 '' #zField
1b2 @PushWFArc f10 '' #zField
1b2 @PushWFArc f12 '' #zField
>Proto 1b2 1b2 '1 Sub' #zField
Ck0 f40 @C|.xml '<?xml version="1.0" encoding="UTF-8" standalone="yes"?>
<elementInfo>
    <language>
        <name>16.03.2011 / PB
old methods replaced 
by multi-doc view</name>
        <nameStyle>55
</nameStyle>
    </language>
</elementInfo>
' #txt
Ck0 f40 36 186 168 157 -37 -56 #rect
Ck0 f40 @|IBIcon #fIcon
Ck0 f40 -1|-1|-16777216 #nodeStyle
Ck0 1b0 .resExport export #txt
Ck0 1b0 .xml '<?xml version="1.0" encoding="UTF-8" standalone="yes"?>
<elementInfo>
    <language lang="en">
        <name>Set States on &quot;korrekt&quot;</name>
        <nameStyle>23,5,7
</nameStyle>
    </language>
</elementInfo>
' #txt
Ck0 1b0 576 492 32 24 18 0 #rect
Ck0 1b0 @|BIcon #fIcon
Ck0 1b0 g0 -8 -12 #fFoot
Ck0 f2 type ch.soreco.orderbook.ui.Order #txt
Ck0 f2 275 859 26 26 14 0 #rect
Ck0 f2 @|EndSubIcon #fIcon
Ck0 f3 outTypes "ch.soreco.orderbook.ui.Order","ch.soreco.orderbook.ui.Order","ch.soreco.orderbook.ui.Order","ch.soreco.orderbook.ui.Order","ch.soreco.orderbook.ui.Order","ch.soreco.orderbook.ui.Order","ch.soreco.orderbook.ui.Order","ch.soreco.orderbook.ui.Order","ch.soreco.orderbook.ui.Order","ch.soreco.orderbook.ui.Order","ch.soreco.orderbook.ui.Order","ch.soreco.orderbook.ui.Order","ch.soreco.orderbook.ui.Order" #txt
Ck0 f3 outLinks "exit.ivp","correct.ivp","toCorrection.ivp","decline.ivp","showScanFile.ivp","save.ivp","close.ivp","saveAndClose.ivp","showContactFile.ivp","showRelatedOrder.ivp","addNew.ivp","discard.ivp","showHistory.ivp" #txt
Ck0 f3 template "/ProcessPages/Check/Adressmutation.ivc" #txt
Ck0 f3 type ch.soreco.orderbook.ui.Order #txt
Ck0 f3 skipLink skip.ivp #txt
Ck0 f3 sortLink sort.ivp #txt
Ck0 f3 templateWizard '#
#Wed Nov 16 15:38:03 CET 2011
' #txt
Ck0 f3 pageArchivingActivated false #txt
Ck0 f3 @C|.xml '<?xml version="1.0" encoding="UTF-8" standalone="yes"?>
<elementInfo>
    <language>
        <name>Adressmutation Check</name>
        <nameStyle>20,7
</nameStyle>
    </language>
</elementInfo>
' #txt
Ck0 f3 @C|.responsibility Everybody #txt
Ck0 f3 270 332 36 24 18 -30 #rect
Ck0 f3 @|PageIcon #fIcon
Ck0 f8 actionDecl 'ch.soreco.orderbook.ui.Order out;
' #txt
Ck0 f8 actionTable 'out=in;
out.order.checkerUserId="";
out.order.editorUserId=ivy.session.getSessionUserName();
' #txt
Ck0 f8 type ch.soreco.orderbook.ui.Order #txt
Ck0 f8 @C|.xml '<?xml version="1.0" encoding="UTF-8" standalone="yes"?>
<elementInfo>
    <language>
        <name>korrigieren: Bearbeiter setzen</name>
        <nameStyle>30
</nameStyle>
    </language>
</elementInfo>
' #txt
Ck0 f8 1318 380 36 24 20 -2 #rect
Ck0 f8 @|StepIcon #fIcon
Ck0 f4 inParamDecl '<ch.soreco.orderbook.bo.Order order,ch.soreco.orderbook.ui.enums.ViewType viewType> param;' #txt
Ck0 f4 inParamTable 'out.eViewType=param.viewType;
out.order=param.order;
' #txt
Ck0 f4 outParamDecl '<ch.soreco.orderbook.bo.Order order,java.lang.Boolean success,java.lang.String error> result;
' #txt
Ck0 f4 outParamTable 'result.order=in.order;
result.success=in.success;
result.error=in.error;
' #txt
Ck0 f4 actionDecl 'ch.soreco.orderbook.ui.Order out;
' #txt
Ck0 f4 callSignature call(ch.soreco.orderbook.bo.Order,ch.soreco.orderbook.ui.enums.ViewType) #txt
Ck0 f4 type ch.soreco.orderbook.ui.Order #txt
Ck0 f4 @C|.xml '<?xml version="1.0" encoding="UTF-8" standalone="yes"?>
<elementInfo>
    <language>
        <name>call(Order,Boolean)</name>
        <nameStyle>19,5,7
</nameStyle>
    </language>
</elementInfo>
' #txt
Ck0 f4 275 51 26 26 14 0 #rect
Ck0 f4 @|StartSubIcon #fIcon
Ck0 f5 expr data #txt
Ck0 f5 outCond ivp=="exit.ivp" #txt
Ck0 f5 288 356 288 859 #arcP
Ck0 f12 expr data #txt
Ck0 f12 outCond ivp=="toCorrection.ivp" #txt
Ck0 f12 306 344 1336 380 #arcP
Ck0 f12 1 1336 344 #addKink
Ck0 f12 0 0.598501787955769 0 0 #arcLabel
Ck0 f0 type ch.soreco.orderbook.ui.Order #txt
Ck0 f0 processCall 'Functional Processes/HTMLGet:call(Integer,ch.soreco.orderbook.bo.Order,ch.soreco.orderbook.ui.enums.ViewType)' #txt
Ck0 f0 doCall true #txt
Ck0 f0 requestActionDecl '<java.lang.Integer currentChild,ch.soreco.orderbook.bo.Order order,ch.soreco.orderbook.ui.enums.ViewType viewType> param;
' #txt
Ck0 f0 requestMappingAction 'param.currentChild=in.currentChild;
param.order=in.order;
param.viewType=in.eViewType;
' #txt
Ck0 f0 responseActionDecl 'ch.soreco.orderbook.ui.Order out;
' #txt
Ck0 f0 responseMappingAction 'out=result.orderUI;
' #txt
Ck0 f0 @C|.xml '<?xml version="1.0" encoding="UTF-8" standalone="yes"?>
<elementInfo>
    <language>
        <name>get HTML</name>
        <nameStyle>8
</nameStyle>
    </language>
</elementInfo>
' #txt
Ck0 f0 270 204 36 24 20 -2 #rect
Ck0 f0 @|CallSubIcon #fIcon
Ck0 f7 actionDecl 'ch.soreco.orderbook.ui.Order out;
' #txt
Ck0 f7 actionTable 'out=in;
out.order.checkerUserId=ivy.session.getSessionUserName();
' #txt
Ck0 f7 type ch.soreco.orderbook.ui.Order #txt
Ck0 f7 @C|.xml '<?xml version="1.0" encoding="UTF-8" standalone="yes"?>
<elementInfo>
    <language>
        <name>set Checker</name>
        <nameStyle>11
</nameStyle>
    </language>
</elementInfo>
' #txt
Ck0 f7 270 108 36 24 20 -2 #rect
Ck0 f7 @|StepIcon #fIcon
Ck0 f10 expr out #txt
Ck0 f10 288 77 288 108 #arcP
Ck0 f25 type ch.soreco.orderbook.ui.Order #txt
Ck0 f25 processCall 'Functional Processes/orderbook/Order:setPlainOrder(ch.soreco.orderbook.bo.Order)' #txt
Ck0 f25 doCall true #txt
Ck0 f25 requestActionDecl '<ch.soreco.orderbook.bo.Order order> param;
' #txt
Ck0 f25 requestMappingAction 'param.order=in.order;
' #txt
Ck0 f25 responseActionDecl 'ch.soreco.orderbook.ui.Order out;
' #txt
Ck0 f25 responseMappingAction 'out=in;
out.error=result.error;
out.success=result.success;
' #txt
Ck0 f25 @C|.xml '<?xml version="1.0" encoding="UTF-8" standalone="yes"?>
<elementInfo>
    <language>
        <name>Save</name>
        <nameStyle>4
</nameStyle>
    </language>
</elementInfo>
' #txt
Ck0 f25 270 156 36 24 20 -2 #rect
Ck0 f25 @|CallSubIcon #fIcon
Ck0 f15 expr out #txt
Ck0 f15 288 132 288 156 #arcP
Ck0 f15 0 0.5000000000000001 0 0 #arcLabel
Ck0 f29 type ch.soreco.orderbook.ui.Order #txt
Ck0 f29 processCall 'Functional Processes/common/File:show(ch.soreco.common.bo.File)' #txt
Ck0 f29 doCall true #txt
Ck0 f29 requestActionDecl '<ch.soreco.common.bo.File filter> param;
' #txt
Ck0 f29 requestMappingAction 'param.filter.fileId=in.order.scanFileId;
' #txt
Ck0 f29 responseActionDecl 'ch.soreco.orderbook.ui.Order out;
' #txt
Ck0 f29 responseMappingAction 'out=in;
' #txt
Ck0 f29 @C|.xml '<?xml version="1.0" encoding="UTF-8" standalone="yes"?>
<elementInfo>
    <language>
        <name>Show ScanFile</name>
        <nameStyle>13
</nameStyle>
    </language>
</elementInfo>
' #txt
Ck0 f29 54 268 36 24 20 -2 #rect
Ck0 f29 @|CallSubIcon #fIcon
Ck0 f29 -65536|-1|-16777216 #nodeStyle
Ck0 f34 type ch.soreco.orderbook.ui.Order #txt
Ck0 f34 processCall 'Business Processes/chooseProcess:call(Integer,ch.soreco.orderbook.ui.enums.ViewType)' #txt
Ck0 f34 doCall true #txt
Ck0 f34 requestActionDecl '<java.lang.Integer orderId,ch.soreco.orderbook.ui.enums.ViewType viewType> param;
' #txt
Ck0 f34 requestMappingAction 'param.orderId=in.order.orderId;
param.viewType=ch.soreco.orderbook.ui.enums.ViewType.EDIT;
' #txt
Ck0 f34 responseActionDecl 'ch.soreco.orderbook.ui.Order out;
' #txt
Ck0 f34 responseMappingAction 'out=in;
' #txt
Ck0 f34 @C|.xml '<?xml version="1.0" encoding="UTF-8" standalone="yes"?>
<elementInfo>
    <language>
        <name>Bearbeiten</name>
        <nameStyle>10
</nameStyle>
    </language>
</elementInfo>
' #txt
Ck0 f34 1318 644 36 24 20 -2 #rect
Ck0 f34 @|CallSubIcon #fIcon
Ck0 f14 expr out #txt
Ck0 f14 1336 668 301 872 #arcP
Ck0 f14 1 1336 872 #addKink
Ck0 f14 1 0.4596304890406543 0 0 #arcLabel
Ck0 f36 actionDecl 'ch.soreco.orderbook.ui.Order out;
' #txt
Ck0 f36 actionTable 'out=in;
' #txt
Ck0 f36 actionCode 'import ch.soreco.orderbook.bo.SignatureRequest;
import ch.soreco.orderbook.bo.Paper;
import ch.soreco.orderbook.bo.Contact;
import ch.soreco.orderbook.bo.RecordingLSV;
import ch.soreco.orderbook.bo.DomicileOrOwner;
import ch.soreco.webbies.common.html.form.ClassConverter;

/*	
ClassConverter.putDisabledFields("domicileOrOwnerIsChecked");
ClassConverter.putDisabledFields("containerIsChecked");
ClassConverter.putDisabledFields("newAddressIsChecked");
ClassConverter.putDisabledFields("changeAddressIsChecked");
ClassConverter.putDisabledFields("bpIdIsChecked");
ClassConverter.putDisabledFields("isChecked");
ClassConverter.putDisabledFields("contactIsChecked");	
ClassConverter.putDisabledFields("paperIsChecked");	
ClassConverter.putDisabledFields("signatureIsChecked");	
ClassConverter.putDisabledFields("businessPartnerIsChecked");	
ClassConverter.putDisabledFields("affirmationIsChecked");	
ClassConverter.putDisabledFields("LSVIsChecked");	
ClassConverter.putDisabledFields("addressIsChecked");
*/
String user = ivy.session.getSessionUserName();


//order
if(in.order.bpIdIsChecked){
	in.order.checkerUserId = user;
	}
//contacts
for(Contact contact : in.orderContacts){
	if(contact.contactIsChecked){
		contact.contactCheckedBy = user;
		}
	if(contact.address.addressIsChecked){
		contact.address.addressCheckedBy = user;
		}
	}
for(Paper paper :in.orderContactPapers){
	if(paper.paperIsChecked){
		paper.paperCheckedBy = user;
		}
	}
for(SignatureRequest sign:in.orderContactsSignatureRequests){
	if(sign.signatureIsChecked){
		sign.signatureCheckedBy = user;
		}
	}
//recording
if(in.order.recording.affirmation.affirmationIsChecked){
	in.order.recording.affirmation.affirmationCheckedBy = user;
	}
if(in.order.recording.businessPartner.businessPartnerIsChecked){
	in.order.recording.businessPartner.businessPartnerCheckedBy = user;
	}
if(in.order.recording.correspondence.changeAddressIsChecked){
	in.order.recording.correspondence.changeAddressCheckedBy = user;
	}
if(in.order.recording.correspondence.newAddressIsChecked){
	in.order.recording.correspondence.newAdressCheckedBy = user;
	}
for(DomicileOrOwner domi:in.order.recording.domicileOrOwner){
	if(domi.domicileOrOwnerIsChecked){
		domi.domicileOrOwnerCheckedBy = user;
		}
	}
for(RecordingLSV lsv :in.order.recording.lsv){
	if(lsv.LSVIsChecked){
		lsv.LSVCheckedBy = user;
		}
	}' #txt
Ck0 f36 type ch.soreco.orderbook.ui.Order #txt
Ck0 f36 @C|.xml '<?xml version="1.0" encoding="UTF-8" standalone="yes"?>
<elementInfo>
    <language>
        <name>set checked by</name>
        <nameStyle>14
</nameStyle>
    </language>
</elementInfo>
' #txt
Ck0 f36 694 636 36 24 20 -2 #rect
Ck0 f36 @|StepIcon #fIcon
Ck0 f37 type ch.soreco.orderbook.ui.Order #txt
Ck0 f37 processCall 'Functional Processes/orderUISave:call(ch.soreco.orderbook.ui.Order)' #txt
Ck0 f37 doCall true #txt
Ck0 f37 requestActionDecl '<ch.soreco.orderbook.ui.Order orderUI> param;
' #txt
Ck0 f37 requestMappingAction 'param.orderUI=in;
' #txt
Ck0 f37 responseActionDecl 'ch.soreco.orderbook.ui.Order out;
' #txt
Ck0 f37 responseMappingAction 'out=result.orderUI;
' #txt
Ck0 f37 @C|.xml '<?xml version="1.0" encoding="UTF-8" standalone="yes"?>
<elementInfo>
    <language>
        <name>Save orderUI</name>
        <nameStyle>12
</nameStyle>
    </language>
</elementInfo>
' #txt
Ck0 f37 494 636 36 24 20 -2 #rect
Ck0 f37 @|CallSubIcon #fIcon
Ck0 f39 expr out #txt
Ck0 f39 694 648 530 648 #arcP
Ck0 f39 0 0.47342556414284986 0 0 #arcLabel
Ck0 f22 type ch.soreco.orderbook.ui.Order #txt
Ck0 f22 processCall 'Functional Processes/orderUISave:call(ch.soreco.orderbook.ui.Order)' #txt
Ck0 f22 doCall true #txt
Ck0 f22 requestActionDecl '<ch.soreco.orderbook.ui.Order orderUI> param;
' #txt
Ck0 f22 requestMappingAction 'param.orderUI=in;
' #txt
Ck0 f22 responseActionDecl 'ch.soreco.orderbook.ui.Order out;
' #txt
Ck0 f22 responseMappingAction 'out=result.orderUI;
' #txt
Ck0 f22 @C|.xml '<?xml version="1.0" encoding="UTF-8" standalone="yes"?>
<elementInfo>
    <language>
        <name>Save orderUI</name>
        <nameStyle>12
</nameStyle>
    </language>
</elementInfo>
' #txt
Ck0 f22 1318 588 36 24 20 -2 #rect
Ck0 f22 @|CallSubIcon #fIcon
Ck0 f13 expr out #txt
Ck0 f13 1336 612 1336 644 #arcP
Ck0 f35 actionDecl 'ch.soreco.orderbook.ui.Order out;
' #txt
Ck0 f35 actionTable 'out=in;
' #txt
Ck0 f35 type ch.soreco.orderbook.ui.Order #txt
Ck0 f35 @C|.xml '<?xml version="1.0" encoding="UTF-8" standalone="yes"?>
<elementInfo>
    <language>
        <name>save and close</name>
        <nameStyle>14
</nameStyle>
    </language>
</elementInfo>
' #txt
Ck0 f35 470 428 36 24 20 -2 #rect
Ck0 f35 @|StepIcon #fIcon
Ck0 f26 actionDecl 'ch.soreco.orderbook.ui.Order out;
' #txt
Ck0 f26 actionTable 'out=in;
' #txt
Ck0 f26 type ch.soreco.orderbook.ui.Order #txt
Ck0 f26 @C|.xml '<?xml version="1.0" encoding="UTF-8" standalone="yes"?>
<elementInfo>
    <language>
        <name>close</name>
        <nameStyle>5
</nameStyle>
    </language>
</elementInfo>
' #txt
Ck0 f26 142 532 36 24 20 -2 #rect
Ck0 f26 @|StepIcon #fIcon
Ck0 f16 type ch.soreco.orderbook.ui.Order #txt
Ck0 f16 processCall 'Functional Processes/orderUISave:call(ch.soreco.orderbook.ui.Order)' #txt
Ck0 f16 doCall true #txt
Ck0 f16 requestActionDecl '<ch.soreco.orderbook.ui.Order orderUI> param;
' #txt
Ck0 f16 requestMappingAction 'param.orderUI=in;
' #txt
Ck0 f16 responseActionDecl 'ch.soreco.orderbook.ui.Order out;
' #txt
Ck0 f16 responseMappingAction 'out=result.orderUI;
' #txt
Ck0 f16 @C|.xml '<?xml version="1.0" encoding="UTF-8" standalone="yes"?>
<elementInfo>
    <language>
        <name>Save orderUI</name>
        <nameStyle>12
</nameStyle>
    </language>
</elementInfo>
' #txt
Ck0 f16 422 204 36 24 20 -2 #rect
Ck0 f16 @|CallSubIcon #fIcon
Ck0 f20 expr data #txt
Ck0 f20 outCond ivp=="save.ivp" #txt
Ck0 f20 306 344 440 228 #arcP
Ck0 f20 1 440 344 #addKink
Ck0 f20 0 0.5394426773560393 0 0 #arcLabel
Ck0 f21 expr out #txt
Ck0 f21 422 216 306 216 #arcP
Ck0 f24 expr data #txt
Ck0 f24 outCond ivp=="close.ivp" #txt
Ck0 f24 280 356 168 532 #arcP
Ck0 f28 expr out #txt
Ck0 f28 165 556 283 859 #arcP
Ck0 f30 expr data #txt
Ck0 f30 outCond ivp=="saveAndClose.ivp" #txt
Ck0 f30 306 355 488 428 #arcP
Ck0 f30 1 352 384 #addKink
Ck0 f30 2 488 384 #addKink
Ck0 f30 1 0.503557556444016 0 0 #arcLabel
Ck0 f32 type ch.soreco.orderbook.ui.Order #txt
Ck0 f32 processCall 'Functional Processes/common/File:show(ch.soreco.common.bo.File)' #txt
Ck0 f32 doCall true #txt
Ck0 f32 requestActionDecl '<ch.soreco.common.bo.File filter> param;
' #txt
Ck0 f32 requestMappingAction 'param.filter.fileId=in.i;
' #txt
Ck0 f32 responseActionDecl 'ch.soreco.orderbook.ui.Order out;
' #txt
Ck0 f32 responseMappingAction 'out=in;
' #txt
Ck0 f32 @C|.xml '<?xml version="1.0" encoding="UTF-8" standalone="yes"?>
<elementInfo>
    <language>
        <name>Show Contact File by i</name>
        <nameStyle>22
</nameStyle>
    </language>
</elementInfo>
' #txt
Ck0 f32 54 308 36 24 20 -2 #rect
Ck0 f32 @|CallSubIcon #fIcon
Ck0 f32 -65536|-1|-16777216 #nodeStyle
Ck0 1b1 .resExport export #txt
Ck0 1b1 .xml '<?xml version="1.0" encoding="UTF-8" standalone="yes"?>
<elementInfo>
    <language lang="en">
        <name>Set States on &quot;zurückweisen&quot;</name>
        <nameStyle>28,5,7
</nameStyle>
    </language>
</elementInfo>
' #txt
Ck0 1b1 888 436 32 24 19 0 #rect
Ck0 1b1 @|BIcon #fIcon
Ck0 f11 expr data #txt
Ck0 f11 outCond ivp=="decline.ivp" #txt
Ck0 f11 306 344 904 436 #arcP
Ck0 f11 1 904 344 #addKink
Ck0 f11 0 0.5646540302879588 0 0 #arcLabel
Ck0 1b2 .resExport export #txt
Ck0 1b2 .xml '<?xml version="1.0" encoding="UTF-8" standalone="yes"?>
<elementInfo>
    <language lang="en">
        <name>Set States on &quot;korrigieren&quot;</name>
        <nameStyle>27,5,7
</nameStyle>
    </language>
</elementInfo>
' #txt
Ck0 1b2 1320 436 32 24 18 0 #rect
Ck0 1b2 @|BIcon #fIcon
Ck0 f18 expr out #txt
Ck0 f18 1336 404 1336 436 #arcP
Ck0 f18 0 0.7500562045349306 0 0 #arcLabel
Ck0 f19 1336 460 1336 588 #arcP
Ck0 f27 type ch.soreco.orderbook.ui.Order #txt
Ck0 f27 processCall 'Start Processes/Archive/CheckDocuments:call(ch.soreco.orderbook.ui.enums.ViewType,Integer,String)' #txt
Ck0 f27 doCall true #txt
Ck0 f27 requestActionDecl '<ch.soreco.orderbook.ui.enums.ViewType viewType,java.lang.Integer orderId,java.lang.String uiType> param;
' #txt
Ck0 f27 requestMappingAction 'param.viewType=ch.soreco.orderbook.ui.enums.ViewType.READ;
param.orderId=in.orderContacts.size()> 0 ? in.orderContacts.get(0).contactMergedFromOrderId :in.order.orderId;
param.uiType="SCANPLAIN";
' #txt
Ck0 f27 responseActionDecl 'ch.soreco.orderbook.ui.Order out;
' #txt
Ck0 f27 responseMappingAction 'out=in;
' #txt
Ck0 f27 @C|.xml '<?xml version="1.0" encoding="UTF-8" standalone="yes"?>
<elementInfo>
    <language>
        <name>show files of order</name>
        <nameStyle>19,5,7
</nameStyle>
    </language>
</elementInfo>
' #txt
Ck0 f27 54 356 36 24 20 -2 #rect
Ck0 f27 @|CallSubIcon #fIcon
Ck0 f33 type ch.soreco.orderbook.ui.Order #txt
Ck0 f33 processCall 'Start Processes/Archive/CheckDocuments:call(ch.soreco.orderbook.ui.enums.ViewType,Integer,String)' #txt
Ck0 f33 doCall true #txt
Ck0 f33 requestActionDecl '<ch.soreco.orderbook.ui.enums.ViewType viewType,java.lang.Integer orderId,java.lang.String uiType> param;
' #txt
Ck0 f33 requestMappingAction 'param.viewType=ch.soreco.orderbook.ui.enums.ViewType.READ;
param.orderId=in.orderContacts.get(in.i).contactMergedFromOrderId.intValue() > 0 ? in.orderContacts.get(in.i).contactMergedFromOrderId : in.orderContacts.get(in.i).contactOrderId;
param.uiType="SCANPLAIN";
' #txt
Ck0 f33 responseActionDecl 'ch.soreco.orderbook.ui.Order out;
' #txt
Ck0 f33 responseMappingAction 'out=in;
' #txt
Ck0 f33 @C|.xml '<?xml version="1.0" encoding="UTF-8" standalone="yes"?>
<elementInfo>
    <language>
        <name>show files of contact</name>
        <nameStyle>21,5,7
</nameStyle>
    </language>
</elementInfo>
' #txt
Ck0 f33 54 404 36 24 20 -2 #rect
Ck0 f33 @|CallSubIcon #fIcon
Ck0 f38 expr data #txt
Ck0 f38 outCond ivp=="showScanFile.ivp" #txt
Ck0 f38 270 350 90 368 #arcP
Ck0 f38 1 216 368 #addKink
Ck0 f38 1 0.2686421638182091 0 0 #arcLabel
Ck0 f23 expr data #txt
Ck0 f23 outCond ivp=="showContactFile.ivp" #txt
Ck0 f23 275 356 90 416 #arcP
Ck0 f23 1 208 416 #addKink
Ck0 f23 1 0.11679230496267866 0 0 #arcLabel
Ck0 f6 type ch.soreco.orderbook.ui.Order #txt
Ck0 f6 @C|.xml '<?xml version="1.0" encoding="UTF-8" standalone="yes"?>
<elementInfo>
    <language>
        <name>newOrder?</name>
        <nameStyle>9
</nameStyle>
    </language>
</elementInfo>
' #txt
Ck0 f6 498 690 28 28 14 0 #rect
Ck0 f6 @|AlternativeIcon #fIcon
Ck0 f45 type ch.soreco.orderbook.ui.Order #txt
Ck0 f45 processCall 'Business Processes/Adressmutation/DependentOrder:newDependentOrder(ch.soreco.orderbook.bo.Order)' #txt
Ck0 f45 doCall true #txt
Ck0 f45 requestActionDecl '<ch.soreco.orderbook.bo.Order order> param;
' #txt
Ck0 f45 requestMappingAction 'param.order=in.order;
param.order.checkerUserId=in.orderCopy.checkerUserId.length() > 0 ? in.orderCopy.checkerUserId : in.order.checkerUserId;
param.order.editorUserId=in.orderCopy.editorUserId.length() > 0 ? in.orderCopy.editorUserId : ivy.session.getSessionUserName();
' #txt
Ck0 f45 responseActionDecl 'ch.soreco.orderbook.ui.Order out;
' #txt
Ck0 f45 responseMappingAction 'out=in;
out.newOrder=result.proceed;
out.orderCopy=result.order;
' #txt
Ck0 f45 @C|.xml '<?xml version="1.0" encoding="UTF-8" standalone="yes"?>
<elementInfo>
    <language>
        <name>newDependentOrder(Order)</name>
        <nameStyle>24,5,7
</nameStyle>
    </language>
</elementInfo>
' #txt
Ck0 f45 590 692 36 24 20 -2 #rect
Ck0 f45 @|CallSubIcon #fIcon
Ck0 f46 expr in #txt
Ck0 f46 outCond in.newOrder #txt
Ck0 f46 526 704 590 704 #arcP
Ck0 f47 type ch.soreco.orderbook.ui.Order #txt
Ck0 f47 @C|.xml '<?xml version="1.0" encoding="UTF-8" standalone="yes"?>
<elementInfo>
    <language>
        <name>proceed?</name>
        <nameStyle>8
</nameStyle>
    </language>
</elementInfo>
' #txt
Ck0 f47 594 746 28 28 14 0 #rect
Ck0 f47 @|AlternativeIcon #fIcon
Ck0 f48 expr out #txt
Ck0 f48 608 716 608 746 #arcP
Ck0 f51 type ch.soreco.orderbook.ui.Order #txt
Ck0 f51 @C|.xml '<?xml version="1.0" encoding="UTF-8" standalone="yes"?>
<elementInfo>
    <language>
        <name>further processing?</name>
        <nameStyle>19
</nameStyle>
    </language>
</elementInfo>
' #txt
Ck0 f51 498 802 28 28 14 0 #rect
Ck0 f51 @|AlternativeIcon #fIcon
Ck0 f53 expr in #txt
Ck0 f53 498 816 296 862 #arcP
Ck0 f53 1 336 816 #addKink
Ck0 f53 0 0.6578326276645962 0 0 #arcLabel
Ck0 f54 actionDecl 'ch.soreco.orderbook.ui.Order out;
' #txt
Ck0 f54 actionTable 'out=in;
' #txt
Ck0 f54 actionCode 'import ch.ivyteam.ivy.ext.SessionLockManager;

SessionLockManager lockManager = SessionLockManager.getInstance();
if(lockManager.lockIdForSession(in.order.orderId.toString(),ivy.session)){
	lockManager.releaseLockId(in.order.orderId.toString());	
	ivy.log.info("Released lock for "+in.order.orderId+" by session id "+ivy.session.getIdentifier());
	}
	

out.order.orderId = in.orderCopy.orderId;' #txt
Ck0 f54 type ch.soreco.orderbook.ui.Order #txt
Ck0 f54 @C|.xml '<?xml version="1.0" encoding="UTF-8" standalone="yes"?>
<elementInfo>
    <language>
        <name>set orderCopy
as Order
&amp; releaseLock</name>
        <nameStyle>36
</nameStyle>
    </language>
</elementInfo>
' #txt
Ck0 f54 1054 804 36 24 20 -2 #rect
Ck0 f54 @|StepIcon #fIcon
Ck0 f55 expr in #txt
Ck0 f55 outCond 'in.newOrder && in.orderCopy.orderId > 0' #txt
Ck0 f55 526 816 1054 816 #arcP
Ck0 f17 expr out #txt
Ck0 f17 1090 816 1331 668 #arcP
Ck0 f17 1 1272 816 #addKink
Ck0 f17 0 0.5792435522624962 0 0 #arcLabel
Ck0 f87 type ch.soreco.orderbook.ui.Order #txt
Ck0 f87 processCall 'Business Processes/chooseProcess:call(Integer,ch.soreco.orderbook.ui.enums.ViewType)' #txt
Ck0 f87 doCall true #txt
Ck0 f87 requestActionDecl '<java.lang.Integer orderId,ch.soreco.orderbook.ui.enums.ViewType viewType> param;
' #txt
Ck0 f87 requestMappingAction 'param.orderId=in.order.orderId;
param.viewType=ch.soreco.orderbook.ui.enums.ViewType.READ;
' #txt
Ck0 f87 responseActionDecl 'ch.soreco.orderbook.ui.Order out;
' #txt
Ck0 f87 responseMappingAction 'out=in;
' #txt
Ck0 f87 @C|.xml '<?xml version="1.0" encoding="UTF-8" standalone="yes"?>
<elementInfo>
    <language>
        <name>show related Order</name>
        <nameStyle>18
</nameStyle>
    </language>
</elementInfo>
' #txt
Ck0 f87 318 588 36 24 20 -2 #rect
Ck0 f87 @|CallSubIcon #fIcon
Ck0 f56 expr data #txt
Ck0 f56 outCond ivp=="showRelatedOrder.ivp" #txt
Ck0 f56 295 356 336 588 #arcP
Ck0 f56 1 336 432 #addKink
Ck0 f56 1 0.2822728916626375 0 0 #arcLabel
Ck0 f57 expr out #txt
Ck0 f57 336 612 291 859 #arcP
Ck0 f57 1 336 688 #addKink
Ck0 f57 1 0.32257790661309993 0 0 #arcLabel
Ck0 f58 actionDecl 'ch.soreco.orderbook.ui.Order out;
' #txt
Ck0 f58 actionTable 'out=in;
' #txt
Ck0 f58 actionCode 'import ch.soreco.orderbook.bo.Letter;
import ch.soreco.webbies.common.html.generics.AttributeClassHtml;
import ch.soreco.orderbook.bo.RecordingMeta;
import ch.soreco.webbies.common.html.form.ClassConverter;

import ch.soreco.orderbook.bo.CorrespondenceContainer;
import ch.soreco.orderbook.bo.RecordingLSV;
import ch.soreco.orderbook.bo.DomicileOrOwner;
import ch.soreco.orderbook.bo.SignatureRequest;
import ch.soreco.orderbook.bo.Paper;
out.html = "new Object "+in.newObject+" at index "+in.i;
if(in.newObject.equals("")){
	// do nothing
	}
if(in.newObject.equals("Paper")) {
	Paper paper = new Paper();
	paper.contactId = in.currentContact.contactId;
	paper.paperRequestDate = new DateTime();
	paper.isPaper = true;
	
	out.html = ClassConverter.getClassHTML(paper,"orderContactPapers$$"+in.i,in.modify,false);
	}
	
if(in.newObject.equals("SignatureRequest")) {
	SignatureRequest sign = new SignatureRequest();
	sign.contactId = in.currentContact.contactId;
	sign.signatureRequestDate = new DateTime();
	sign.isRequested = true;
	sign.signatureNeedsOrderNo = true;
	out.html = ClassConverter.getClassHTML(sign,"orderContactsSignatureRequests$$"+in.i,in.modify,true);
	}

if(in.newObject.equals("DomicileOrOwner")) {
	DomicileOrOwner doo = new DomicileOrOwner();
	doo.recording = in.order.recording;
	out.html = ClassConverter.getClassHTML(doo,"recordingDomicileOrOwners$$"+in.i,in.modify,true);
	}	

if(in.newObject.equals("RecordingLSV")) {
	RecordingLSV lsv = new RecordingLSV();
	lsv.recording = in.order.recording;
	out.html = ClassConverter.getClassHTML(lsv,"recordingLSV$$"+in.i,in.modify,true);
	}
if(in.newObject.equals("CorrespondenceContainer")) {
	CorrespondenceContainer correspondenceContainer = new CorrespondenceContainer();
	correspondenceContainer.correspondence = in.order.recording.correspondence;
	out.html = ClassConverter.getClassHTML(correspondenceContainer,"recordingCorrespondenceContainers$$"+in.i,in.modify,true);
	}

if(in.newObject.equals("RecordingMeta")) {
	RecordingMeta meta = new RecordingMeta();
	meta.recording = in.order.recording;
	AttributeClassHtml ach = new AttributeClassHtml(in.genericView, meta, "recordingMetas",in.i);
	out.html = ach.toHtml();
	}
	
if(in.newObject.equals("Letter")) {
	Letter letter = new Letter();
	letter.contactId = in.currentContact.contactId;
	AttributeClassHtml ach = new AttributeClassHtml(in.genericView, letter, "orderContactsLetters",in.i);
	out.html = ach.toHtml();
	}' #txt
Ck0 f58 type ch.soreco.orderbook.ui.Order #txt
Ck0 f58 @C|.xml '<?xml version="1.0" encoding="UTF-8" standalone="yes"?>
<elementInfo>
    <language>
        <name>get Html 
of new Entry</name>
        <nameStyle>22
</nameStyle>
    </language>
</elementInfo>
' #txt
Ck0 f58 366 460 36 24 20 -2 #rect
Ck0 f58 @|StepIcon #fIcon
Ck0 f59 template "/ProcessPages/Edit/AjaxLoadedEntry.ivc" #txt
Ck0 f59 type ch.soreco.orderbook.ui.Order #txt
Ck0 f59 skipLink skip.ivp #txt
Ck0 f59 sortLink sort.ivp #txt
Ck0 f59 templateWizard '#
#Mon Aug 08 12:38:34 CEST 2011
' #txt
Ck0 f59 pageArchivingActivated false #txt
Ck0 f59 @C|.xml '<?xml version="1.0" encoding="UTF-8" standalone="yes"?>
<elementInfo>
    <language>
        <name>get new Entry
by Ajax Load</name>
        <nameStyle>26
</nameStyle>
    </language>
</elementInfo>
' #txt
Ck0 f59 @C|.responsibility Everybody #txt
Ck0 f59 366 500 36 24 20 -2 #rect
Ck0 f59 @|PageIcon #fIcon
Ck0 f60 expr out #txt
Ck0 f60 384 484 384 500 #arcP
Ck0 f61 expr data #txt
Ck0 f61 outCond ivp=="addNew.ivp" #txt
Ck0 f61 297 356 384 460 #arcP
Ck0 f61 1 336 408 #addKink
Ck0 f61 2 384 408 #addKink
Ck0 f61 1 0.43622644210698613 0 0 #arcLabel
Ck0 f108 actionDecl 'ch.soreco.orderbook.ui.Order out;
' #txt
Ck0 f108 actionTable 'out=in;
out.order.discard=true;
out.order.orderState=ch.soreco.orderbook.enums.OrderState.InAbortCheck.toString();
' #txt
Ck0 f108 type ch.soreco.orderbook.ui.Order #txt
Ck0 f108 @C|.xml '<?xml version="1.0" encoding="UTF-8" standalone="yes"?>
<elementInfo>
    <language>
        <name>verwerfen
InPendencyRecording
to InAbortCheck</name>
        <nameStyle>45
</nameStyle>
    </language>
</elementInfo>
' #txt
Ck0 f108 1118 436 36 24 20 -2 #rect
Ck0 f108 @|StepIcon #fIcon
Ck0 f62 expr data #txt
Ck0 f62 outCond ivp=="discard.ivp" #txt
Ck0 f62 306 344 1136 436 #arcP
Ck0 f62 1 1136 344 #addKink
Ck0 f62 0 0.5520854222584362 0 0 #arcLabel
Ck0 f64 actionDecl 'ch.soreco.orderbook.ui.Order out;
' #txt
Ck0 f64 actionTable 'out=in;
' #txt
Ck0 f64 actionCode 'import ch.ivyteam.ivy.security.IUser;
import ch.soreco.orderbook.util.Authority;
import ch.soreco.orderbook.enums.OrderType;
import java.util.Collections;

in.orderTypeList.clear();

for(ch.soreco.orderbook.enums.OrderType ot : ch.soreco.orderbook.enums.OrderType.values()){
	if(!ot.toString().equals("Default") && !ot.toString().equals("Order")){
			String otString = ivy.cms.co("/ch/soreco/orderbook/enums/OrderType/"+ot+"/0_name")+"!"+ot;
			in.orderTypeList.add(otString);
	}	
}

Collections.sort(in.orderTypeList, String.CASE_INSENSITIVE_ORDER);

in.userList.clear();

List<IUser> users = ivy.session.getSecurityContext().getUsers() as List<IUser>;
in.userList.add("");
for(int i = 0; i < users.size(); i++){
	IUser cUser = users.get(i) as IUser;
	if(!cUser.getName().trim().equalsIgnoreCase("SYSTEM") && !cUser.getName().trim().equalsIgnoreCase("Developer")){	
		in.userList.add(cUser.getName());
	}
}


Collections.sort(in.userList, String.CASE_INSENSITIVE_ORDER);

if(in.getShowChild()==null){
	in.showChild = 0;
	}' #txt
Ck0 f64 type ch.soreco.orderbook.ui.Order #txt
Ck0 f64 @C|.xml '<?xml version="1.0" encoding="UTF-8" standalone="yes"?>
<elementInfo>
    <language>
        <name>prepare orderList &amp; userList</name>
        <nameStyle>28
</nameStyle>
    </language>
</elementInfo>
' #txt
Ck0 f64 270 268 36 24 20 -2 #rect
Ck0 f64 @|StepIcon #fIcon
Ck0 f66 expr out #txt
Ck0 f66 288 180 288 204 #arcP
Ck0 f65 expr out #txt
Ck0 f65 288 292 288 332 #arcP
Ck0 f1 expr out #txt
Ck0 f1 288 228 288 268 #arcP
Ck0 f86 actionDecl 'ch.soreco.orderbook.ui.Order out;
' #txt
Ck0 f86 actionTable 'out=in;
out.order.checkerUserId=in.orderCopy.checkerUserId.length() > 0 && !in.newOrder ? in.orderCopy.checkerUserId : ivy.session.getSessionUserName();
out.order.editorUserId=in.orderCopy.editorUserId.length() > 0 && !in.newOrder ? in.orderCopy.editorUserId :in.order.editorUserId;
' #txt
Ck0 f86 type ch.soreco.orderbook.ui.Order #txt
Ck0 f86 @C|.xml '<?xml version="1.0" encoding="UTF-8" standalone="yes"?>
<elementInfo>
    <language>
        <name>set editor &amp; checker</name>
        <nameStyle>20
</nameStyle>
        <desc>workaround; copy checker from copy into current order</desc>
    </language>
</elementInfo>
' #txt
Ck0 f86 494 596 36 24 20 -2 #rect
Ck0 f86 @|StepIcon #fIcon
Ck0 f9 expr out #txt
Ck0 f9 488 452 506 596 #arcP
Ck0 f9 1 488 560 #addKink
Ck0 f9 1 0.7279922160150543 0 0 #arcLabel
Ck0 f31 592 516 530 601 #arcP
Ck0 f31 1 592 576 #addKink
Ck0 f31 1 0.007003389496393325 0 0 #arcLabel
Ck0 f41 expr out #txt
Ck0 f41 1136 460 530 608 #arcP
Ck0 f41 1 1136 608 #addKink
Ck0 f41 1 0.3392543621819096 0 0 #arcLabel
Ck0 f63 904 460 530 608 #arcP
Ck0 f63 1 904 608 #addKink
Ck0 f63 1 0.1896947668548948 0 0 #arcLabel
Ck0 f42 expr out #txt
Ck0 f42 512 620 512 636 #arcP
Ck0 f43 actionDecl 'ch.soreco.orderbook.ui.Order out;
' #txt
Ck0 f43 actionTable 'out=in;
' #txt
Ck0 f43 type ch.soreco.orderbook.ui.Order #txt
Ck0 f43 494 748 36 24 20 -2 #rect
Ck0 f43 @|StepIcon #fIcon
Ck0 f68 expr in #txt
Ck0 f68 512 718 512 748 #arcP
Ck0 f44 expr in #txt
Ck0 f44 outCond in.newOrder #txt
Ck0 f44 594 760 530 760 #arcP
Ck0 f44 0 0.7093677559346707 0 0 #arcLabel
Ck0 f49 expr data #txt
Ck0 f49 outCond ivp=="correct.ivp" #txt
Ck0 f49 306 344 584 492 #arcP
Ck0 f49 1 584 344 #addKink
Ck0 f49 0 0.6077410217902702 0 0 #arcLabel
Ck0 f67 expr out #txt
Ck0 f67 512 660 512 690 #arcP
Ck0 f67 0 0.4808881430074672 0 0 #arcLabel
Ck0 f52 expr out #txt
Ck0 f52 512 772 512 802 #arcP
Ck0 f69 expr in #txt
Ck0 f69 622 760 301 872 #arcP
Ck0 f69 1 872 760 #addKink
Ck0 f69 2 872 872 #addKink
Ck0 f69 2 0.19267490410648516 0 0 #arcLabel
Ck0 f105 type ch.soreco.orderbook.ui.Order #txt
Ck0 f105 processCall 'Business Processes/History/ShowSimpleOrderHistory:showSimpleHistory(ch.soreco.orderbook.functional.History)' #txt
Ck0 f105 doCall true #txt
Ck0 f105 requestActionDecl '<ch.soreco.orderbook.functional.History history> param;
' #txt
Ck0 f105 requestMappingAction 'param.history.fetchId=in.order.orderId;
param.history.historyTable="tbl_Orders_History";
param.history.idName="orderId";
' #txt
Ck0 f105 responseActionDecl 'ch.soreco.orderbook.ui.Order out;
' #txt
Ck0 f105 responseMappingAction 'out=in;
' #txt
Ck0 f105 @C|.xml '<?xml version="1.0" encoding="UTF-8" standalone="yes"?>
<elementInfo>
    <language>
        <name>show history</name>
        <nameStyle>12,7
</nameStyle>
    </language>
</elementInfo>
' #txt
Ck0 f105 62 452 36 24 20 -2 #rect
Ck0 f105 @|CallSubIcon #fIcon
Ck0 f50 expr data #txt
Ck0 f50 outCond ivp=="showHistory.ivp" #txt
Ck0 f50 278 356 98 464 #arcP
Ck0 f50 1 184 464 #addKink
Ck0 f50 0 0.8100359358100924 0 0 #arcLabel
>Proto Ck0 .type ch.soreco.orderbook.ui.Order #txt
>Proto Ck0 .processKind CALLABLE_SUB #txt
>Proto Ck0 0 0 32 24 18 0 #rect
>Proto Ck0 @|BIcon #fIcon
1b0 f46 actionDecl 'ch.soreco.orderbook.ui.Order out;
' #txt
1b0 f46 actionTable 'out=in;
out.order.orderEnd=new DateTime();
out.order.orderState=ch.soreco.orderbook.enums.OrderState.Finished.toString();
' #txt
1b0 f46 type ch.soreco.orderbook.ui.Order #txt
1b0 f46 @C|.xml '<?xml version="1.0" encoding="UTF-8" standalone="yes"?>
<elementInfo>
    <language>
        <name>In4eCheck 
to finished</name>
        <nameStyle>22
</nameStyle>
    </language>
</elementInfo>
' #txt
1b0 f46 350 244 36 24 20 -2 #rect
1b0 f46 @|StepIcon #fIcon
1b0 f11 expr in #txt
1b0 f11 outCond in.order.orderState.equals(ch.soreco.orderbook.enums.OrderState.InAbortCheck.toString()) #txt
1b0 f11 72 222 72 244 #arcP
1b0 f6 actionDecl 'ch.soreco.orderbook.ui.Order out;
' #txt
1b0 f6 actionTable 'out=in;
out.order.orderEnd=new DateTime();
out.order.orderState=ch.soreco.orderbook.enums.OrderState.Aborted.toString();
' #txt
1b0 f6 type ch.soreco.orderbook.ui.Order #txt
1b0 f6 @C|.xml '<?xml version="1.0" encoding="UTF-8" standalone="yes"?>
<elementInfo>
    <language>
        <name>InAbortChekc
to Aborted</name>
        <nameStyle>23,7
</nameStyle>
    </language>
</elementInfo>
' #txt
1b0 f6 54 244 36 24 20 -2 #rect
1b0 f6 @|StepIcon #fIcon
1b0 f52 actionDecl 'ch.soreco.orderbook.ui.Order out;
' #txt
1b0 f52 actionTable 'out=in;
out.order.orderState=ch.soreco.orderbook.enums.OrderState.Unidentified.toString();
' #txt
1b0 f52 type ch.soreco.orderbook.ui.Order #txt
1b0 f52 @C|.xml '<?xml version="1.0" encoding="UTF-8" standalone="yes"?>
<elementInfo>
    <language>
        <name>InIdCheck 
to Unidentified</name>
        <nameStyle>26
</nameStyle>
    </language>
</elementInfo>
' #txt
1b0 f52 574 244 36 24 20 -2 #rect
1b0 f52 @|StepIcon #fIcon
1b0 f49 actionDecl 'ch.soreco.orderbook.ui.Order out;
' #txt
1b0 f49 actionTable 'out=in;
out.order.orderState=ch.soreco.orderbook.enums.OrderState.Recording.toString();
' #txt
1b0 f49 type ch.soreco.orderbook.ui.Order #txt
1b0 f49 @C|.xml '<?xml version="1.0" encoding="UTF-8" standalone="yes"?>
<elementInfo>
    <language>
        <name>InCheck 
to Recording</name>
        <nameStyle>21
</nameStyle>
    </language>
</elementInfo>
' #txt
1b0 f49 470 244 36 24 20 -2 #rect
1b0 f49 @|StepIcon #fIcon
1b0 f42 type ch.soreco.orderbook.ui.Order #txt
1b0 f42 @C|.xml '<?xml version="1.0" encoding="UTF-8" standalone="yes"?>
<elementInfo>
    <language>
        <name>Set State depending Check state
as pressed &quot;korrekt&quot;</name>
        <nameStyle>52
</nameStyle>
    </language>
</elementInfo>
' #txt
1b0 f42 58 194 28 28 66 -46 #rect
1b0 f42 @|AlternativeIcon #fIcon
1b0 f53 expr in #txt
1b0 f53 outCond in.order.orderState.equals(ch.soreco.orderbook.enums.OrderState.InIdCheck.toString()) #txt
1b0 f53 86 208 592 244 #arcP
1b0 f53 1 592 208 #addKink
1b0 f53 0 0.5487142604118871 0 0 #arcLabel
1b0 f45 expr in #txt
1b0 f45 outCond in.order.orderState.equals(ch.soreco.orderbook.enums.OrderState.InPendencyCheck.toString()) #txt
1b0 f45 86 208 216 244 #arcP
1b0 f45 1 216 208 #addKink
1b0 f45 0 0.6717067175070669 0 0 #arcLabel
1b0 f47 expr in #txt
1b0 f47 outCond in.order.orderState.equals(ch.soreco.orderbook.enums.OrderState.In4eCheck.toString()) #txt
1b0 f47 86 208 368 244 #arcP
1b0 f47 1 368 208 #addKink
1b0 f47 0 0.5853261998268448 0 0 #arcLabel
1b0 f50 expr in #txt
1b0 f50 outCond in.order.orderState.equals(ch.soreco.orderbook.enums.OrderState.InCheck.toString()) #txt
1b0 f50 86 208 488 244 #arcP
1b0 f50 1 488 208 #addKink
1b0 f50 0 0.5612856129871794 0 0 #arcLabel
1b0 f41 actionDecl 'ch.soreco.orderbook.ui.Order out;
' #txt
1b0 f41 actionTable 'out=in;
out.order.orderState=ch.soreco.orderbook.enums.OrderState.Pendant.toString();
' #txt
1b0 f41 type ch.soreco.orderbook.ui.Order #txt
1b0 f41 @C|.xml '<?xml version="1.0" encoding="UTF-8" standalone="yes"?>
<elementInfo>
    <language>
        <name>InPendencyCheck 
to pending</name>
        <nameStyle>27
</nameStyle>
    </language>
</elementInfo>
' #txt
1b0 f41 198 244 36 24 20 -2 #rect
1b0 f41 @|StepIcon #fIcon
1b0 g1 @C|.xml '<?xml version="1.0" encoding="UTF-8" standalone="yes"?>
<elementInfo>
    <language lang="en">
        <name>out 1</name>
    </language>
</elementInfo>
' #txt
1b0 g1 69 490 6 6 10 16 #rect
1b0 g1 @|MOGIcon #fIcon
1b0 f7 actionDecl 'ch.soreco.orderbook.ui.Order out;
' #txt
1b0 f7 actionTable 'out=in;
' #txt
1b0 f7 type ch.soreco.orderbook.ui.Order #txt
1b0 f7 54 316 36 24 20 -2 #rect
1b0 f7 @|StepIcon #fIcon
1b0 f8 expr out #txt
1b0 f8 72 268 72 316 #arcP
1b0 f1 expr out #txt
1b0 f1 72 340 72 490 #arcP
1b0 f9 expr out #txt
1b0 f9 216 268 90 328 #arcP
1b0 f9 1 216 328 #addKink
1b0 f9 1 0.13329683669250822 0 0 #arcLabel
1b0 f2 expr out #txt
1b0 f2 368 268 90 328 #arcP
1b0 f2 1 368 328 #addKink
1b0 f2 1 0.32083426072096827 0 0 #arcLabel
1b0 f3 expr out #txt
1b0 f3 488 268 90 328 #arcP
1b0 f3 1 488 328 #addKink
1b0 f3 1 0.37359550561797744 0 0 #arcLabel
1b0 f4 expr out #txt
1b0 f4 592 268 90 328 #arcP
1b0 f4 1 592 328 #addKink
1b0 f4 1 0.3988009353087227 0 0 #arcLabel
1b0 f5 actionDecl 'ch.soreco.orderbook.ui.Order out;
' #txt
1b0 f5 actionTable 'out=in;
out.order.orderState=ch.soreco.orderbook.enums.OrderState.Pendant.toString();
' #txt
1b0 f5 type ch.soreco.orderbook.ui.Order #txt
1b0 f5 @C|.xml '<?xml version="1.0" encoding="UTF-8" standalone="yes"?>
<elementInfo>
    <language>
        <name>InPendencyRecordingCheck 
to pending</name>
        <nameStyle>36
</nameStyle>
    </language>
</elementInfo>
' #txt
1b0 f5 694 244 36 24 20 -2 #rect
1b0 f5 @|StepIcon #fIcon
1b0 f10 expr in #txt
1b0 f10 outCond in.order.orderState.equals(ch.soreco.orderbook.enums.OrderState.InPendencyRecordingCheck.toString()) #txt
1b0 f10 86 208 712 244 #arcP
1b0 f10 1 712 208 #addKink
1b0 f10 0 0.5401346524067602 0 0 #arcLabel
1b0 f12 expr out #txt
1b0 f12 712 268 90 328 #arcP
1b0 f12 1 712 328 #addKink
1b0 f12 1 0.4418996218943213 0 0 #arcLabel
1b0 g0 69 -6 6 6 10 16 #rect
1b0 g0 @|MIGIcon #fIcon
1b0 f0 72 0 72 194 #arcP
>Proto 1b0 0 0 32 24 18 0 #rect
>Proto 1b0 @|BIcon #fIcon
1b1 f46 actionDecl 'ch.soreco.orderbook.ui.Order out;
' #txt
1b1 f46 actionTable 'out=in;
out.order.matchedToOrder=(in.order.bpIdIsChecked ? in.order.matchedToOrder:null);
out.order.orderState=ch.soreco.orderbook.enums.OrderState.Recording.toString();
' #txt
1b1 f46 type ch.soreco.orderbook.ui.Order #txt
1b1 f46 @C|.xml '<?xml version="1.0" encoding="UTF-8" standalone="yes"?>
<elementInfo>
    <language>
        <name>In4eCheck 
to Recording</name>
        <nameStyle>23
</nameStyle>
        <desc>03.02.11 BST: changed set state In4eCheck-&gt;Finished to In4eCheck to Recording</desc>
    </language>
</elementInfo>
' #txt
1b1 f46 350 212 36 24 20 -2 #rect
1b1 f46 @|StepIcon #fIcon
1b1 f11 expr in #txt
1b1 f11 outCond in.order.orderState.equals(ch.soreco.orderbook.enums.OrderState.InAbortCheck.toString()) #txt
1b1 f11 72 158 72 212 #arcP
1b1 f6 actionDecl 'ch.soreco.orderbook.ui.Order out;
' #txt
1b1 f6 actionTable 'out=in;
out.order.orderState=ch.soreco.orderbook.enums.OrderState.InPendencyRecording.toString();
' #txt
1b1 f6 type ch.soreco.orderbook.ui.Order #txt
1b1 f6 @C|.xml '<?xml version="1.0" encoding="UTF-8" standalone="yes"?>
<elementInfo>
    <language>
        <name>InAbortCheck
to PendencyRecoring</name>
        <nameStyle>32
</nameStyle>
    </language>
</elementInfo>
' #txt
1b1 f6 54 212 36 24 20 -2 #rect
1b1 f6 @|StepIcon #fIcon
1b1 f52 actionDecl 'ch.soreco.orderbook.ui.Order out;
' #txt
1b1 f52 actionTable 'out=in;
out.order.orderState=ch.soreco.orderbook.enums.OrderState.Recording.toString();
' #txt
1b1 f52 type ch.soreco.orderbook.ui.Order #txt
1b1 f52 @C|.xml '<?xml version="1.0" encoding="UTF-8" standalone="yes"?>
<elementInfo>
    <language>
        <name>InIdCheck 
to Recording</name>
        <nameStyle>23
</nameStyle>
        <desc>KEMA 24.02.2011:
-----------------------
old: to Undefinied
new: to Recording</desc>
    </language>
</elementInfo>
' #txt
1b1 f52 574 212 36 24 20 -2 #rect
1b1 f52 @|StepIcon #fIcon
1b1 f49 actionDecl 'ch.soreco.orderbook.ui.Order out;
' #txt
1b1 f49 actionTable 'out=in;
out.order.matchedToOrder=(in.order.bpIdIsChecked ? in.order.matchedToOrder:null);
out.order.orderState=ch.soreco.orderbook.enums.OrderState.Recording.toString();
' #txt
1b1 f49 type ch.soreco.orderbook.ui.Order #txt
1b1 f49 @C|.xml '<?xml version="1.0" encoding="UTF-8" standalone="yes"?>
<elementInfo>
    <language>
        <name>InCheck 
to Recording</name>
        <nameStyle>21
</nameStyle>
    </language>
</elementInfo>
' #txt
1b1 f49 470 212 36 24 20 -2 #rect
1b1 f49 @|StepIcon #fIcon
1b1 f42 type ch.soreco.orderbook.ui.Order #txt
1b1 f42 @C|.xml '<?xml version="1.0" encoding="UTF-8" standalone="yes"?>
<elementInfo>
    <language>
        <name>Set State depending Check state
as pressed &quot;zurückweisen&quot;</name>
        <nameStyle>57
</nameStyle>
    </language>
</elementInfo>
' #txt
1b1 f42 58 130 28 28 10 -57 #rect
1b1 f42 @|AlternativeIcon #fIcon
1b1 f53 expr in #txt
1b1 f53 outCond in.order.orderState.equals(ch.soreco.orderbook.enums.OrderState.InIdCheck.toString()) #txt
1b1 f53 86 144 592 212 #arcP
1b1 f53 1 592 144 #addKink
1b1 f53 0 0.5487142604118871 0 0 #arcLabel
1b1 f45 expr in #txt
1b1 f45 outCond in.order.orderState.equals(ch.soreco.orderbook.enums.OrderState.InPendencyCheck.toString()) #txt
1b1 f45 86 144 216 212 #arcP
1b1 f45 1 216 144 #addKink
1b1 f45 0 0.6717067175070669 0 0 #arcLabel
1b1 f47 expr in #txt
1b1 f47 outCond in.order.orderState.equals(ch.soreco.orderbook.enums.OrderState.In4eCheck.toString()) #txt
1b1 f47 86 144 368 212 #arcP
1b1 f47 1 368 144 #addKink
1b1 f47 0 0.5853261998268448 0 0 #arcLabel
1b1 f50 expr in #txt
1b1 f50 outCond in.order.orderState.equals(ch.soreco.orderbook.enums.OrderState.InCheck.toString()) #txt
1b1 f50 86 144 488 212 #arcP
1b1 f50 1 488 144 #addKink
1b1 f50 0 0.5612856129871794 0 0 #arcLabel
1b1 f41 actionDecl 'ch.soreco.orderbook.ui.Order out;
' #txt
1b1 f41 actionTable 'out=in;
out.order.orderState=ch.soreco.orderbook.enums.OrderState.Recording.toString();
' #txt
1b1 f41 type ch.soreco.orderbook.ui.Order #txt
1b1 f41 @C|.xml '<?xml version="1.0" encoding="UTF-8" standalone="yes"?>
<elementInfo>
    <language>
        <name>InPendencyCheck 
to Recording</name>
        <nameStyle>29
</nameStyle>
        <desc>Status &quot;In Erfassung&quot;
-&gt;Erfasser drückt &quot;Pendent&quot;
-&gt;neuer Status &quot;In Pendenzprüfung&quot;
-&gt;Prüfer drückt &quot;zurückweisen&quot;
-&gt;neuer Status &quot;In Erfassung&quot;</desc>
    </language>
</elementInfo>
' #txt
1b1 f41 198 212 36 24 20 -2 #rect
1b1 f41 @|StepIcon #fIcon
1b1 g0 @C|.xml '<?xml version="1.0" encoding="UTF-8" standalone="yes"?>
<elementInfo>
    <language lang="en">
        <name>in 1</name>
    </language>
</elementInfo>
' #txt
1b1 g0 69 -6 6 6 5 6 #rect
1b1 g0 @|MIGIcon #fIcon
1b1 f0 72 0 72 130 #arcP
1b1 g1 @C|.xml '<?xml version="1.0" encoding="UTF-8" standalone="yes"?>
<elementInfo>
    <language lang="en">
        <name>out 1</name>
    </language>
</elementInfo>
' #txt
1b1 g1 69 592 6 6 10 16 #rect
1b1 g1 @|MOGIcon #fIcon
1b1 f7 actionDecl 'ch.soreco.orderbook.ui.Order out;
' #txt
1b1 f7 actionTable 'out=in;
' #txt
1b1 f7 type ch.soreco.orderbook.ui.Order #txt
1b1 f7 54 316 36 24 20 -2 #rect
1b1 f7 @|StepIcon #fIcon
1b1 f8 expr out #txt
1b1 f8 72 236 72 316 #arcP
1b1 f1 expr out #txt
1b1 f1 72 340 72 592 #arcP
1b1 f9 expr out #txt
1b1 f9 216 236 90 328 #arcP
1b1 f9 1 216 328 #addKink
1b1 f9 1 0.2406568234004777 0 0 #arcLabel
1b1 f2 expr out #txt
1b1 f2 368 236 90 328 #arcP
1b1 f2 1 368 328 #addKink
1b1 f2 1 0.3734986667180081 0 0 #arcLabel
1b1 f3 expr out #txt
1b1 f3 488 236 90 328 #arcP
1b1 f3 1 488 328 #addKink
1b1 f3 1 0.41041814038648533 0 0 #arcLabel
1b1 f4 expr out #txt
1b1 f4 592 236 90 328 #arcP
1b1 f4 1 592 328 #addKink
1b1 f4 1 0.42801128447670944 0 0 #arcLabel
1b1 f5 actionDecl 'ch.soreco.orderbook.ui.Order out;
' #txt
1b1 f5 actionTable 'out=in;
out.order.orderState=ch.soreco.orderbook.enums.OrderState.InPendencyRecording.toString();
' #txt
1b1 f5 type ch.soreco.orderbook.ui.Order #txt
1b1 f5 @C|.xml '<?xml version="1.0" encoding="UTF-8" standalone="yes"?>
<elementInfo>
    <language>
        <name>InPendencyRecordingCheck 
to PendencyRecording</name>
        <nameStyle>46
</nameStyle>
    </language>
</elementInfo>
' #txt
1b1 f5 726 212 36 24 20 -2 #rect
1b1 f5 @|StepIcon #fIcon
1b1 f10 expr in #txt
1b1 f10 outCond in.order.orderState.equals(ch.soreco.orderbook.enums.OrderState.InPendencyRecordingCheck.toString()) #txt
1b1 f10 86 144 744 212 #arcP
1b1 f10 1 744 144 #addKink
1b1 f10 0 0.5607358818066053 0 0 #arcLabel
1b1 f12 expr out #txt
1b1 f12 744 236 90 328 #arcP
1b1 f12 1 744 328 #addKink
1b1 f12 1 0.42156701582866923 0 0 #arcLabel
>Proto 1b1 0 0 32 24 18 0 #rect
>Proto 1b1 @|BIcon #fIcon
1b2 f46 actionDecl 'ch.soreco.orderbook.ui.Order out;
' #txt
1b2 f46 actionTable 'out=in;
out.order.matchedToOrder=(in.order.bpIdIsChecked ? in.order.matchedToOrder:null);
out.order.orderState=ch.soreco.orderbook.enums.OrderState.Recording.toString();
' #txt
1b2 f46 type ch.soreco.orderbook.ui.Order #txt
1b2 f46 @C|.xml '<?xml version="1.0" encoding="UTF-8" standalone="yes"?>
<elementInfo>
    <language>
        <name>In4eCheck 
to Recording</name>
        <nameStyle>23
</nameStyle>
    </language>
</elementInfo>
' #txt
1b2 f46 350 212 36 24 20 -2 #rect
1b2 f46 @|StepIcon #fIcon
1b2 f11 expr in #txt
1b2 f11 outCond in.order.orderState.equals(ch.soreco.orderbook.enums.OrderState.InAbortCheck.toString()) #txt
1b2 f11 72 158 72 212 #arcP
1b2 f6 actionDecl 'ch.soreco.orderbook.ui.Order out;
' #txt
1b2 f6 actionTable 'out=in;
out.order.orderState=ch.soreco.orderbook.enums.OrderState.InPendencyRecording.toString();
' #txt
1b2 f6 type ch.soreco.orderbook.ui.Order #txt
1b2 f6 @C|.xml '<?xml version="1.0" encoding="UTF-8" standalone="yes"?>
<elementInfo>
    <language>
        <name>InAbortCheck
to Aborted</name>
        <nameStyle>23
</nameStyle>
    </language>
</elementInfo>
' #txt
1b2 f6 54 212 36 24 20 -2 #rect
1b2 f6 @|StepIcon #fIcon
1b2 f52 actionDecl 'ch.soreco.orderbook.ui.Order out;
' #txt
1b2 f52 actionTable 'out=in;
out.order.orderState=ch.soreco.orderbook.enums.OrderState.Recording.toString();
' #txt
1b2 f52 type ch.soreco.orderbook.ui.Order #txt
1b2 f52 @C|.xml '<?xml version="1.0" encoding="UTF-8" standalone="yes"?>
<elementInfo>
    <language>
        <name>InIdCheck 
to Unidentified</name>
        <nameStyle>26
</nameStyle>
        <desc>changed output state from Unidentified to Recording, as of 8.3.2011, bst, as  reported in Fehlerliste.xls (id 91).</desc>
    </language>
</elementInfo>
' #txt
1b2 f52 574 212 36 24 20 -2 #rect
1b2 f52 @|StepIcon #fIcon
1b2 f49 actionDecl 'ch.soreco.orderbook.ui.Order out;
' #txt
1b2 f49 actionTable 'out=in;
out.order.matchedToOrder=(in.order.bpIdIsChecked ? in.order.matchedToOrder:null);
out.order.orderState=ch.soreco.orderbook.enums.OrderState.Recording.toString();
' #txt
1b2 f49 type ch.soreco.orderbook.ui.Order #txt
1b2 f49 @C|.xml '<?xml version="1.0" encoding="UTF-8" standalone="yes"?>
<elementInfo>
    <language>
        <name>InCheck 
to Recording</name>
        <nameStyle>21
</nameStyle>
    </language>
</elementInfo>
' #txt
1b2 f49 470 212 36 24 20 -2 #rect
1b2 f49 @|StepIcon #fIcon
1b2 f42 type ch.soreco.orderbook.ui.Order #txt
1b2 f42 @C|.xml '<?xml version="1.0" encoding="UTF-8" standalone="yes"?>
<elementInfo>
    <language>
        <name>Set State depending Check state
as pressed &quot;zurückweisen&quot;</name>
        <nameStyle>57
</nameStyle>
    </language>
</elementInfo>
' #txt
1b2 f42 58 130 28 28 10 -57 #rect
1b2 f42 @|AlternativeIcon #fIcon
1b2 f53 expr in #txt
1b2 f53 outCond in.order.orderState.equals(ch.soreco.orderbook.enums.OrderState.InIdCheck.toString()) #txt
1b2 f53 86 144 592 212 #arcP
1b2 f53 1 592 144 #addKink
1b2 f53 0 0.5778300197455221 0 0 #arcLabel
1b2 f45 expr in #txt
1b2 f45 outCond in.order.orderState.equals(ch.soreco.orderbook.enums.OrderState.InPendencyCheck.toString()) #txt
1b2 f45 86 144 216 212 #arcP
1b2 f45 1 216 144 #addKink
1b2 f45 0 0.7675100817457473 0 0 #arcLabel
1b2 f47 expr in #txt
1b2 f47 outCond in.order.orderState.equals(ch.soreco.orderbook.enums.OrderState.In4eCheck.toString()) #txt
1b2 f47 86 144 368 212 #arcP
1b2 f47 1 368 144 #addKink
1b2 f47 0 0.6353078737389949 0 0 #arcLabel
1b2 f50 expr in #txt
1b2 f50 outCond in.order.orderState.equals(ch.soreco.orderbook.enums.OrderState.InCheck.toString()) #txt
1b2 f50 86 144 488 212 #arcP
1b2 f50 1 488 144 #addKink
1b2 f50 0 0.5978650296276289 0 0 #arcLabel
1b2 f41 actionDecl 'ch.soreco.orderbook.ui.Order out;
' #txt
1b2 f41 actionTable 'out=in;
out.order.orderState=ch.soreco.orderbook.enums.OrderState.Recording.toString();
' #txt
1b2 f41 type ch.soreco.orderbook.ui.Order #txt
1b2 f41 @C|.xml '<?xml version="1.0" encoding="UTF-8" standalone="yes"?>
<elementInfo>
    <language>
        <name>InPendencyCheck 
to Recording</name>
        <nameStyle>29
</nameStyle>
        <desc>KEMA 24.02.2011:
----------------------
old: pending
new: recording</desc>
    </language>
</elementInfo>
' #txt
1b2 f41 198 212 36 24 20 -2 #rect
1b2 f41 @|StepIcon #fIcon
1b2 g0 @C|.xml '<?xml version="1.0" encoding="UTF-8" standalone="yes"?>
<elementInfo>
    <language lang="en">
        <name>in 1</name>
    </language>
</elementInfo>
' #txt
1b2 g0 69 -6 6 6 5 6 #rect
1b2 g0 @|MIGIcon #fIcon
1b2 f0 72 0 72 130 #arcP
1b2 g1 @C|.xml '<?xml version="1.0" encoding="UTF-8" standalone="yes"?>
<elementInfo>
    <language lang="en">
        <name>out 1</name>
    </language>
</elementInfo>
' #txt
1b2 g1 69 491 6 6 10 16 #rect
1b2 g1 @|MOGIcon #fIcon
1b2 f7 actionDecl 'ch.soreco.orderbook.ui.Order out;
' #txt
1b2 f7 actionTable 'out=in;
' #txt
1b2 f7 type ch.soreco.orderbook.ui.Order #txt
1b2 f7 54 316 36 24 20 -2 #rect
1b2 f7 @|StepIcon #fIcon
1b2 f8 expr out #txt
1b2 f8 72 236 72 316 #arcP
1b2 f1 expr out #txt
1b2 f1 72 340 72 491 #arcP
1b2 f9 expr out #txt
1b2 f9 216 236 90 328 #arcP
1b2 f9 1 216 328 #addKink
1b2 f9 1 0.16986257184272452 0 0 #arcLabel
1b2 f2 expr out #txt
1b2 f2 368 236 90 328 #arcP
1b2 f2 1 368 328 #addKink
1b2 f2 1 0.32083426072096827 0 0 #arcLabel
1b2 f3 expr out #txt
1b2 f3 488 236 90 328 #arcP
1b2 f3 1 488 328 #addKink
1b2 f3 1 0.37359550561797744 0 0 #arcLabel
1b2 f4 expr out #txt
1b2 f4 592 236 90 328 #arcP
1b2 f4 1 592 328 #addKink
1b2 f4 1 0.4066321142027615 0 0 #arcLabel
1b2 f5 actionDecl 'ch.soreco.orderbook.ui.Order out;
' #txt
1b2 f5 actionTable 'out=in;
out.order.orderState=ch.soreco.orderbook.enums.OrderState.InPendencyRecording.toString();
' #txt
1b2 f5 type ch.soreco.orderbook.ui.Order #txt
1b2 f5 @C|.xml '<?xml version="1.0" encoding="UTF-8" standalone="yes"?>
<elementInfo>
    <language>
        <name>InPendencyRecordingCheck 
to PendencyRecording</name>
        <nameStyle>46
</nameStyle>
    </language>
</elementInfo>
' #txt
1b2 f5 726 212 36 24 20 -2 #rect
1b2 f5 @|StepIcon #fIcon
1b2 f10 expr in #txt
1b2 f10 outCond in.order.orderState.equals(ch.soreco.orderbook.enums.OrderState.InPendencyRecordingCheck.toString()) #txt
1b2 f10 86 144 744 212 #arcP
1b2 f10 1 744 144 #addKink
1b2 f10 0 0.5607358818066053 0 0 #arcLabel
1b2 f12 expr out #txt
1b2 f12 744 236 90 328 #arcP
1b2 f12 1 744 328 #addKink
1b2 f12 1 0.42057962907304874 0 0 #arcLabel
>Proto 1b2 0 0 32 24 18 0 #rect
>Proto 1b2 @|BIcon #fIcon
Ck0 f5 head f2 mainIn #connect
Ck0 f12 head f8 mainIn #connect
Ck0 f4 mainOut f10 tail #connect
Ck0 f10 head f7 mainIn #connect
Ck0 f7 mainOut f15 tail #connect
Ck0 f15 head f25 mainIn #connect
Ck0 f34 mainOut f14 tail #connect
Ck0 f14 head f2 mainIn #connect
Ck0 f36 mainOut f39 tail #connect
Ck0 f39 head f37 mainIn #connect
Ck0 f22 mainOut f13 tail #connect
Ck0 f13 head f34 mainIn #connect
Ck0 f20 head f16 mainIn #connect
Ck0 f16 mainOut f21 tail #connect
Ck0 f21 head f0 mainIn #connect
Ck0 f24 head f26 mainIn #connect
Ck0 f26 mainOut f28 tail #connect
Ck0 f28 head f2 mainIn #connect
Ck0 f30 head f35 mainIn #connect
Ck0 f3 out f5 tail #connect
Ck0 f11 head 1b1 g0 #connect
Ck0 f8 mainOut f18 tail #connect
Ck0 f18 head 1b2 g0 #connect
Ck0 1b2 g1 f19 tail #connect
Ck0 f19 head f22 mainIn #connect
Ck0 f38 head f27 mainIn #connect
Ck0 f23 head f33 mainIn #connect
Ck0 f6 out f46 tail #connect
Ck0 f46 head f45 mainIn #connect
Ck0 f45 mainOut f48 tail #connect
Ck0 f48 head f47 in #connect
Ck0 f53 head f2 mainIn #connect
Ck0 f51 out f55 tail #connect
Ck0 f55 head f54 mainIn #connect
Ck0 f51 out f53 tail #connect
Ck0 f54 mainOut f17 tail #connect
Ck0 f17 head f34 mainIn #connect
Ck0 f56 head f87 mainIn #connect
Ck0 f87 mainOut f57 tail #connect
Ck0 f57 head f2 mainIn #connect
Ck0 f58 mainOut f60 tail #connect
Ck0 f60 head f59 mainIn #connect
Ck0 f61 head f58 mainIn #connect
Ck0 f62 head f108 mainIn #connect
Ck0 f25 mainOut f66 tail #connect
Ck0 f66 head f0 mainIn #connect
Ck0 f64 mainOut f65 tail #connect
Ck0 f65 head f3 mainIn #connect
Ck0 f0 mainOut f1 tail #connect
Ck0 f1 head f64 mainIn #connect
Ck0 f35 mainOut f9 tail #connect
Ck0 f9 head f86 mainIn #connect
Ck0 1b0 g1 f31 tail #connect
Ck0 f31 head f86 mainIn #connect
Ck0 f108 mainOut f41 tail #connect
Ck0 f41 head f86 mainIn #connect
Ck0 1b1 g1 f63 tail #connect
Ck0 f63 head f86 mainIn #connect
Ck0 f86 mainOut f42 tail #connect
Ck0 f42 head f37 mainIn #connect
Ck0 f6 out f68 tail #connect
Ck0 f68 head f43 mainIn #connect
Ck0 f47 out f44 tail #connect
Ck0 f44 head f43 mainIn #connect
Ck0 f3 out f49 tail #connect
Ck0 f49 head 1b0 g0 #connect
Ck0 f3 out f12 tail #connect
Ck0 f3 out f11 tail #connect
Ck0 f3 out f38 tail #connect
Ck0 f3 out f20 tail #connect
Ck0 f3 out f24 tail #connect
Ck0 f3 out f30 tail #connect
Ck0 f3 out f23 tail #connect
Ck0 f3 out f56 tail #connect
Ck0 f3 out f61 tail #connect
Ck0 f3 out f62 tail #connect
Ck0 f37 mainOut f67 tail #connect
Ck0 f67 head f6 in #connect
Ck0 f43 mainOut f52 tail #connect
Ck0 f52 head f51 in #connect
Ck0 f47 out f69 tail #connect
Ck0 f69 head f2 mainIn #connect
Ck0 f3 out f50 tail #connect
Ck0 f50 head f105 mainIn #connect
1b0 f42 out f45 tail #connect
1b0 f45 head f41 mainIn #connect
1b0 f42 out f11 tail #connect
1b0 f11 head f6 mainIn #connect
1b0 f42 out f47 tail #connect
1b0 f47 head f46 mainIn #connect
1b0 f42 out f50 tail #connect
1b0 f50 head f49 mainIn #connect
1b0 f42 out f53 tail #connect
1b0 f53 head f52 mainIn #connect
1b0 f6 mainOut f8 tail #connect
1b0 f8 head f7 mainIn #connect
1b0 f7 mainOut f1 tail #connect
1b0 f1 head g1 m #connect
1b0 f41 mainOut f9 tail #connect
1b0 f9 head f7 mainIn #connect
1b0 f46 mainOut f2 tail #connect
1b0 f2 head f7 mainIn #connect
1b0 f49 mainOut f3 tail #connect
1b0 f3 head f7 mainIn #connect
1b0 f52 mainOut f4 tail #connect
1b0 f4 head f7 mainIn #connect
1b0 f42 out f10 tail #connect
1b0 f10 head f5 mainIn #connect
1b0 f5 mainOut f12 tail #connect
1b0 f12 head f7 mainIn #connect
1b0 g0 m f0 tail #connect
1b0 f0 head f42 in #connect
1b0 0 0 849 489 0 #ivRect
1b1 f42 out f45 tail #connect
1b1 f45 head f41 mainIn #connect
1b1 f42 out f11 tail #connect
1b1 f11 head f6 mainIn #connect
1b1 f42 out f47 tail #connect
1b1 f47 head f46 mainIn #connect
1b1 f42 out f50 tail #connect
1b1 f50 head f49 mainIn #connect
1b1 f42 out f53 tail #connect
1b1 f53 head f52 mainIn #connect
1b1 g0 m f0 tail #connect
1b1 f0 head f42 in #connect
1b1 f6 mainOut f8 tail #connect
1b1 f8 head f7 mainIn #connect
1b1 f7 mainOut f1 tail #connect
1b1 f1 head g1 m #connect
1b1 f41 mainOut f9 tail #connect
1b1 f9 head f7 mainIn #connect
1b1 f46 mainOut f2 tail #connect
1b1 f2 head f7 mainIn #connect
1b1 f49 mainOut f3 tail #connect
1b1 f3 head f7 mainIn #connect
1b1 f52 mainOut f4 tail #connect
1b1 f4 head f7 mainIn #connect
1b1 f42 out f10 tail #connect
1b1 f10 head f5 mainIn #connect
1b1 f5 mainOut f12 tail #connect
1b1 f12 head f7 mainIn #connect
1b1 0 0 1052 591 0 #ivRect
1b2 f42 out f45 tail #connect
1b2 f45 head f41 mainIn #connect
1b2 f42 out f11 tail #connect
1b2 f11 head f6 mainIn #connect
1b2 f42 out f47 tail #connect
1b2 f47 head f46 mainIn #connect
1b2 f42 out f50 tail #connect
1b2 f50 head f49 mainIn #connect
1b2 f42 out f53 tail #connect
1b2 f53 head f52 mainIn #connect
1b2 g0 m f0 tail #connect
1b2 f0 head f42 in #connect
1b2 f6 mainOut f8 tail #connect
1b2 f8 head f7 mainIn #connect
1b2 f7 mainOut f1 tail #connect
1b2 f1 head g1 m #connect
1b2 f41 mainOut f9 tail #connect
1b2 f9 head f7 mainIn #connect
1b2 f46 mainOut f2 tail #connect
1b2 f2 head f7 mainIn #connect
1b2 f49 mainOut f3 tail #connect
1b2 f3 head f7 mainIn #connect
1b2 f52 mainOut f4 tail #connect
1b2 f4 head f7 mainIn #connect
1b2 f42 out f10 tail #connect
1b2 f10 head f5 mainIn #connect
1b2 f5 mainOut f12 tail #connect
1b2 f12 head f7 mainIn #connect
1b2 0 0 918 490 0 #ivRect
