[Ivy]
[>Created: Tue Dec 16 09:35:47 CET 2014]
12B613C2E9AC9764 3.17 #module
>Proto >Proto Collection #zClass
Et0 Edit Big #zClass
Et0 B #cInfo
Et0 #process
1b0 '1 Sub' Big #zClass
1b0 B #cInfo
Et0 1b0 1b0 '1 Sub' #zField
Et0 @TextInP .resExport .resExport #zField
Et0 @TextInP .type .type #zField
Et0 @TextInP .processKind .processKind #zField
Et0 @AnnotationInP-0n ai ai #zField
Et0 @TextInP .xml .xml #zField
Et0 @TextInP .responsibility .responsibility #zField
Et0 @StartSub f0 '' #zField
Et0 @EndSub f1 '' #zField
Et0 @Page f2 '' #zField
Et0 @PushWFArc f3 '' #zField
Et0 @GridStep f6 '' #zField
Et0 @GridStep f8 '' #zField
Et0 @PushWFArc f11 '' #zField
Et0 @CallSub f27 '' #zField
Et0 @GridStep f5 '' #zField
Et0 @CallSub f31 '' #zField
Et0 @PushWFArc f32 '' #zField
Et0 @PushWFArc f13 '' #zField
Et0 @GridStep f4 '' #zField
Et0 @PushWFArc f18 '' #zField
Et0 @PushWFArc f19 '' #zField
Et0 @CallSub f33 '' #zField
Et0 @Alternative f21 '' #zField
Et0 @CallSub f55 '' #zField
Et0 @PushWFArc f56 '' #zField
Et0 @PushWFArc f44 '' #zField
Et0 @GridStep f26 '' #zField
Et0 @GridStep f35 '' #zField
Et0 @CallSub f36 '' #zField
Et0 @PushWFArc f38 '' #zField
Et0 @PushWFArc f43 '' #zField
Et0 @GridStep f47 '' #zField
Et0 @PushWFArc f50 '' #zField
Et0 @PushWFArc f52 '' #zField
Et0 @Page f7 '' #zField
Et0 @GridStep f46 '' #zField
Et0 @PushWFArc f48 '' #zField
Et0 @PushWFArc f49 '' #zField
Et0 @CallSub f10 '' #zField
Et0 @CallSub f12 '' #zField
Et0 @PushWFArc f16 '' #zField
Et0 @PushWFArc f20 '' #zField
Et0 @Page f40 '' #zField
Et0 @GridStep f41 '' #zField
Et0 @PushWFArc f53 '' #zField
Et0 @GridStep f61 '' #zField
Et0 @PushWFArc f62 '' #zField
Et0 @CallSub f63 '' #zField
Et0 @PushWFArc f64 '' #zField
Et0 @PushWFArc f65 '' #zField
Et0 @GridStep f66 '' #zField
Et0 @PushWFArc f67 '' #zField
Et0 @CallSub f71 '' #zField
Et0 @Page f73 '' #zField
Et0 @Alternative f70 '' #zField
Et0 @PushWFArc f74 '' #zField
Et0 @PushWFArc f72 '' #zField
Et0 @CallSub f75 '' #zField
Et0 @PushWFArc f76 '' #zField
Et0 @PushWFArc f77 '' #zField
Et0 @CallSub f78 '' #zField
Et0 @PushWFArc f79 '' #zField
Et0 @PushWFArc f68 '' #zField
Et0 @CallSub f80 '' #zField
Et0 @PushWFArc f81 '' #zField
Et0 @CallSub f82 '' #zField
Et0 @PushWFArc f83 '' #zField
Et0 @PushWFArc f54 '' #zField
Et0 @GridStep f86 '' #zField
Et0 @PushWFArc f34 '' #zField
Et0 @PushWFArc f88 '' #zField
Et0 @PushWFArc f51 '' #zField
Et0 @GridStep f42 '' #zField
Et0 @PushWFArc f37 '' #zField
Et0 @CallSub f84 '' #zField
Et0 @Alternative f91 '' #zField
Et0 @Alternative f92 '' #zField
Et0 @PushWFArc f94 '' #zField
Et0 @PushWFArc f96 '' #zField
Et0 @GridStep f97 '' #zField
Et0 @CallSub f99 '' #zField
Et0 @PushWFArc f100 '' #zField
Et0 @PushWFArc f104 '' #zField
Et0 @CallSub f87 '' #zField
Et0 @PushWFArc f106 '' #zField
Et0 @PushWFArc f107 '' #zField
Et0 @GridStep f108 '' #zField
Et0 @PushWFArc f111 '' #zField
Et0 @PushWFArc f113 '' #zField
Et0 @PushWFArc f120 '' #zField
Et0 @PushWFArc f112 '' #zField
Et0 @PushWFArc f17 '' #zField
Et0 @PushWFArc f102 '' #zField
Et0 @PushWFArc f98 '' #zField
Et0 @CallSub f105 '' #zField
Et0 @PushWFArc f110 '' #zField
Et0 @PushWFArc f28 '' #zField
Et0 @GridStep f116 '' #zField
Et0 @PushWFArc f117 '' #zField
Et0 @GridStep f118 '' #zField
Et0 @PushWFArc f119 '' #zField
Et0 @PushWFArc f57 '' #zField
Et0 @PushWFArc f114 '' #zField
Et0 @Alternative f24 '' #zField
Et0 @PushWFArc f25 '' #zField
Et0 @PushWFArc f103 '' #zField
Et0 @Alternative f23 '' #zField
Et0 @PushWFArc f93 '' #zField
Et0 @PushWFArc f95 '' #zField
Et0 @Alternative f101 '' #zField
Et0 @PushWFArc f60 '' #zField
Et0 @PushWFArc f69 '' #zField
Et0 @Alternative f58 '' #zField
Et0 @PushWFArc f59 '' #zField
Et0 @PushWFArc f109 '' #zField
Et0 @PushWFArc f115 '' #zField
Et0 @PushWFArc f85 '' #zField
Et0 @Alternative f15 '' #zField
Et0 @PushWFArc f89 '' #zField
Et0 @PushWFArc f22 '' #zField
Et0 @PushWFArc f90 '' #zField
Et0 @Alternative f14 '' #zField
Et0 @PushWFArc f29 '' #zField
Et0 @PushWFArc f9 '' #zField
Et0 @PushWFArc f30 '' #zField
>Proto Et0 Et0 Edit #zField
1b0 @TextInP .resExport .resExport #zField
1b0 @TextInP .type .type #zField
1b0 @TextInP .processKind .processKind #zField
1b0 @AnnotationInP-0n ai ai #zField
1b0 @TextInP .xml .xml #zField
1b0 @TextInP .responsibility .responsibility #zField
1b0 @DBStep f109 '' #zField
1b0 @DBStep f123 '' #zField
1b0 @PushWFArc f124 '' #zField
1b0 @PushWFArc f112 '' #zField
1b0 @Alternative f114 '' #zField
1b0 @PushWFArc f126 '' #zField
1b0 @PushWFArc f110 '' #zField
1b0 @PushWFArc f118 '' #zField
1b0 @GridStep f125 '' #zField
1b0 @PushWFArc f119 '' #zField
1b0 @CallSub f116 '' #zField
1b0 @CallSub f117 '' #zField
1b0 @PushTrueWFInG-01 g0 '' #zField
1b0 @PushTrueWFOutG-01 g1 '' #zField
1b0 @Alternative f2 '' #zField
1b0 @PushWFArc f3 '' #zField
1b0 @PushWFArc f0 '' #zField
1b0 @PushWFArc f4 '' #zField
1b0 @Alternative f5 '' #zField
1b0 @PushWFArc f6 '' #zField
1b0 @GridStep f7 '' #zField
1b0 @PushWFArc f8 '' #zField
1b0 @GridStep f9 '' #zField
1b0 @PushWFArc f1 '' #zField
1b0 @PushWFArc f11 '' #zField
1b0 @PushWFArc f10 '' #zField
>Proto 1b0 1b0 '1 Sub' #zField
Et0 1b0 .resExport export #txt
Et0 1b0 .xml '<?xml version="1.0" encoding="UTF-8" standalone="yes"?>
<elementInfo>
    <language lang="en">
        <name>ReDispatch</name>
        <nameStyle>10,5,7
</nameStyle>
    </language>
</elementInfo>
' #txt
Et0 1b0 1600 764 32 24 18 0 #rect
Et0 1b0 @|BIcon #fIcon
Et0 f0 inParamDecl '<ch.soreco.orderbook.bo.Order order,ch.soreco.orderbook.ui.enums.ViewType viewType> param;' #txt
Et0 f0 inParamTable 'out.eViewType=param.viewType;
out.order=param.order;
' #txt
Et0 f0 outParamDecl '<ch.soreco.orderbook.bo.Order order,java.lang.Boolean success,java.lang.String error> result;
' #txt
Et0 f0 outParamTable 'result.order=in.order;
result.success=in.success;
result.error=in.error;
' #txt
Et0 f0 actionDecl 'ch.soreco.orderbook.ui.Order out;
' #txt
Et0 f0 callSignature call(ch.soreco.orderbook.bo.Order,ch.soreco.orderbook.ui.enums.ViewType) #txt
Et0 f0 type ch.soreco.orderbook.ui.Order #txt
Et0 f0 @C|.xml '<?xml version="1.0" encoding="UTF-8" standalone="yes"?>
<elementInfo>
    <language>
        <name>call(Order,Boolean)</name>
        <nameStyle>19,5,7
</nameStyle>
    </language>
</elementInfo>
' #txt
Et0 f0 667 43 26 26 14 0 #rect
Et0 f0 @|StartSubIcon #fIcon
Et0 f1 type ch.soreco.orderbook.ui.Order #txt
Et0 f1 667 1411 26 26 14 0 #rect
Et0 f1 @|EndSubIcon #fIcon
Et0 f2 outTypes "ch.soreco.orderbook.ui.Order","ch.soreco.orderbook.ui.Order","ch.soreco.orderbook.ui.Order","ch.soreco.orderbook.ui.Order","ch.soreco.orderbook.ui.Order","ch.soreco.orderbook.ui.Order","ch.soreco.orderbook.ui.Order","ch.soreco.orderbook.ui.Order","ch.soreco.orderbook.ui.Order","ch.soreco.orderbook.ui.Order","ch.soreco.orderbook.ui.Order","ch.soreco.orderbook.ui.Order","ch.soreco.orderbook.ui.Order","ch.soreco.orderbook.ui.Order","ch.soreco.orderbook.ui.Order","ch.soreco.orderbook.ui.Order","ch.soreco.orderbook.ui.Order","ch.soreco.orderbook.ui.Order","ch.soreco.orderbook.ui.Order","ch.soreco.orderbook.ui.Order" #txt
Et0 f2 outLinks "exit.ivp","edited.ivp","partedited.ivp","match.ivp","showScanFile.ivp","showContactFile.ivp","addNew.ivp","partly.ivp","save.ivp","saveAndClose.ivp","close.ivp","pendencyCheck.ivp","addOrEditObjectDialog.ivp","documents.ivp","submitObjectDialog.ivp","newOrder.ivp","showRelatedOrder.ivp","redispatch.ivp","discard.ivp","showHistory.ivp" #txt
Et0 f2 template "/ProcessPages/Edit/Adressmutation.ivc" #txt
Et0 f2 type ch.soreco.orderbook.ui.Order #txt
Et0 f2 skipLink skip.ivp #txt
Et0 f2 sortLink sort.ivp #txt
Et0 f2 templateWizard '#
#Mon Oct 21 11:17:41 CEST 2013
' #txt
Et0 f2 pageArchivingActivated false #txt
Et0 f2 @C|.xml '<?xml version="1.0" encoding="UTF-8" standalone="yes"?>
<elementInfo>
    <language>
        <name>Adressmutation Edit</name>
        <nameStyle>19,7
</nameStyle>
    </language>
</elementInfo>
' #txt
Et0 f2 @C|.responsibility Everybody #txt
Et0 f2 662 692 36 24 25 2 #rect
Et0 f2 @|PageIcon #fIcon
Et0 f3 expr data #txt
Et0 f3 outCond ivp=="exit.ivp" #txt
Et0 f3 680 716 680 1411 #arcP
Et0 f6 actionDecl 'ch.soreco.orderbook.ui.Order out;
' #txt
Et0 f6 actionTable 'out=in;
out.order.orderState=in.order.orderState.equalsIgnoreCase(ch.soreco.orderbook.enums.OrderState.Recording.toString()) || in.order.orderState.equalsIgnoreCase(ch.soreco.orderbook.enums.OrderState.Dispatched.toString()) ? ch.soreco.orderbook.enums.OrderState.In4eCheck.toString() : ch.soreco.orderbook.enums.OrderState.Recording.toString();
' #txt
Et0 f6 type ch.soreco.orderbook.ui.Order #txt
Et0 f6 @C|.xml '<?xml version="1.0" encoding="UTF-8" standalone="yes"?>
<elementInfo>
    <language>
        <name>recording
to In4eCheck
OR
archived
to recording</name>
        <nameStyle>47,7
</nameStyle>
        <desc>17.11.2011 / PB / ITS-989
archived
to recording</desc>
    </language>
</elementInfo>
' #txt
Et0 f6 806 764 36 24 23 -31 #rect
Et0 f6 @|StepIcon #fIcon
Et0 f8 actionDecl 'ch.soreco.orderbook.ui.Order out;
' #txt
Et0 f8 actionTable 'out=in;
out.order.orderState=ch.soreco.orderbook.enums.OrderState.InCheck.toString();
' #txt
Et0 f8 type ch.soreco.orderbook.ui.Order #txt
Et0 f8 @C|.xml '<?xml version="1.0" encoding="UTF-8" standalone="yes"?>
<elementInfo>
    <language>
        <name>recording
to InCheck</name>
        <nameStyle>20
</nameStyle>
    </language>
</elementInfo>
' #txt
Et0 f8 950 764 36 24 20 -2 #rect
Et0 f8 @|StepIcon #fIcon
Et0 f11 expr data #txt
Et0 f11 outCond ivp=="partedited.ivp" #txt
Et0 f11 698 704 968 764 #arcP
Et0 f11 1 968 704 #addKink
Et0 f11 0 0.598501787955769 0 0 #arcLabel
Et0 f27 type ch.soreco.orderbook.ui.Order #txt
Et0 f27 processCall 'Functional Processes/HTMLGet:call(Integer,ch.soreco.orderbook.bo.Order,ch.soreco.orderbook.ui.enums.ViewType)' #txt
Et0 f27 doCall true #txt
Et0 f27 requestActionDecl '<java.lang.Integer currentChild,ch.soreco.orderbook.bo.Order order,ch.soreco.orderbook.ui.enums.ViewType viewType> param;
' #txt
Et0 f27 requestMappingAction 'param.currentChild=in.currentChild;
param.order=in.order;
param.viewType=in.eViewType;
' #txt
Et0 f27 responseActionDecl 'ch.soreco.orderbook.ui.Order out;
' #txt
Et0 f27 responseMappingAction 'out=result.orderUI;
out.orderTypeList=in.orderTypeList;
' #txt
Et0 f27 @C|.xml '<?xml version="1.0" encoding="UTF-8" standalone="yes"?>
<elementInfo>
    <language>
        <name>get HTML</name>
        <nameStyle>8
</nameStyle>
    </language>
</elementInfo>
' #txt
Et0 f27 662 420 36 24 20 -2 #rect
Et0 f27 @|CallSubIcon #fIcon
Et0 f5 actionDecl 'ch.soreco.orderbook.ui.Order out;
' #txt
Et0 f5 actionTable 'out=in;
out.order.editorUserId=ivy.session.getSessionUserName();
out.order.orderState=IF(in.order.orderState<>ch.soreco.orderbook.enums.OrderState.InPendencyRecording.toString()
, ch.soreco.orderbook.enums.OrderState.Recording.toString()
,in.order.orderState);
' #txt
Et0 f5 type ch.soreco.orderbook.ui.Order #txt
Et0 f5 @C|.xml '<?xml version="1.0" encoding="UTF-8" standalone="yes"?>
<elementInfo>
    <language>
        <name>set Editor</name>
        <nameStyle>10
</nameStyle>
    </language>
</elementInfo>
' #txt
Et0 f5 662 108 36 24 20 -2 #rect
Et0 f5 @|StepIcon #fIcon
Et0 f31 type ch.soreco.orderbook.ui.Order #txt
Et0 f31 processCall 'Business Processes/Adressmutation/Match:call(ch.soreco.orderbook.bo.Order,ch.soreco.orderbook.bo.Order)' #txt
Et0 f31 doCall true #txt
Et0 f31 requestActionDecl '<ch.soreco.orderbook.bo.Order order,ch.soreco.orderbook.bo.Order filter> param;
' #txt
Et0 f31 requestMappingAction 'param.order=in.order;
param.filter.BPId=in.order.BPId;
' #txt
Et0 f31 responseActionDecl 'ch.soreco.orderbook.ui.Order out;
' #txt
Et0 f31 responseMappingAction 'out=in;
out.order=result.order;
' #txt
Et0 f31 @C|.xml '<?xml version="1.0" encoding="UTF-8" standalone="yes"?>
<elementInfo>
    <language>
        <name>Match</name>
        <nameStyle>5
</nameStyle>
    </language>
</elementInfo>
' #txt
Et0 f31 406 564 36 24 20 -2 #rect
Et0 f31 @|CallSubIcon #fIcon
Et0 f32 expr data #txt
Et0 f32 outCond ivp=="match.ivp" #txt
Et0 f32 662 704 424 588 #arcP
Et0 f32 1 424 632 #addKink
Et0 f32 0 0.6259232692724543 0 0 #arcLabel
Et0 f13 expr out #txt
Et0 f13 424 564 662 432 #arcP
Et0 f13 1 424 520 #addKink
Et0 f13 1 0.22230685896330257 0 0 #arcLabel
Et0 f4 actionDecl 'ch.soreco.orderbook.ui.Order out;
' #txt
Et0 f4 actionTable 'out=in;
' #txt
Et0 f4 type ch.soreco.orderbook.ui.Order #txt
Et0 f4 1062 764 36 24 20 -2 #rect
Et0 f4 @|StepIcon #fIcon
Et0 f18 expr data #txt
Et0 f18 outCond ivp=="partly.ivp" #txt
Et0 f18 698 704 1080 764 #arcP
Et0 f18 1 1080 704 #addKink
Et0 f18 0 0.6095029952995027 0 0 #arcLabel
Et0 f19 expr out #txt
Et0 f19 1062 776 986 776 #arcP
Et0 f33 type ch.soreco.orderbook.ui.Order #txt
Et0 f33 processCall 'Functional Processes/orderUISave:call(ch.soreco.orderbook.ui.Order)' #txt
Et0 f33 doCall true #txt
Et0 f33 requestActionDecl '<ch.soreco.orderbook.ui.Order orderUI> param;
' #txt
Et0 f33 requestMappingAction 'param.orderUI=in;
' #txt
Et0 f33 responseActionDecl 'ch.soreco.orderbook.ui.Order out;
' #txt
Et0 f33 responseMappingAction 'out=result.orderUI;
' #txt
Et0 f33 @C|.xml '<?xml version="1.0" encoding="UTF-8" standalone="yes"?>
<elementInfo>
    <language>
        <name>Save orderUI</name>
        <nameStyle>12
</nameStyle>
    </language>
</elementInfo>
' #txt
Et0 f33 1054 948 36 24 20 -2 #rect
Et0 f33 @|CallSubIcon #fIcon
Et0 f21 type ch.soreco.orderbook.ui.Order #txt
Et0 f21 @C|.xml '<?xml version="1.0" encoding="UTF-8" standalone="yes"?>
<elementInfo>
    <language>
        <name>matched to Order?</name>
        <nameStyle>17
</nameStyle>
    </language>
</elementInfo>
' #txt
Et0 f21 666 170 28 28 14 -20 #rect
Et0 f21 @|AlternativeIcon #fIcon
Et0 f55 type ch.soreco.orderbook.ui.Order #txt
Et0 f55 processCall 'Business Processes/Adressmutation/BPMatch:call(ch.soreco.orderbook.ui.Order)' #txt
Et0 f55 doCall true #txt
Et0 f55 requestActionDecl '<ch.soreco.orderbook.ui.Order orderUI> param;
' #txt
Et0 f55 requestMappingAction 'param.orderUI=in;
' #txt
Et0 f55 responseActionDecl 'ch.soreco.orderbook.ui.Order out;
' #txt
Et0 f55 responseMappingAction 'out=result.orderUI;
' #txt
Et0 f55 @C|.xml '<?xml version="1.0" encoding="UTF-8" standalone="yes"?>
<elementInfo>
    <language>
        <name>BP Match</name>
        <nameStyle>8
</nameStyle>
    </language>
</elementInfo>
' #txt
Et0 f55 118 324 36 24 20 -2 #rect
Et0 f55 @|CallSubIcon #fIcon
Et0 f56 expr in #txt
Et0 f56 .xml '<?xml version="1.0" encoding="UTF-8" standalone="yes"?>
<elementInfo>
    <language>
        <name>no</name>
        <nameStyle>2,7
</nameStyle>
    </language>
</elementInfo>
' #txt
Et0 f56 3 #arcStyle
Et0 f56 666 184 136 324 #arcP
Et0 f56 1 136 184 #addKink
Et0 f56 0 0.05660377358490566 0 -9 #arcLabel
Et0 f44 expr out #txt
Et0 f44 136 348 667 1424 #arcP
Et0 f44 1 136 1424 #addKink
Et0 f44 1 0.08792943138513185 0 0 #arcLabel
Et0 f26 actionDecl 'ch.soreco.orderbook.ui.Order out;
' #txt
Et0 f26 actionTable 'out=in;
' #txt
Et0 f26 type ch.soreco.orderbook.ui.Order #txt
Et0 f26 @C|.xml '<?xml version="1.0" encoding="UTF-8" standalone="yes"?>
<elementInfo>
    <language>
        <name>close</name>
        <nameStyle>5
</nameStyle>
    </language>
</elementInfo>
' #txt
Et0 f26 1758 772 36 24 20 -2 #rect
Et0 f26 @|StepIcon #fIcon
Et0 f35 actionDecl 'ch.soreco.orderbook.ui.Order out;
' #txt
Et0 f35 actionTable 'out=in;
' #txt
Et0 f35 type ch.soreco.orderbook.ui.Order #txt
Et0 f35 @C|.xml '<?xml version="1.0" encoding="UTF-8" standalone="yes"?>
<elementInfo>
    <language>
        <name>save and close</name>
        <nameStyle>14
</nameStyle>
    </language>
</elementInfo>
' #txt
Et0 f35 1310 764 36 24 20 -2 #rect
Et0 f35 @|StepIcon #fIcon
Et0 f36 type ch.soreco.orderbook.ui.Order #txt
Et0 f36 processCall 'Functional Processes/orderUISave:call(ch.soreco.orderbook.ui.Order)' #txt
Et0 f36 doCall true #txt
Et0 f36 requestActionDecl '<ch.soreco.orderbook.ui.Order orderUI> param;
' #txt
Et0 f36 requestMappingAction 'param.orderUI=in;
' #txt
Et0 f36 responseActionDecl 'ch.soreco.orderbook.ui.Order out;
' #txt
Et0 f36 responseMappingAction 'out=result.orderUI;
' #txt
Et0 f36 @C|.xml '<?xml version="1.0" encoding="UTF-8" standalone="yes"?>
<elementInfo>
    <language>
        <name>Save orderUI</name>
        <nameStyle>12
</nameStyle>
    </language>
</elementInfo>
' #txt
Et0 f36 1270 564 36 24 20 -2 #rect
Et0 f36 @|CallSubIcon #fIcon
Et0 f38 expr data #txt
Et0 f38 outCond ivp=="saveAndClose.ivp" #txt
Et0 f38 698 704 1328 764 #arcP
Et0 f38 1 1328 704 #addKink
Et0 f38 0 0.7520724311459707 0 0 #arcLabel
Et0 f43 expr data #txt
Et0 f43 outCond ivp=="close.ivp" #txt
Et0 f43 698 704 1776 772 #arcP
Et0 f43 1 1776 704 #addKink
Et0 f43 0 0.6618086231951036 0 0 #arcLabel
Et0 f47 actionDecl 'ch.soreco.orderbook.ui.Order out;
' #txt
Et0 f47 actionTable 'out=in;
out.order.orderState=ch.soreco.orderbook.enums.OrderState.InPendencyCheck.toString();
' #txt
Et0 f47 type ch.soreco.orderbook.ui.Order #txt
Et0 f47 @C|.xml '<?xml version="1.0" encoding="UTF-8" standalone="yes"?>
<elementInfo>
    <language>
        <name>recording
to InPendencyCheck</name>
        <nameStyle>28
</nameStyle>
    </language>
</elementInfo>
' #txt
Et0 f47 1134 764 36 24 20 -2 #rect
Et0 f47 @|StepIcon #fIcon
Et0 f50 expr data #txt
Et0 f50 outCond ivp=="pendencyCheck.ivp" #txt
Et0 f50 698 704 1152 764 #arcP
Et0 f50 1 1152 704 #addKink
Et0 f50 0 0.5952062111969214 0 0 #arcLabel
Et0 f52 expr out #txt
Et0 f52 680 69 680 108 #arcP
Et0 f7 template "/ProcessPages/Edit/AjaxLoadedEntry.ivc" #txt
Et0 f7 type ch.soreco.orderbook.ui.Order #txt
Et0 f7 skipLink skip.ivp #txt
Et0 f7 sortLink sort.ivp #txt
Et0 f7 templateWizard '#
#Tue Jun 21 10:29:40 CEST 2011
' #txt
Et0 f7 pageArchivingActivated false #txt
Et0 f7 @C|.xml '<?xml version="1.0" encoding="UTF-8" standalone="yes"?>
<elementInfo>
    <language>
        <name>get new Entry by Ajax Load</name>
        <nameStyle>26
</nameStyle>
    </language>
</elementInfo>
' #txt
Et0 f7 @C|.responsibility Everybody #txt
Et0 f7 1062 564 36 24 20 -2 #rect
Et0 f7 @|PageIcon #fIcon
Et0 f46 actionDecl 'ch.soreco.orderbook.ui.Order out;
' #txt
Et0 f46 actionTable 'out=in;
' #txt
Et0 f46 actionCode 'import ch.soreco.orderbook.bo.Letter;
import ch.soreco.webbies.common.html.generics.AttributeClassHtml;
import ch.soreco.orderbook.bo.RecordingMeta;
import ch.soreco.webbies.common.html.form.ClassConverter;

import ch.soreco.orderbook.bo.CorrespondenceContainer;
import ch.soreco.orderbook.bo.RecordingLSV;
import ch.soreco.orderbook.bo.DomicileOrOwner;
import ch.soreco.orderbook.bo.SignatureRequest;
import ch.soreco.orderbook.bo.Paper;
out.html = "new Object "+in.newObject+" at index "+in.i;
if(in.newObject.equals("")){
	// do nothing
	}
if(in.newObject.equals("Paper")) {
	Paper paper = new Paper();
	paper.contactId = in.currentContact.contactId;
	paper.paperRequestDate = new DateTime();
	paper.isPaper = true;
	
	out.html = ClassConverter.getClassHTML(paper,"orderContactPapers$$"+in.i,in.modify,false);
	}
	
if(in.newObject.equals("SignatureRequest")) {
	SignatureRequest sign = new SignatureRequest();
	sign.contactId = in.currentContact.contactId;
	sign.signatureRequestDate = new DateTime();
	sign.isRequested = true;
	sign.signatureNeedsOrderNo = true;
	out.html = ClassConverter.getClassHTML(sign,"orderContactsSignatureRequests$$"+in.i,in.modify,true);
	}

if(in.newObject.equals("DomicileOrOwner")) {
	DomicileOrOwner doo = new DomicileOrOwner();
	doo.recording = in.order.recording;
	out.html = ClassConverter.getClassHTML(doo,"recordingDomicileOrOwners$$"+in.i,in.modify,true);
	}	

if(in.newObject.equals("RecordingLSV")) {
	RecordingLSV lsv = new RecordingLSV();
	lsv.recording = in.order.recording;
	out.html = ClassConverter.getClassHTML(lsv,"recordingLSV$$"+in.i,in.modify,true);
	}
if(in.newObject.equals("CorrespondenceContainer")) {
	CorrespondenceContainer correspondenceContainer = new CorrespondenceContainer();
	correspondenceContainer.correspondence = in.order.recording.correspondence;
	out.html = ClassConverter.getClassHTML(correspondenceContainer,"recordingCorrespondenceContainers$$"+in.i,in.modify,true);
	}

if(in.newObject.equals("RecordingMeta")) {
	RecordingMeta meta = new RecordingMeta();
	meta.recording = in.order.recording;
	AttributeClassHtml ach = new AttributeClassHtml(in.genericView, meta, "recordingMetas",in.i);
	out.html = ach.toHtml();
	}
	
if(in.newObject.equals("Letter")) {
	Letter letter = new Letter();
	letter.contactId = in.currentContact.contactId;
	AttributeClassHtml ach = new AttributeClassHtml(in.genericView, letter, "orderContactsLetters",in.i);
	out.html = ach.toHtml();
	}' #txt
Et0 f46 type ch.soreco.orderbook.ui.Order #txt
Et0 f46 @C|.xml '<?xml version="1.0" encoding="UTF-8" standalone="yes"?>
<elementInfo>
    <language>
        <name>get Html of new Entry</name>
        <nameStyle>21
</nameStyle>
    </language>
</elementInfo>
' #txt
Et0 f46 894 564 36 24 20 -2 #rect
Et0 f46 @|StepIcon #fIcon
Et0 f48 expr out #txt
Et0 f48 930 576 1062 576 #arcP
Et0 f49 expr data #txt
Et0 f49 outCond ivp=="addNew.ivp" #txt
Et0 f49 .xml '<?xml version="1.0" encoding="UTF-8" standalone="yes"?>
<elementInfo>
    <language>
        <name>addNew</name>
        <nameStyle>6,7
</nameStyle>
    </language>
</elementInfo>
' #txt
Et0 f49 694 692 894 576 #arcP
Et0 f49 1 832 576 #addKink
Et0 f49 0 1.0 22 -8 #arcLabel
Et0 f10 type ch.soreco.orderbook.ui.Order #txt
Et0 f10 processCall 'Start Processes/Archive/CheckDocuments:call(ch.soreco.orderbook.ui.enums.ViewType,Integer,String)' #txt
Et0 f10 doCall true #txt
Et0 f10 requestActionDecl '<ch.soreco.orderbook.ui.enums.ViewType viewType,java.lang.Integer orderId,java.lang.String uiType> param;
' #txt
Et0 f10 requestMappingAction 'param.viewType=ch.soreco.orderbook.ui.enums.ViewType.READ;
param.orderId=in.orderContacts.get(in.i).contactMergedFromOrderId.intValue() > 0 ? in.orderContacts.get(in.i).contactMergedFromOrderId : in.orderContacts.get(in.i).contactOrderId;
param.uiType="SCANPLAIN";
' #txt
Et0 f10 responseActionDecl 'ch.soreco.orderbook.ui.Order out;
' #txt
Et0 f10 responseMappingAction 'out=in;
' #txt
Et0 f10 @C|.xml '<?xml version="1.0" encoding="UTF-8" standalone="yes"?>
<elementInfo>
    <language>
        <name>show files of contact</name>
        <nameStyle>21,5,7
</nameStyle>
    </language>
</elementInfo>
' #txt
Et0 f10 350 900 36 24 20 -2 #rect
Et0 f10 @|CallSubIcon #fIcon
Et0 f12 type ch.soreco.orderbook.ui.Order #txt
Et0 f12 processCall 'Start Processes/Archive/CheckDocuments:call(ch.soreco.orderbook.ui.enums.ViewType,Integer,String)' #txt
Et0 f12 doCall true #txt
Et0 f12 requestActionDecl '<ch.soreco.orderbook.ui.enums.ViewType viewType,java.lang.Integer orderId,java.lang.String uiType> param;
' #txt
Et0 f12 requestMappingAction 'param.viewType=in.eViewType;
param.orderId=in.orderContacts.size()> 0 ? in.orderContacts.get(0).contactMergedFromOrderId :in.order.orderId;
param.uiType="SCANPLAIN";
' #txt
Et0 f12 responseActionDecl 'ch.soreco.orderbook.ui.Order out;
' #txt
Et0 f12 responseMappingAction 'out=in;
' #txt
Et0 f12 @C|.xml '<?xml version="1.0" encoding="UTF-8" standalone="yes"?>
<elementInfo>
    <language>
        <name>show files of order</name>
        <nameStyle>19,5,7
</nameStyle>
    </language>
</elementInfo>
' #txt
Et0 f12 350 964 36 24 20 -2 #rect
Et0 f12 @|CallSubIcon #fIcon
Et0 f16 expr data #txt
Et0 f16 outCond ivp=="showContactFile.ivp" #txt
Et0 f16 680 716 386 912 #arcP
Et0 f16 1 576 912 #addKink
Et0 f16 1 0.24950761800787508 0 0 #arcLabel
Et0 f20 expr data #txt
Et0 f20 outCond ivp=="showScanFile.ivp" #txt
Et0 f20 680 716 386 976 #arcP
Et0 f20 1 576 976 #addKink
Et0 f20 1 0.05548114819283364 0 0 #arcLabel
Et0 f40 outTypes "ch.soreco.orderbook.ui.Order","ch.soreco.orderbook.ui.Order","ch.soreco.orderbook.ui.Order" #txt
Et0 f40 outLinks "submit.ivp","cancel.ivp","delete.ivp" #txt
Et0 f40 template "/ProcessPages/Edit/AjaxLoadedDialog.ivc" #txt
Et0 f40 type ch.soreco.orderbook.ui.Order #txt
Et0 f40 skipLink skip.ivp #txt
Et0 f40 sortLink sort.ivp #txt
Et0 f40 templateWizard '#
#Fri Dec 16 16:00:31 CET 2011
' #txt
Et0 f40 pageArchivingActivated false #txt
Et0 f40 @C|.xml '<?xml version="1.0" encoding="UTF-8" standalone="yes"?>
<elementInfo>
    <language>
        <name>get new Entry by Ajax Load</name>
        <nameStyle>26
</nameStyle>
    </language>
</elementInfo>
' #txt
Et0 f40 @C|.responsibility Everybody #txt
Et0 f40 1422 404 36 24 20 -18 #rect
Et0 f40 @|PageIcon #fIcon
Et0 f41 actionDecl 'ch.soreco.orderbook.ui.Order out;
' #txt
Et0 f41 actionTable 'out=in;
' #txt
Et0 f41 actionCode 'import ch.soreco.webbies.common.html.generics.AttributeConstants;
import ch.soreco.orderbook.enums.PendencyTicketType;
import ch.soreco.orderbook.bo.PendencyTicket;
import ch.soreco.webbies.common.html.generics.AttributeClassHtml;
import ch.soreco.webbies.common.html.form.ClassConverter;

out.html = "new Object "+in.newObject+" at index "+in.i;
if(in.newObject.equals("")){
	// do nothing
	}
else if(in.newObject.trim().equals("PendencyTicket")){
	if(in.i>-1&&in.orderPendencyTickets.size()>0){
		in.currentPendencyTicket = in.orderPendencyTickets.get(in.i);
			if(in.currentPendencyTicket.dueDate.toString().length() == 0) {
				in.currentPendencyTicket.dueDate = null;
			}
			if(in.currentPendencyTicket.remindAt.toString().length() == 0) {
				in.currentPendencyTicket.remindAt = null;
			}			
		}
	else {
		in.currentPendencyTicket.order = in.order;
		in.currentPendencyTicket.pendencyTicketType = PendencyTicketType.UNDEFINED.toString();
		in.orderPendencyTickets.add(in.currentPendencyTicket);
		in.i = 0;
		}
	in.currentPendencyTicket.order = in.order;
	String view = AttributeConstants.CONTENTPREFIX;
	AttributeClassHtml ach = new AttributeClassHtml(view, in.currentPendencyTicket, "currentPendencyTicket");
	out.html = ach.toHtml();
	}' #txt
Et0 f41 type ch.soreco.orderbook.ui.Order #txt
Et0 f41 @C|.xml '<?xml version="1.0" encoding="UTF-8" standalone="yes"?>
<elementInfo>
    <language>
        <name>get Html of new Entry</name>
        <nameStyle>21
</nameStyle>
    </language>
</elementInfo>
' #txt
Et0 f41 1422 364 36 24 24 -8 #rect
Et0 f41 @|StepIcon #fIcon
Et0 f53 expr out #txt
Et0 f53 1440 388 1440 404 #arcP
Et0 f61 actionDecl 'ch.soreco.orderbook.ui.Order out;
' #txt
Et0 f61 actionTable 'out=in;
' #txt
Et0 f61 actionCode 'import ch.soreco.orderbook.bo.PendencyTicket;

if(in.newObject.trim().equals("PendencyTicket")){
	if(in.i > 0){
		in.orderPendencyTickets.set(in.i,in.currentPendencyTicket);
	}
}
' #txt
Et0 f61 type ch.soreco.orderbook.ui.Order #txt
Et0 f61 @C|.xml '<?xml version="1.0" encoding="UTF-8" standalone="yes"?>
<elementInfo>
    <language>
        <name>map current Ticket</name>
        <nameStyle>18,7
</nameStyle>
    </language>
</elementInfo>
' #txt
Et0 f61 1270 484 36 24 20 -2 #rect
Et0 f61 @|StepIcon #fIcon
Et0 f62 expr data #txt
Et0 f62 outCond ivp=="submit.ivp" #txt
Et0 f62 .xml '<?xml version="1.0" encoding="UTF-8" standalone="yes"?>
<elementInfo>
    <language>
        <name>submit</name>
        <nameStyle>6,7
</nameStyle>
    </language>
</elementInfo>
' #txt
Et0 f62 1422 416 1288 484 #arcP
Et0 f62 1 1288 440 #addKink
Et0 f62 0 0.8538743794517591 2 14 #arcLabel
Et0 f63 type ch.soreco.orderbook.ui.Order #txt
Et0 f63 processCall 'Start Processes/Archive/CheckDocuments:call(ch.soreco.orderbook.ui.enums.ViewType,Integer,String)' #txt
Et0 f63 doCall true #txt
Et0 f63 requestActionDecl '<ch.soreco.orderbook.ui.enums.ViewType viewType,java.lang.Integer orderId,java.lang.String uiType> param;
' #txt
Et0 f63 requestMappingAction 'param.viewType=in.eViewType;
param.orderId=in.order.orderId;
param.uiType="SCANPLAIN";
' #txt
Et0 f63 responseActionDecl 'ch.soreco.orderbook.ui.Order out;
' #txt
Et0 f63 responseMappingAction 'out=in;
' #txt
Et0 f63 @C|.xml '<?xml version="1.0" encoding="UTF-8" standalone="yes"?>
<elementInfo>
    <language>
        <name>Load Documents</name>
        <nameStyle>14
</nameStyle>
    </language>
</elementInfo>
' #txt
Et0 f63 350 1020 36 24 20 -2 #rect
Et0 f63 @|CallSubIcon #fIcon
Et0 f64 expr data #txt
Et0 f64 outCond ivp=="documents.ivp" #txt
Et0 f64 680 716 386 1032 #arcP
Et0 f64 1 576 1032 #addKink
Et0 f64 0 0.922530614499481 0 0 #arcLabel
Et0 f65 expr data #txt
Et0 f65 outCond ivp=="submitObjectDialog.ivp" #txt
Et0 f65 .xml '<?xml version="1.0" encoding="UTF-8" standalone="yes"?>
<elementInfo>
    <language>
        <name>submitObjectDialog</name>
        <nameStyle>18,7
</nameStyle>
    </language>
</elementInfo>
' #txt
Et0 f65 680 692 1270 496 #arcP
Et0 f65 1 832 496 #addKink
Et0 f65 1 0.12557077625570776 0 -10 #arcLabel
Et0 f66 actionDecl 'ch.soreco.orderbook.ui.Order out;
' #txt
Et0 f66 actionTable 'out=in;
' #txt
Et0 f66 actionCode 'if(in.newObject.trim().equals("PendencyTicket")){
		ivy.persistence.Adressmutation.remove(in.currentPendencyTicket);	
}' #txt
Et0 f66 type ch.soreco.orderbook.ui.Order #txt
Et0 f66 @C|.xml '<?xml version="1.0" encoding="UTF-8" standalone="yes"?>
<elementInfo>
    <language>
        <name>delete ticket</name>
        <nameStyle>13,7
</nameStyle>
    </language>
</elementInfo>
' #txt
Et0 f66 1422 484 36 24 20 -2 #rect
Et0 f66 @|StepIcon #fIcon
Et0 f67 expr data #txt
Et0 f67 outCond ivp=="delete.ivp" #txt
Et0 f67 .xml '<?xml version="1.0" encoding="UTF-8" standalone="yes"?>
<elementInfo>
    <language>
        <name>delete</name>
        <nameStyle>6,7
</nameStyle>
    </language>
</elementInfo>
' #txt
Et0 f67 1440 428 1440 484 #arcP
Et0 f67 0 0.42857142857142855 21 0 #arcLabel
Et0 f71 type ch.soreco.orderbook.ui.Order #txt
Et0 f71 processCall 'Functional Processes/orderbook/Order:set(ch.soreco.orderbook.bo.Order)' #txt
Et0 f71 doCall true #txt
Et0 f71 requestActionDecl '<ch.soreco.orderbook.bo.Order order> param;
' #txt
Et0 f71 requestMappingAction 'param.order=in.orderCopy;
param.order.dispatchingId=in.order.dispatchingId > 0 ? in.order.dispatchingId : in.orderCopy.dispatchingId;
param.order.orderStart=new DateTime();
param.order.scanFileId=in.order.scanFileId;
param.order.scanId=in.order.scanId;
param.order.scanMonoFileId=in.order.scanMonoFileId;
param.order.scanningId=in.order.scanningId;
param.order.scannings=in.order.scannings;
' #txt
Et0 f71 responseActionDecl 'ch.soreco.orderbook.ui.Order out;
' #txt
Et0 f71 responseMappingAction 'out=in;
out.html="{ \"orderId\" : \""+result.order.orderId+"\" }";
out.orderCopy=result.order;
' #txt
Et0 f71 @C|.xml '<?xml version="1.0" encoding="UTF-8" standalone="yes"?>
<elementInfo>
    <language>
        <name>set(OrderCopy)</name>
        <nameStyle>14,5,7
</nameStyle>
    </language>
</elementInfo>
' #txt
Et0 f71 406 788 36 24 20 -2 #rect
Et0 f71 @|CallSubIcon #fIcon
Et0 f71 -613726|-1|-16777216 #nodeStyle
Et0 f73 template "/ProcessPages/Edit/jsonResponse.ivc" #txt
Et0 f73 type ch.soreco.orderbook.ui.Order #txt
Et0 f73 skipLink skip.ivp #txt
Et0 f73 sortLink sort.ivp #txt
Et0 f73 templateWizard '#
#Thu Jun 23 13:26:39 CEST 2011
' #txt
Et0 f73 pageArchivingActivated false #txt
Et0 f73 @C|.xml '<?xml version="1.0" encoding="UTF-8" standalone="yes"?>
<elementInfo>
    <language>
        <name>return orderId</name>
        <nameStyle>14
</nameStyle>
    </language>
</elementInfo>
' #txt
Et0 f73 @C|.responsibility Everybody #txt
Et0 f73 166 788 36 24 -32 14 #rect
Et0 f73 @|PageIcon #fIcon
Et0 f73 -613726|-1|-16777216 #nodeStyle
Et0 f70 type ch.soreco.orderbook.ui.Order #txt
Et0 f70 530 786 28 28 14 0 #rect
Et0 f70 @|AlternativeIcon #fIcon
Et0 f70 -613726|-1|-16777216 #nodeStyle
Et0 f74 expr data #txt
Et0 f74 outCond ivp=="newOrder.ivp" #txt
Et0 f74 667 716 558 800 #arcP
Et0 f74 1 576 800 #addKink
Et0 f74 0 0.6387971034648103 0 0 #arcLabel
Et0 f72 expr in #txt
Et0 f72 outCond 'in.order.dispatchingId > 0' #txt
Et0 f72 530 800 442 800 #arcP
Et0 f75 type ch.soreco.orderbook.ui.Order #txt
Et0 f75 processCall 'Functional Processes/orderbook/Dispatching:set(ch.soreco.orderbook.bo.Dispatching)' #txt
Et0 f75 doCall true #txt
Et0 f75 requestActionDecl '<ch.soreco.orderbook.bo.Dispatching dispatching> param;
' #txt
Et0 f75 requestMappingAction 'param.dispatching.assignments="";
param.dispatching.dispatchDateTime=new DateTime();
param.dispatching.dispatcherUserId=in.order.editorUserId;
param.dispatching.orderId=in.order.orderId;
' #txt
Et0 f75 responseActionDecl 'ch.soreco.orderbook.ui.Order out;
' #txt
Et0 f75 responseMappingAction 'out=in;
out.orderCopy.dispatcherUserId=result.dispatchingData.dispatcherUserId;
out.orderCopy.dispatchingId=result.dispatchingData.id;
' #txt
Et0 f75 @C|.xml '<?xml version="1.0" encoding="UTF-8" standalone="yes"?>
<elementInfo>
    <language>
        <name>set(Dispatching)</name>
    </language>
</elementInfo>
' #txt
Et0 f75 406 748 36 24 20 -2 #rect
Et0 f75 @|CallSubIcon #fIcon
Et0 f75 -613726|-1|-16777216 #nodeStyle
Et0 f76 expr in #txt
Et0 f76 544 786 442 760 #arcP
Et0 f76 1 544 760 #addKink
Et0 f76 1 0.34694380244469863 0 0 #arcLabel
Et0 f77 expr out #txt
Et0 f77 424 772 424 788 #arcP
Et0 f78 type ch.soreco.orderbook.ui.Order #txt
Et0 f78 processCall 'Functional Processes/orderbook/Order:setPlainOrder(ch.soreco.orderbook.bo.Order)' #txt
Et0 f78 doCall true #txt
Et0 f78 requestActionDecl '<ch.soreco.orderbook.bo.Order order> param;
' #txt
Et0 f78 requestMappingAction 'param.order=in.order;
param.order.dispatchingId=in.orderCopy.dispatchingId;
' #txt
Et0 f78 responseActionDecl 'ch.soreco.orderbook.ui.Order out;
' #txt
Et0 f78 responseMappingAction 'out=in;
out.orderCopy=null;
' #txt
Et0 f78 @C|.xml '<?xml version="1.0" encoding="UTF-8" standalone="yes"?>
<elementInfo>
    <language>
        <name>setPlainOrder(Order)</name>
        <nameStyle>20,5,7
</nameStyle>
    </language>
</elementInfo>
' #txt
Et0 f78 246 788 36 24 20 -2 #rect
Et0 f78 @|CallSubIcon #fIcon
Et0 f78 -613726|-1|-16777216 #nodeStyle
Et0 f79 expr out #txt
Et0 f79 406 800 282 800 #arcP
Et0 f68 expr out #txt
Et0 f68 246 800 202 800 #arcP
Et0 f80 type ch.soreco.orderbook.ui.Order #txt
Et0 f80 processCall 'Functional Processes/orderUISave:call(ch.soreco.orderbook.ui.Order)' #txt
Et0 f80 doCall true #txt
Et0 f80 requestActionDecl '<ch.soreco.orderbook.ui.Order orderUI> param;
' #txt
Et0 f80 requestMappingAction 'param.orderUI=in;
' #txt
Et0 f80 responseActionDecl 'ch.soreco.orderbook.ui.Order out;
' #txt
Et0 f80 responseMappingAction 'out=result.orderUI;
' #txt
Et0 f80 @C|.xml '<?xml version="1.0" encoding="UTF-8" standalone="yes"?>
<elementInfo>
    <language>
        <name>Save orderUI</name>
        <nameStyle>12
</nameStyle>
    </language>
</elementInfo>
' #txt
Et0 f80 1422 284 36 24 23 -5 #rect
Et0 f80 @|CallSubIcon #fIcon
Et0 f81 expr data #txt
Et0 f81 outCond ivp=="addOrEditObjectDialog.ivp" #txt
Et0 f81 .xml '<?xml version="1.0" encoding="UTF-8" standalone="yes"?>
<elementInfo>
    <language>
        <name>addOrEditObjectDialog</name>
        <nameStyle>21,7
</nameStyle>
    </language>
</elementInfo>
' #txt
Et0 f81 680 692 1422 296 #arcP
Et0 f81 1 832 296 #addKink
Et0 f81 1 0.10847457627118644 0 -11 #arcLabel
Et0 f82 type ch.soreco.orderbook.ui.Order #txt
Et0 f82 processCall 'Functional Processes/HTMLGet:call(Integer,ch.soreco.orderbook.bo.Order,ch.soreco.orderbook.ui.enums.ViewType)' #txt
Et0 f82 doCall true #txt
Et0 f82 requestActionDecl '<java.lang.Integer currentChild,ch.soreco.orderbook.bo.Order order,ch.soreco.orderbook.ui.enums.ViewType viewType> param;
' #txt
Et0 f82 requestMappingAction 'param.currentChild=in.currentChild;
param.order=in.order;
param.viewType=in.eViewType;
' #txt
Et0 f82 responseActionDecl 'ch.soreco.orderbook.ui.Order out;
' #txt
Et0 f82 responseMappingAction 'out=result.orderUI;
out.i=in.i;
out.newObject=in.newObject;
' #txt
Et0 f82 @C|.xml '<?xml version="1.0" encoding="UTF-8" standalone="yes"?>
<elementInfo>
    <language>
        <name>get HTML</name>
        <nameStyle>8
</nameStyle>
    </language>
</elementInfo>
' #txt
Et0 f82 1422 324 36 24 25 -5 #rect
Et0 f82 @|CallSubIcon #fIcon
Et0 f83 expr out #txt
Et0 f83 1440 308 1440 324 #arcP
Et0 f54 expr out #txt
Et0 f54 1440 348 1440 364 #arcP
Et0 f86 actionDecl 'ch.soreco.orderbook.ui.Order out;
' #txt
Et0 f86 actionTable 'out=in;
' #txt
Et0 f86 actionCode '/*
out.order.checkerUserId = in.orderCopy.checkerUserId.length() > 0 ? in.orderCopy.checkerUserId : in.order.checkerUserId;
out.order.editorUserId = in.orderCopy.editorUserId.length() > 0 && !in.newOrder ? in.orderCopy.editorUserId : ivy.session.getSessionUserName();
*/
//see request of Manuel Feier: FW: Verhalten Felder «Prüfer» und «Bearbeiter» as of 17.11.2014
//The editor is set always to present order independently of "neuer Auftrag"
if(in.orderCopy.editorUserId.length()>0){
	out.order.editorUserId = in.orderCopy.editorUserId;
} else {
	out.order.editorUserId = ivy.session.getSessionUserName();	
}

//The checker is set always to present order independently of "neuer Auftrag"
if(in.orderCopy.checkerUserId.length()>0){
	out.order.checkerUserId = in.orderCopy.checkerUserId;
	}
' #txt
Et0 f86 type ch.soreco.orderbook.ui.Order #txt
Et0 f86 @C|.xml '<?xml version="1.0" encoding="UTF-8" standalone="yes"?>
<elementInfo>
    <language>
        <name>set editor &amp; checker on current Order</name>
        <nameStyle>37,7
</nameStyle>
        <desc>workaround; copy checker from copy into current order</desc>
    </language>
</elementInfo>
' #txt
Et0 f86 1054 908 36 24 20 -2 #rect
Et0 f86 @|StepIcon #fIcon
Et0 f34 expr out #txt
Et0 f34 968 788 1056 908 #arcP
Et0 f34 1 968 840 #addKink
Et0 f34 1 0.7120945790713714 0 0 #arcLabel
Et0 f88 expr out #txt
Et0 f88 1152 788 1084 908 #arcP
Et0 f88 1 1152 840 #addKink
Et0 f88 1 0.5966951067315784 0 0 #arcLabel
Et0 f51 expr out #txt
Et0 f51 1328 788 1090 920 #arcP
Et0 f51 1 1328 840 #addKink
Et0 f51 1 0.4873626209747873 0 0 #arcLabel
Et0 f42 actionDecl 'ch.soreco.orderbook.ui.Order out;
' #txt
Et0 f42 actionTable 'out=in;
' #txt
Et0 f42 actionCode '/*
out.order.checkerUserId = in.orderCopy.checkerUserId.length() > 0 ? in.orderCopy.checkerUserId : in.order.checkerUserId;
out.order.editorUserId = ivy.session.getSessionUserName();
*/
//see request of Manuel Feier: FW: Verhalten Felder «Prüfer» und «Bearbeiter» as of 17.11.2014
//The editor is set always to present order independently of "neuer Auftrag"
if(in.orderCopy.editorUserId.length()>0){
	out.order.editorUserId = in.orderCopy.editorUserId;
	}
//The checker is set always to present order independently of "neuer Auftrag"
if(in.orderCopy.checkerUserId.length()>0){
	out.order.checkerUserId = in.orderCopy.checkerUserId;
	}' #txt
Et0 f42 type ch.soreco.orderbook.ui.Order #txt
Et0 f42 @C|.xml '<?xml version="1.0" encoding="UTF-8" standalone="yes"?>
<elementInfo>
    <language>
        <name>set editor &amp; checker</name>
        <nameStyle>20,7
</nameStyle>
        <desc>workaround; copy checker from copy into current order</desc>
    </language>
</elementInfo>
' #txt
Et0 f42 1270 524 36 24 20 -2 #rect
Et0 f42 @|StepIcon #fIcon
Et0 f37 expr out #txt
Et0 f37 1288 548 1288 564 #arcP
Et0 f84 type ch.soreco.orderbook.ui.Order #txt
Et0 f84 processCall 'Business Processes/Adressmutation/DependentOrder:newDependentOrder(ch.soreco.orderbook.bo.Order)' #txt
Et0 f84 doCall true #txt
Et0 f84 requestActionDecl '<ch.soreco.orderbook.bo.Order order> param;
' #txt
Et0 f84 requestMappingAction 'param.order=in.order;
param.order.checkerUserId="";
param.order.editorUserId=ivy.session.getSessionUserName();
' #txt
Et0 f84 responseActionDecl 'ch.soreco.orderbook.ui.Order out;
' #txt
Et0 f84 responseMappingAction 'out=in;
out.newOrder=result.proceed;
out.orderCopy=result.order;
' #txt
Et0 f84 @C|.xml '<?xml version="1.0" encoding="UTF-8" standalone="yes"?>
<elementInfo>
    <language>
        <name>newDependentOrder(Order)</name>
        <nameStyle>24,5,7
</nameStyle>
        <desc>as of 17.11.2014 reqeusted by Manuel Feier new orders are initialized always with the current user as editor and no checker is overtaken.</desc>
    </language>
</elementInfo>
' #txt
Et0 f84 1166 1052 36 24 23 -5 #rect
Et0 f84 @|CallSubIcon #fIcon
Et0 f91 type ch.soreco.orderbook.ui.Order #txt
Et0 f91 @C|.xml '<?xml version="1.0" encoding="UTF-8" standalone="yes"?>
<elementInfo>
    <language>
        <name>newOrder?</name>
        <nameStyle>9,7
</nameStyle>
    </language>
</elementInfo>
' #txt
Et0 f91 1170 1098 28 28 11 -22 #rect
Et0 f91 @|AlternativeIcon #fIcon
Et0 f92 type ch.soreco.orderbook.ui.Order #txt
Et0 f92 @C|.xml '<?xml version="1.0" encoding="UTF-8" standalone="yes"?>
<elementInfo>
    <language>
        <name>newOrder?</name>
        <nameStyle>9
</nameStyle>
    </language>
</elementInfo>
' #txt
Et0 f92 1058 1010 28 28 13 -20 #rect
Et0 f92 @|AlternativeIcon #fIcon
Et0 f94 expr out #txt
Et0 f94 1184 1076 1184 1098 #arcP
Et0 f96 expr out #txt
Et0 f96 824 788 1054 920 #arcP
Et0 f96 1 824 840 #addKink
Et0 f96 1 0.08502227958478417 0 0 #arcLabel
Et0 f97 actionDecl 'ch.soreco.orderbook.ui.Order out;
' #txt
Et0 f97 actionTable 'out=in;
' #txt
Et0 f97 actionCode 'import ch.ivyteam.ivy.ext.SessionLockManager;

SessionLockManager lockManager = SessionLockManager.getInstance();
if(lockManager.lockIdForSession(in.order.orderId.toString(),ivy.session)){
	lockManager.releaseLockId(in.order.orderId.toString());	
	ivy.log.info("Released lock for "+in.order.orderId+" by session id "+ivy.session.getIdentifier());
	}
	

' #txt
Et0 f97 type ch.soreco.orderbook.ui.Order #txt
Et0 f97 @C|.xml '<?xml version="1.0" encoding="UTF-8" standalone="yes"?>
<elementInfo>
    <language>
        <name>set orderCopy
as Order
&amp; releaseLock</name>
        <nameStyle>36
</nameStyle>
    </language>
</elementInfo>
' #txt
Et0 f97 1262 1132 36 24 22 -17 #rect
Et0 f97 @|StepIcon #fIcon
Et0 f99 type ch.soreco.orderbook.ui.Order #txt
Et0 f99 processCall 'Business Processes/chooseProcess:call(Integer,ch.soreco.orderbook.ui.enums.ViewType)' #txt
Et0 f99 doCall true #txt
Et0 f99 requestActionDecl '<java.lang.Integer orderId,ch.soreco.orderbook.ui.enums.ViewType viewType> param;
' #txt
Et0 f99 requestMappingAction 'param.orderId=in.orderCopy.orderId;
param.viewType=ch.soreco.orderbook.ui.enums.ViewType.EDIT;
' #txt
Et0 f99 responseActionDecl 'ch.soreco.orderbook.ui.Order out;
' #txt
Et0 f99 responseMappingAction 'out=in;
' #txt
Et0 f99 @C|.xml '<?xml version="1.0" encoding="UTF-8" standalone="yes"?>
<elementInfo>
    <language>
        <name>Bearbeiten</name>
        <nameStyle>10
</nameStyle>
    </language>
</elementInfo>
' #txt
Et0 f99 1262 1188 36 24 23 -5 #rect
Et0 f99 @|CallSubIcon #fIcon
Et0 f100 expr out #txt
Et0 f100 1280 1156 1280 1188 #arcP
Et0 f104 expr data #txt
Et0 f104 outCond ivp=="edited.ivp" #txt
Et0 f104 698 704 824 764 #arcP
Et0 f104 1 824 704 #addKink
Et0 f104 0 0.6552985739111069 0 0 #arcLabel
Et0 f87 type ch.soreco.orderbook.ui.Order #txt
Et0 f87 processCall 'Business Processes/chooseProcess:call(Integer,ch.soreco.orderbook.ui.enums.ViewType)' #txt
Et0 f87 doCall true #txt
Et0 f87 requestActionDecl '<java.lang.Integer orderId,ch.soreco.orderbook.ui.enums.ViewType viewType> param;
' #txt
Et0 f87 requestMappingAction 'param.orderId=in.order.orderId;
param.viewType=ch.soreco.orderbook.ui.enums.ViewType.READ;
' #txt
Et0 f87 responseActionDecl 'ch.soreco.orderbook.ui.Order out;
' #txt
Et0 f87 responseMappingAction 'out=in;
' #txt
Et0 f87 @C|.xml '<?xml version="1.0" encoding="UTF-8" standalone="yes"?>
<elementInfo>
    <language>
        <name>show related Order</name>
        <nameStyle>18
</nameStyle>
    </language>
</elementInfo>
' #txt
Et0 f87 766 1020 36 24 20 -2 #rect
Et0 f87 @|CallSubIcon #fIcon
Et0 f106 expr data #txt
Et0 f106 outCond ivp=="showRelatedOrder.ivp" #txt
Et0 f106 680 716 784 1020 #arcP
Et0 f106 1 784 936 #addKink
Et0 f106 1 0.5454362648557498 0 0 #arcLabel
Et0 f107 expr out #txt
Et0 f107 784 1044 684 1411 #arcP
Et0 f107 1 784 1136 #addKink
Et0 f107 0 0.4607425083641505 0 0 #arcLabel
Et0 f108 actionDecl 'ch.soreco.orderbook.ui.Order out;
' #txt
Et0 f108 actionTable 'out=in;
out.order.discard=true;
out.order.orderState=ch.soreco.orderbook.enums.OrderState.InAbortCheck.toString();
' #txt
Et0 f108 type ch.soreco.orderbook.ui.Order #txt
Et0 f108 @C|.xml '<?xml version="1.0" encoding="UTF-8" standalone="yes"?>
<elementInfo>
    <language>
        <name>verwerfen
InPendencyRecording
to InAbortCheck</name>
        <nameStyle>45
</nameStyle>
    </language>
</elementInfo>
' #txt
Et0 f108 1438 764 36 24 20 -2 #rect
Et0 f108 @|StepIcon #fIcon
Et0 f111 expr data #txt
Et0 f111 outCond ivp=="discard.ivp" #txt
Et0 f111 698 704 1456 764 #arcP
Et0 f111 1 1456 704 #addKink
Et0 f111 0 0.5315198860836293 0 0 #arcLabel
Et0 f113 expr out #txt
Et0 f113 1456 788 1090 920 #arcP
Et0 f113 1 1456 840 #addKink
Et0 f113 1 0.5349689601722551 0 0 #arcLabel
Et0 f120 expr data #txt
Et0 f120 outCond ivp=="redispatch.ivp" #txt
Et0 f120 698 704 1616 764 #arcP
Et0 f120 1 1616 704 #addKink
Et0 f112 expr in #txt
Et0 f112 outCond in.newOrder #txt
Et0 f112 .xml '<?xml version="1.0" encoding="UTF-8" standalone="yes"?>
<elementInfo>
    <language>
        <name>yes</name>
        <nameStyle>3,7
</nameStyle>
    </language>
</elementInfo>
' #txt
Et0 f112 6 #arcStyle
Et0 f112 1086 1024 1184 1052 #arcP
Et0 f112 1 1184 1024 #addKink
Et0 f112 0 0.14285714285714285 0 10 #arcLabel
Et0 f17 expr out #txt
Et0 f17 1072 972 1072 1010 #arcP
Et0 f17 0 0.4229835270234788 0 0 #arcLabel
Et0 f102 expr out #txt
Et0 f102 1072 932 1072 948 #arcP
Et0 f98 1616 788 1090 960 #arcP
Et0 f98 1 1616 960 #addKink
Et0 f98 1 0.42434831103735005 0 0 #arcLabel
Et0 f105 type ch.soreco.orderbook.ui.Order #txt
Et0 f105 processCall 'Business Processes/History/ShowSimpleOrderHistory:showSimpleHistory(ch.soreco.orderbook.functional.History)' #txt
Et0 f105 doCall true #txt
Et0 f105 requestActionDecl '<ch.soreco.orderbook.functional.History history> param;
' #txt
Et0 f105 requestMappingAction 'param.history.fetchId=in.order.orderId;
param.history.historyTable="tbl_Orders_History";
param.history.idName="orderId";
' #txt
Et0 f105 responseActionDecl 'ch.soreco.orderbook.ui.Order out;
' #txt
Et0 f105 responseMappingAction 'out=in;
' #txt
Et0 f105 @C|.xml '<?xml version="1.0" encoding="UTF-8" standalone="yes"?>
<elementInfo>
    <language>
        <name>show history</name>
        <nameStyle>12,7
</nameStyle>
    </language>
</elementInfo>
' #txt
Et0 f105 350 1076 36 24 20 -2 #rect
Et0 f105 @|CallSubIcon #fIcon
Et0 f110 expr data #txt
Et0 f110 outCond ivp=="showHistory.ivp" #txt
Et0 f110 680 716 386 1088 #arcP
Et0 f110 1 576 1088 #addKink
Et0 f110 0 0.696419115318142 0 0 #arcLabel
Et0 f28 expr out #txt
Et0 f28 680 132 680 170 #arcP
Et0 f116 actionDecl 'ch.soreco.orderbook.ui.Order out;
' #txt
Et0 f116 actionTable 'out=in;
' #txt
Et0 f116 actionCode 'import ch.soreco.orderbook.authority.util.OrderTypeUtil;

out.officialTeamOrderTypes = OrderTypeUtil.getOfficialTeamOrderTypes();
out.orderQuantityTypes = OrderTypeUtil.getOrderQuantityTypes();
' #txt
Et0 f116 type ch.soreco.orderbook.ui.Order #txt
Et0 f116 @C|.xml '<?xml version="1.0" encoding="UTF-8" standalone="yes"?>
<elementInfo>
    <language>
        <name>get  Order Types 
and Order Quantity Types 
from OrderTypeUtil</name>
        <nameStyle>62
</nameStyle>
    </language>
</elementInfo>
' #txt
Et0 f116 662 500 36 24 -166 -21 #rect
Et0 f116 @|StepIcon #fIcon
Et0 f117 expr out #txt
Et0 f117 680 444 680 500 #arcP
Et0 f118 actionDecl 'ch.soreco.orderbook.ui.Order out;
' #txt
Et0 f118 actionTable 'out=in;
' #txt
Et0 f118 actionCode 'import ch.soreco.orderbook.util.Authority;

//get Editor User List
Authority auth = Authority.getInstance();
in.userList.clear();
in.userList.add("");
in.userList.addAll(Authority.getInstance().getEditorUsersSorted());' #txt
Et0 f118 type ch.soreco.orderbook.ui.Order #txt
Et0 f118 @C|.xml '<?xml version="1.0" encoding="UTF-8" standalone="yes"?>
<elementInfo>
    <language>
        <name>get Editor Users 
from Authority</name>
        <nameStyle>32
</nameStyle>
    </language>
</elementInfo>
' #txt
Et0 f118 662 548 36 24 -119 -12 #rect
Et0 f118 @|StepIcon #fIcon
Et0 f119 expr out #txt
Et0 f119 680 524 680 548 #arcP
Et0 f57 expr out #txt
Et0 f57 680 572 680 692 #arcP
Et0 f114 expr in #txt
Et0 f114 outCond in.newOrder #txt
Et0 f114 .xml '<?xml version="1.0" encoding="UTF-8" standalone="yes"?>
<elementInfo>
    <language>
        <name>yes</name>
        <nameStyle>3,7
</nameStyle>
    </language>
</elementInfo>
' #txt
Et0 f114 6 #arcStyle
Et0 f114 1198 1112 1280 1132 #arcP
Et0 f114 1 1280 1112 #addKink
Et0 f114 0 0.2804878048780488 0 9 #arcLabel
Et0 f24 type ch.soreco.orderbook.ui.Order #txt
Et0 f24 1170 1226 28 28 14 0 #rect
Et0 f24 @|AlternativeIcon #fIcon
Et0 f25 expr out #txt
Et0 f25 1280 1212 1198 1240 #arcP
Et0 f25 1 1280 1240 #addKink
Et0 f25 1 0.24236091469753404 0 0 #arcLabel
Et0 f103 expr in #txt
Et0 f103 .xml '<?xml version="1.0" encoding="UTF-8" standalone="yes"?>
<elementInfo>
    <language>
        <name>no</name>
        <nameStyle>2,7
</nameStyle>
    </language>
</elementInfo>
' #txt
Et0 f103 3 #arcStyle
Et0 f103 1184 1126 1184 1226 #arcP
Et0 f103 0 0.09482758620689655 -11 0 #arcLabel
Et0 f23 type ch.soreco.orderbook.ui.Order #txt
Et0 f23 1058 1266 28 28 14 0 #rect
Et0 f23 @|AlternativeIcon #fIcon
Et0 f93 expr in #txt
Et0 f93 1184 1254 1086 1280 #arcP
Et0 f93 1 1184 1280 #addKink
Et0 f93 1 0.27952720130970704 0 0 #arcLabel
Et0 f95 expr in #txt
Et0 f95 .xml '<?xml version="1.0" encoding="UTF-8" standalone="yes"?>
<elementInfo>
    <language>
        <name>no</name>
        <nameStyle>2,7
</nameStyle>
    </language>
</elementInfo>
' #txt
Et0 f95 3 #arcStyle
Et0 f95 1072 1038 1072 1266 #arcP
Et0 f95 0 0.05821917808219178 -11 0 #arcLabel
Et0 f101 type ch.soreco.orderbook.ui.Order #txt
Et0 f101 1426 626 28 28 14 0 #rect
Et0 f101 @|AlternativeIcon #fIcon
Et0 f60 expr out #txt
Et0 f60 1440 508 1440 626 #arcP
Et0 f60 0 0.3790646295914296 0 0 #arcLabel
Et0 f69 expr out #txt
Et0 f69 1288 588 1428 638 #arcP
Et0 f69 1 1288 608 #addKink
Et0 f69 1 0.2797630016986631 0 0 #arcLabel
Et0 f58 type ch.soreco.orderbook.ui.Order #txt
Et0 f58 1578 482 28 28 14 0 #rect
Et0 f58 @|AlternativeIcon #fIcon
Et0 f59 expr data #txt
Et0 f59 outCond ivp=="cancel.ivp" #txt
Et0 f59 .xml '<?xml version="1.0" encoding="UTF-8" standalone="yes"?>
<elementInfo>
    <language>
        <name>cancel</name>
        <nameStyle>6,7
</nameStyle>
    </language>
</elementInfo>
' #txt
Et0 f59 1458 416 1592 482 #arcP
Et0 f59 1 1592 440 #addKink
Et0 f59 1 0.30952380952380953 21 0 #arcLabel
Et0 f109 expr in #txt
Et0 f109 1592 510 1452 638 #arcP
Et0 f109 1 1592 608 #addKink
Et0 f109 1 0.6724848821096402 0 0 #arcLabel
Et0 f115 expr out #txt
Et0 f115 1288 508 1288 524 #arcP
Et0 f115 0 0.36550581023697004 0 0 #arcLabel
Et0 f85 expr data #txt
Et0 f85 outCond ivp=="save.ivp" #txt
Et0 f85 .xml '<?xml version="1.0" encoding="UTF-8" standalone="yes"?>
<elementInfo>
    <language>
        <name>save</name>
        <nameStyle>4,7
</nameStyle>
    </language>
</elementInfo>
' #txt
Et0 f85 680 692 1270 536 #arcP
Et0 f85 1 832 536 #addKink
Et0 f85 1 0.032188841201716736 0 -7 #arcLabel
Et0 f15 type ch.soreco.orderbook.ui.Order #txt
Et0 f15 666 234 28 28 14 0 #rect
Et0 f15 @|AlternativeIcon #fIcon
Et0 f89 expr in #txt
Et0 f89 outCond in.order.matchedToOrder>0 #txt
Et0 f89 .xml '<?xml version="1.0" encoding="UTF-8" standalone="yes"?>
<elementInfo>
    <language>
        <name>yes</name>
        <nameStyle>3,7
</nameStyle>
    </language>
</elementInfo>
' #txt
Et0 f89 6 #arcStyle
Et0 f89 680 198 680 234 #arcP
Et0 f89 0 0.4166666666666667 13 0 #arcLabel
Et0 f22 expr in #txt
Et0 f22 680 262 680 420 #arcP
Et0 f90 expr in #txt
Et0 f90 1454 640 694 248 #arcP
Et0 f90 1 1656 640 #addKink
Et0 f90 2 1656 248 #addKink
Et0 f90 2 0.3821549232624813 0 0 #arcLabel
Et0 f14 type ch.soreco.orderbook.ui.Order #txt
Et0 f14 1058 1314 28 28 14 0 #rect
Et0 f14 @|AlternativeIcon #fIcon
Et0 f29 expr in #txt
Et0 f29 1072 1294 1072 1314 #arcP
Et0 f29 0 0.4399149761728761 0 0 #arcLabel
Et0 f9 expr in #txt
Et0 f9 1072 1342 692 1422 #arcP
Et0 f9 1 1072 1368 #addKink
Et0 f9 1 0.30189368020806245 0 0 #arcLabel
Et0 f30 expr out #txt
Et0 f30 1776 796 1086 1328 #arcP
Et0 f30 1 1776 1328 #addKink
Et0 f30 1 0.3939070977680155 0 0 #arcLabel
>Proto Et0 .type ch.soreco.orderbook.ui.Order #txt
>Proto Et0 .processKind CALLABLE_SUB #txt
>Proto Et0 0 0 32 24 18 0 #rect
>Proto Et0 @|BIcon #fIcon
1b0 f109 actionDecl 'ch.soreco.orderbook.ui.Order out;
' #txt
1b0 f109 actionTable 'out=in;
' #txt
1b0 f109 dbSql '<?xml version=""1.0"" standalone=""no""?>
<!DOCTYPE ANY_SQL SYSTEM  ""sqlStatements.dtd"">
<ANY_SQL><Verbatim quote=''true''>update tbl_Scanning 
set 
	docType =
	(SELECT 
	CASE WHEN NOT((SELECT COUNT(*) FROM tbl_Orders WHERE dispatchingId = in.order.dispatchingId) &#62; 1 )
	OR  in.order.dispatchingId = 0 OR  in.order.dispatchingId is null
	THEN (
		SELECT distinct
		case WHEN mapToDocType &#60;&#62; &#39;&#39; AND mapToDocType IS NOT NULL
		THEN mapToDocType
		ELSE docType 
		END AS newDocType
		FROM btbl_OrderMachings WHERE orderType = in.order.orderType
	) 
	ELSE &#39;IL&#39;  END),
	orderType = in.order.orderType
where orderId = in.order.orderId</Verbatim></ANY_SQL>' #txt
1b0 f109 dbUrl bzp_ivy_daten #txt
1b0 f109 cache '{/cache false /invalidation false /scope 0 /groupname ""/lifetime_group "0"/invalidation_time_group ""/identifier ""/lifetime_entry "0"/invalidation_time_entry ""}' #txt
1b0 f109 dbWizard 'update tbl_Scanning 
set 
	docType =
	(SELECT 
	CASE WHEN NOT((SELECT COUNT(*) FROM tbl_Orders WHERE dispatchingId = in.order.dispatchingId) > 1 )
	OR  in.order.dispatchingId = 0 OR  in.order.dispatchingId is null
	THEN (
		SELECT distinct
		case WHEN mapToDocType <> '''' AND mapToDocType IS NOT NULL
		THEN mapToDocType
		ELSE docType 
		END AS newDocType
		FROM btbl_OrderMachings WHERE orderType = in.order.orderType
	) 
	ELSE ''IL''  END),
	orderType = in.order.orderType
where orderId = in.order.orderId' #txt
1b0 f109 lotSize 2147483647 #txt
1b0 f109 startIdx 0 #txt
1b0 f109 type ch.soreco.orderbook.ui.Order #txt
1b0 f109 @C|.xml '<?xml version="1.0" encoding="UTF-8" standalone="yes"?>
<elementInfo>
    <language>
        <name>update docType</name>
        <nameStyle>14
</nameStyle>
        <desc>hotfix for bug 10.08.2011 / ZKEMA:
1. Kombiaufträge werden nicht als IL archiviert, ausser wenn als IL gescannt.
2. Einzelaufträge die Redispatched wurden, werden nicht mit der neuen (beim ReDisp. gesetzten) Auftragsart.
</desc>
    </language>
</elementInfo>
' #txt
1b0 f109 334 260 36 24 20 -2 #rect
1b0 f109 @|DBStepIcon #fIcon
1b0 f123 actionDecl 'ch.soreco.orderbook.ui.Order out;
' #txt
1b0 f123 actionTable 'out=in;
' #txt
1b0 f123 dbSql '<?xml version=""1.0"" standalone=""no""?>
<!DOCTYPE ANY_SQL SYSTEM  ""sqlStatements.dtd"">
<ANY_SQL><Verbatim quote=''true''>update tbl_Scanning
set docType = in.order.scanning.docType, orderType = in.order.scanning.orderType
where  orderId = in.order.orderId
and isMain = 1


--scanningId = in.order.scanning.scanningId</Verbatim></ANY_SQL>' #txt
1b0 f123 dbUrl bzp_ivy_daten #txt
1b0 f123 cache '{/cache false /invalidation false /scope 0 /groupname ""/lifetime_group "0"/invalidation_time_group ""/identifier ""/lifetime_entry "0"/invalidation_time_entry ""}' #txt
1b0 f123 dbWizard 'update tbl_Scanning
set docType = in.order.scanning.docType, orderType = in.order.scanning.orderType
where  orderId = in.order.orderId
and isMain = 1


--scanningId = in.order.scanning.scanningId' #txt
1b0 f123 lotSize 2147483647 #txt
1b0 f123 startIdx 0 #txt
1b0 f123 type ch.soreco.orderbook.ui.Order #txt
1b0 f123 @C|.xml '<?xml version="1.0" encoding="UTF-8" standalone="yes"?>
<elementInfo>
    <language>
        <name>update DocType</name>
        <nameStyle>14
</nameStyle>
    </language>
</elementInfo>
' #txt
1b0 f123 54 260 36 24 20 -2 #rect
1b0 f123 @|DBStepIcon #fIcon
1b0 f124 expr out #txt
1b0 f124 72 180 72 260 #arcP
1b0 f112 expr in #txt
1b0 f112 outCond 'in.order.scannings.size() == 1' #txt
1b0 f112 352 126 352 260 #arcP
1b0 f114 type ch.soreco.orderbook.ui.Order #txt
1b0 f114 @C|.xml '<?xml version="1.0" encoding="UTF-8" standalone="yes"?>
<elementInfo>
    <language>
        <name>1 scanning?</name>
        <nameStyle>11
</nameStyle>
        <desc>Auftrag mit 1 Dokument manuell Dispatchen oder Redispatchen (1 Auftragsart ausgewählt) 
=&gt; DocType wird mit dem DocType bzw. mapToDocType der neuen Auftragsart überschrieben</desc>
    </language>
</elementInfo>
' #txt
1b0 f114 338 98 28 28 14 0 #rect
1b0 f114 @|AlternativeIcon #fIcon
1b0 f126 expr out #txt
1b0 f126 334 272 242 272 #arcP
1b0 f110 expr out #txt
1b0 f110 90 272 206 272 #arcP
1b0 f118 expr in #txt
1b0 f118 338 112 90 112 #arcP
1b0 f125 actionDecl 'ch.soreco.orderbook.ui.Order out;
' #txt
1b0 f125 actionTable 'out=in;
out.order.dispatcherUserId=in.order.editorUserId;
out.order.editorUserId="";
out.order.orderState=ch.soreco.orderbook.enums.OrderState.Dispatched.name();
' #txt
1b0 f125 type ch.soreco.orderbook.ui.Order #txt
1b0 f125 206 260 36 24 20 -2 #rect
1b0 f125 @|StepIcon #fIcon
1b0 f119 expr out #txt
1b0 f119 72 124 72 156 #arcP
1b0 f116 type ch.soreco.orderbook.ui.Order #txt
1b0 f116 processCall 'Functional Processes/scanning/OrderMatching:get(ch.soreco.orderbook.bo.OrderMatching)' #txt
1b0 f116 doCall true #txt
1b0 f116 requestActionDecl '<ch.soreco.orderbook.bo.OrderMatching filter> param;
' #txt
1b0 f116 requestMappingAction 'param.filter.orderType=in.order.orderType;
' #txt
1b0 f116 responseActionDecl 'ch.soreco.orderbook.ui.Order out;
' #txt
1b0 f116 responseMappingAction 'out=in;
out.order.scanning.docType=result.orderMatching.mapToDocType.length() > 0 ? result.orderMatching.mapToDocType : result.orderMatching.docType;
out.order.scanning.orderMatching=result.orderMatching;
' #txt
1b0 f116 @C|.xml '<?xml version="1.0" encoding="UTF-8" standalone="yes"?>
<elementInfo>
    <language>
        <name>get(OrderMatching)</name>
        <nameStyle>18,5,7
</nameStyle>
    </language>
</elementInfo>
' #txt
1b0 f116 54 156 36 24 20 -2 #rect
1b0 f116 @|CallSubIcon #fIcon
1b0 f117 type ch.soreco.orderbook.ui.Order #txt
1b0 f117 processCall 'Functional Processes/scanning/Scanning:getMainScanning(List<ch.soreco.orderbook.bo.Scanning>)' #txt
1b0 f117 doCall true #txt
1b0 f117 requestActionDecl '<List<ch.soreco.orderbook.bo.Scanning> scannings> param;
' #txt
1b0 f117 requestMappingAction 'param.scannings=in.order.scannings;
' #txt
1b0 f117 responseActionDecl 'ch.soreco.orderbook.ui.Order out;
' #txt
1b0 f117 responseMappingAction 'out=in;
out.order.scanning=result.mainScanning;
' #txt
1b0 f117 @C|.xml '<?xml version="1.0" encoding="UTF-8" standalone="yes"?>
<elementInfo>
    <language>
        <name>getMainScanning(List&lt;Scanning&gt;)</name>
        <nameStyle>31,5,7
</nameStyle>
    </language>
</elementInfo>
' #txt
1b0 f117 54 100 36 24 20 -2 #rect
1b0 f117 @|CallSubIcon #fIcon
1b0 g0 @C|.xml '<?xml version="1.0" encoding="UTF-8" standalone="yes"?>
<elementInfo>
    <language lang="en">
        <name>in 1</name>
    </language>
</elementInfo>
' #txt
1b0 g0 349 -6 6 6 10 16 #rect
1b0 g0 @|MIGIcon #fIcon
1b0 g1 @C|.xml '<?xml version="1.0" encoding="UTF-8" standalone="yes"?>
<elementInfo>
    <language lang="en">
        <name>out 1</name>
    </language>
</elementInfo>
' #txt
1b0 g1 221 447 6 6 10 16 #rect
1b0 g1 @|MOGIcon #fIcon
1b0 f2 type ch.soreco.orderbook.ui.Order #txt
1b0 f2 @C|.xml '<?xml version="1.0" encoding="UTF-8" standalone="yes"?>
<elementInfo>
    <language>
        <name>is single order?</name>
        <nameStyle>16,7
</nameStyle>
    </language>
</elementInfo>
' #txt
1b0 f2 338 42 28 28 14 0 #rect
1b0 f2 @|AlternativeIcon #fIcon
1b0 f3 352 0 352 42 #arcP
1b0 f0 expr in #txt
1b0 f0 outCond 'in.relatedOrders.size() == 0' #txt
1b0 f0 6 #arcStyle
1b0 f0 352 70 352 98 #arcP
1b0 f4 expr in #txt
1b0 f4 3 #arcStyle
1b0 f4 366 56 231 284 #arcP
1b0 f4 1 512 56 #addKink
1b0 f4 2 512 328 #addKink
1b0 f4 3 256 328 #addKink
1b0 f4 1 0.5321859850326567 0 0 #arcLabel
1b0 f5 type ch.soreco.orderbook.ui.Order #txt
1b0 f5 210 338 28 28 14 0 #rect
1b0 f5 @|AlternativeIcon #fIcon
1b0 f6 expr out #txt
1b0 f6 224 284 224 338 #arcP
1b0 f7 actionDecl 'ch.soreco.orderbook.ui.Order out;
' #txt
1b0 f7 actionTable 'out=in;
out.order.orderState=ch.soreco.orderbook.enums.OrderState.InAbortCheck.name();
' #txt
1b0 f7 type ch.soreco.orderbook.ui.Order #txt
1b0 f7 294 340 36 24 20 -2 #rect
1b0 f7 @|StepIcon #fIcon
1b0 f8 expr in #txt
1b0 f8 outCond in.order.orderType.equalsIgnoreCase(ch.soreco.orderbook.enums.OrderType.NoOrder.name()) #txt
1b0 f8 238 352 294 352 #arcP
1b0 f9 actionDecl 'ch.soreco.orderbook.ui.Order out;
' #txt
1b0 f9 actionTable 'out=in;
' #txt
1b0 f9 type ch.soreco.orderbook.ui.Order #txt
1b0 f9 206 404 36 24 20 -2 #rect
1b0 f9 @|StepIcon #fIcon
1b0 f1 expr out #txt
1b0 f1 296 364 241 404 #arcP
1b0 f11 expr out #txt
1b0 f11 224 428 224 447 #arcP
1b0 f10 expr in #txt
1b0 f10 224 366 224 404 #arcP
>Proto 1b0 0 0 32 24 18 0 #rect
>Proto 1b0 @|BIcon #fIcon
Et0 f3 head f1 mainIn #connect
Et0 f11 head f8 mainIn #connect
Et0 f32 head f31 mainIn #connect
Et0 f31 mainOut f13 tail #connect
Et0 f13 head f27 mainIn #connect
Et0 f18 head f4 mainIn #connect
Et0 f4 mainOut f19 tail #connect
Et0 f19 head f8 mainIn #connect
Et0 f56 head f55 mainIn #connect
Et0 f55 mainOut f44 tail #connect
Et0 f44 head f1 mainIn #connect
Et0 f38 head f35 mainIn #connect
Et0 f43 head f26 mainIn #connect
Et0 f50 head f47 mainIn #connect
Et0 f0 mainOut f52 tail #connect
Et0 f52 head f5 mainIn #connect
Et0 f46 mainOut f48 tail #connect
Et0 f48 head f7 mainIn #connect
Et0 f49 head f46 mainIn #connect
Et0 f16 head f10 mainIn #connect
Et0 f20 head f12 mainIn #connect
Et0 f41 mainOut f53 tail #connect
Et0 f53 head f40 mainIn #connect
Et0 f40 out f62 tail #connect
Et0 f62 head f61 mainIn #connect
Et0 f64 head f63 mainIn #connect
Et0 f65 head f61 mainIn #connect
Et0 f67 head f66 mainIn #connect
Et0 f74 head f70 in #connect
Et0 f70 out f72 tail #connect
Et0 f72 head f71 mainIn #connect
Et0 f70 out f76 tail #connect
Et0 f76 head f75 mainIn #connect
Et0 f75 mainOut f77 tail #connect
Et0 f77 head f71 mainIn #connect
Et0 f71 mainOut f79 tail #connect
Et0 f79 head f78 mainIn #connect
Et0 f78 mainOut f68 tail #connect
Et0 f68 head f73 mainIn #connect
Et0 f81 head f80 mainIn #connect
Et0 f80 mainOut f83 tail #connect
Et0 f83 head f82 mainIn #connect
Et0 f82 mainOut f54 tail #connect
Et0 f54 head f41 mainIn #connect
Et0 f8 mainOut f34 tail #connect
Et0 f34 head f86 mainIn #connect
Et0 f47 mainOut f88 tail #connect
Et0 f88 head f86 mainIn #connect
Et0 f35 mainOut f51 tail #connect
Et0 f51 head f86 mainIn #connect
Et0 f42 mainOut f37 tail #connect
Et0 f37 head f36 mainIn #connect
Et0 f84 mainOut f94 tail #connect
Et0 f94 head f91 in #connect
Et0 f6 mainOut f96 tail #connect
Et0 f96 head f86 mainIn #connect
Et0 f97 mainOut f100 tail #connect
Et0 f100 head f99 mainIn #connect
Et0 f104 head f6 mainIn #connect
Et0 f106 head f87 mainIn #connect
Et0 f87 mainOut f107 tail #connect
Et0 f107 head f1 mainIn #connect
Et0 f111 head f108 mainIn #connect
Et0 f108 mainOut f113 tail #connect
Et0 f113 head f86 mainIn #connect
Et0 f120 head 1b0 g0 #connect
Et0 f2 out f3 tail #connect
Et0 f2 out f104 tail #connect
Et0 f2 out f11 tail #connect
Et0 f2 out f32 tail #connect
Et0 f2 out f20 tail #connect
Et0 f2 out f16 tail #connect
Et0 f2 out f49 tail #connect
Et0 f2 out f18 tail #connect
Et0 f92 out f112 tail #connect
Et0 f112 head f84 mainIn #connect
Et0 f33 mainOut f17 tail #connect
Et0 f17 head f92 in #connect
Et0 f86 mainOut f102 tail #connect
Et0 f102 head f33 mainIn #connect
Et0 1b0 g1 f98 tail #connect
Et0 f98 head f33 mainIn #connect
Et0 f110 head f105 mainIn #connect
Et0 f5 mainOut f28 tail #connect
Et0 f28 head f21 in #connect
Et0 f27 mainOut f117 tail #connect
Et0 f117 head f116 mainIn #connect
Et0 f116 mainOut f119 tail #connect
Et0 f119 head f118 mainIn #connect
Et0 f118 mainOut f57 tail #connect
Et0 f57 head f2 mainIn #connect
Et0 f91 out f114 tail #connect
Et0 f114 head f97 mainIn #connect
Et0 f99 mainOut f25 tail #connect
Et0 f25 head f24 in #connect
Et0 f91 out f103 tail #connect
Et0 f103 head f24 in #connect
Et0 f24 out f93 tail #connect
Et0 f93 head f23 in #connect
Et0 f92 out f95 tail #connect
Et0 f95 head f23 in #connect
Et0 f66 mainOut f60 tail #connect
Et0 f60 head f101 in #connect
Et0 f36 mainOut f69 tail #connect
Et0 f69 head f101 in #connect
Et0 f40 out f59 tail #connect
Et0 f59 head f58 in #connect
Et0 f40 out f67 tail #connect
Et0 f58 out f109 tail #connect
Et0 f109 head f101 in #connect
Et0 f61 mainOut f115 tail #connect
Et0 f115 head f42 mainIn #connect
Et0 f2 out f85 tail #connect
Et0 f85 head f42 mainIn #connect
Et0 f2 out f38 tail #connect
Et0 f2 out f43 tail #connect
Et0 f2 out f50 tail #connect
Et0 f2 out f81 tail #connect
Et0 f2 out f64 tail #connect
Et0 f2 out f65 tail #connect
Et0 f2 out f74 tail #connect
Et0 f2 out f106 tail #connect
Et0 f2 out f120 tail #connect
Et0 f2 out f111 tail #connect
Et0 f2 out f110 tail #connect
Et0 f21 out f89 tail #connect
Et0 f89 head f15 in #connect
Et0 f21 out f56 tail #connect
Et0 f15 out f22 tail #connect
Et0 f22 head f27 mainIn #connect
Et0 f101 out f90 tail #connect
Et0 f90 head f15 in #connect
Et0 f23 out f29 tail #connect
Et0 f29 head f14 in #connect
Et0 f14 out f9 tail #connect
Et0 f9 head f1 mainIn #connect
Et0 f26 mainOut f30 tail #connect
Et0 f30 head f14 in #connect
1b0 f114 out f112 tail #connect
1b0 f112 head f109 mainIn #connect
1b0 f114 out f118 tail #connect
1b0 f118 head f117 mainIn #connect
1b0 f117 mainOut f119 tail #connect
1b0 f119 head f116 mainIn #connect
1b0 f116 mainOut f124 tail #connect
1b0 f124 head f123 mainIn #connect
1b0 f109 mainOut f126 tail #connect
1b0 f126 head f125 mainIn #connect
1b0 f123 mainOut f110 tail #connect
1b0 f110 head f125 mainIn #connect
1b0 g0 m f3 tail #connect
1b0 f3 head f2 in #connect
1b0 f2 out f0 tail #connect
1b0 f0 head f114 in #connect
1b0 f2 out f4 tail #connect
1b0 f4 head f125 mainIn #connect
1b0 f125 mainOut f6 tail #connect
1b0 f6 head f5 in #connect
1b0 f8 head f7 mainIn #connect
1b0 f5 out f8 tail #connect
1b0 f7 mainOut f1 tail #connect
1b0 f1 head f9 mainIn #connect
1b0 f9 mainOut f11 tail #connect
1b0 f11 head g1 m #connect
1b0 f5 out f10 tail #connect
1b0 f10 head f9 mainIn #connect
1b0 0 0 702 446 0 #ivRect
