[Ivy]
[>Created: Mon Jan 13 16:07:18 CET 2014]
12BBECFB097BEF36 3.17 #module
>Proto >Proto Collection #zClass
Mh0 Match Big #zClass
Mh0 B #cInfo
Mh0 #process
Mh0 @InfoButton f51 '' #zField
Mh0 @TextInP .resExport .resExport #zField
Mh0 @TextInP .type .type #zField
Mh0 @TextInP .processKind .processKind #zField
Mh0 @AnnotationInP-0n ai ai #zField
Mh0 @TextInP .xml .xml #zField
Mh0 @TextInP .responsibility .responsibility #zField
Mh0 @StartSub f0 '' #zField
Mh0 @EndSub f1 '' #zField
Mh0 @Page f2 '' #zField
Mh0 @PushWFArc f4 '' #zField
Mh0 @GridStep f5 '' #zField
Mh0 @CallSub f16 '' #zField
Mh0 @CallSub f25 '' #zField
Mh0 @GridStep f10 '' #zField
Mh0 @Alternative f12 '' #zField
Mh0 @PushWFArc f13 '' #zField
Mh0 @CallSub f8 '' #zField
Mh0 @PushWFArc f15 '' #zField
Mh0 @GridStep f17 '' #zField
Mh0 @PushWFArc f18 '' #zField
Mh0 @PushWFArc f14 '' #zField
Mh0 @GridStep f19 '' #zField
Mh0 @PushWFArc f20 '' #zField
Mh0 @PushWFArc f7 '' #zField
Mh0 @GridStep f21 '' #zField
Mh0 @PushWFArc f22 '' #zField
Mh0 @CallSub f24 '' #zField
Mh0 @GridStep f27 '' #zField
Mh0 @PushWFArc f28 '' #zField
Mh0 @PushWFArc f29 '' #zField
Mh0 @Alternative f26 '' #zField
Mh0 @GridStep f31 '' #zField
Mh0 @PushWFArc f3 '' #zField
Mh0 @GridStep f34 '' #zField
Mh0 @GridStep f38 '' #zField
Mh0 @CallSub f41 '' #zField
Mh0 @PushWFArc f36 '' #zField
Mh0 @CallSub f43 '' #zField
Mh0 @GridStep f45 '' #zField
Mh0 @PushWFArc f30 '' #zField
Mh0 @GridStep f39 '' #zField
Mh0 @PushWFArc f48 '' #zField
Mh0 @PushWFArc f49 '' #zField
Mh0 @CallSub f50 '' #zField
Mh0 @GridStep f33 '' #zField
Mh0 @PushWFArc f37 '' #zField
Mh0 @CallSub f42 '' #zField
Mh0 @CallSub f53 '' #zField
Mh0 @PushWFArc f54 '' #zField
Mh0 @PushWFArc f44 '' #zField
Mh0 @Alternative f55 '' #zField
Mh0 @GridStep f56 '' #zField
Mh0 @CallSub f57 '' #zField
Mh0 @PushWFArc f59 '' #zField
Mh0 @PushWFArc f46 '' #zField
Mh0 @PushWFArc f62 '' #zField
Mh0 @PushWFArc f63 '' #zField
Mh0 @PushWFArc f58 '' #zField
Mh0 @Alternative f60 '' #zField
Mh0 @PushWFArc f9 '' #zField
Mh0 @PushWFArc f64 '' #zField
Mh0 @PushWFArc f6 '' #zField
Mh0 @CallSub f61 '' #zField
Mh0 @PushWFArc f68 '' #zField
Mh0 @PushWFArc f67 '' #zField
Mh0 @DBStep f65 '' #zField
Mh0 @PushWFArc f23 '' #zField
Mh0 @PushWFArc f66 '' #zField
Mh0 @Alternative f69 '' #zField
Mh0 @PushWFArc f70 '' #zField
Mh0 @GridStep f71 '' #zField
Mh0 @GridStep f77 '' #zField
Mh0 @PushWFArc f78 '' #zField
Mh0 @PushWFArc f47 '' #zField
Mh0 @PushWFArc f40 '' #zField
Mh0 @Alternative f75 '' #zField
Mh0 @PushWFArc f76 '' #zField
Mh0 @PushWFArc f79 '' #zField
Mh0 @PushWFArc f52 '' #zField
Mh0 @InfoButton f73 '' #zField
Mh0 @AnnotationArc f80 '' #zField
Mh0 @CallSub f81 '' #zField
Mh0 @GridStep f82 '' #zField
Mh0 @Alternative f83 '' #zField
Mh0 @PushWFArc f72 '' #zField
Mh0 @PushWFArc f74 '' #zField
Mh0 @PushWFArc f86 '' #zField
Mh0 @PushWFArc f87 '' #zField
Mh0 @InfoButton f88 '' #zField
Mh0 @AnnotationArc f89 '' #zField
Mh0 @PushWFArc f84 '' #zField
Mh0 @PushWFArc f11 '' #zField
Mh0 @CallSub f90 '' #zField
Mh0 @PushWFArc f92 '' #zField
Mh0 @PushWFArc f85 '' #zField
Mh0 @GridStep f91 '' #zField
Mh0 @PushWFArc f93 '' #zField
Mh0 @GridStep f94 '' #zField
Mh0 @PushWFArc f95 '' #zField
Mh0 @PushWFArc f35 '' #zField
Mh0 @InfoButton f96 '' #zField
Mh0 @AnnotationArc f97 '' #zField
Mh0 @GridStep f98 '' #zField
Mh0 @PushWFArc f99 '' #zField
Mh0 @PushWFArc f32 '' #zField
>Proto Mh0 Mh0 Match #zField
Mh0 f51 @C|.xml '<?xml version="1.0" encoding="UTF-8" standalone="yes"?>
<elementInfo>
    <language>
        <name>16.03.2011 / PB
old methods replaced 
by multi-doc view</name>
        <nameStyle>55
</nameStyle>
    </language>
</elementInfo>
' #txt
Mh0 f51 172 474 168 157 -37 -56 #rect
Mh0 f51 @|IBIcon #fIcon
Mh0 f51 -1|-1|-16777216 #nodeStyle
Mh0 f0 inParamDecl '<ch.soreco.orderbook.bo.Order order,ch.soreco.orderbook.bo.Order filter> param;' #txt
Mh0 f0 inParamTable 'out.order=param.order;
out.orderFilter=param.filter;
out.orderTypeLabel=ivy.cms.co("/ch/soreco/orderbook/enums/OrderType/"+param.order.orderType+"/0_name");
' #txt
Mh0 f0 outParamDecl '<ch.soreco.orderbook.bo.Order order> result;
' #txt
Mh0 f0 outParamTable 'result.order=in.order;
' #txt
Mh0 f0 actionDecl 'ch.soreco.orderbook.ui.Order out;
' #txt
Mh0 f0 callSignature call(ch.soreco.orderbook.bo.Order,ch.soreco.orderbook.bo.Order) #txt
Mh0 f0 type ch.soreco.orderbook.ui.Order #txt
Mh0 f0 @C|.xml '<?xml version="1.0" encoding="UTF-8" standalone="yes"?>
<elementInfo>
    <language>
        <name>call(Order,Order)</name>
        <nameStyle>17,5,7
</nameStyle>
    </language>
</elementInfo>
' #txt
Mh0 f0 467 11 26 26 14 0 #rect
Mh0 f0 @|StartSubIcon #fIcon
Mh0 f1 type ch.soreco.orderbook.ui.Order #txt
Mh0 f1 467 1195 26 26 14 0 #rect
Mh0 f1 @|EndSubIcon #fIcon
Mh0 f2 outTypes "ch.soreco.orderbook.ui.Order","ch.soreco.orderbook.ui.Order","ch.soreco.orderbook.ui.Order","ch.soreco.orderbook.ui.Order","ch.soreco.orderbook.ui.Order","ch.soreco.orderbook.ui.Order" #txt
Mh0 f2 outLinks "exit.ivp","match.ivp","filter.ivp","showFile.ivp","nomatch.ivp","showScanFile.ivp" #txt
Mh0 f2 template "/ProcessPages/Match/Match.ivc" #txt
Mh0 f2 type ch.soreco.orderbook.ui.Order #txt
Mh0 f2 skipLink skip.ivp #txt
Mh0 f2 sortLink sort.ivp #txt
Mh0 f2 templateWizard '#
#Tue Oct 22 11:00:54 CEST 2013
' #txt
Mh0 f2 pageArchivingActivated false #txt
Mh0 f2 @C|.xml '<?xml version="1.0" encoding="UTF-8" standalone="yes"?>
<elementInfo>
    <language>
        <name>Match</name>
        <nameStyle>5
</nameStyle>
    </language>
</elementInfo>
' #txt
Mh0 f2 @C|.responsibility Everybody #txt
Mh0 f2 462 588 36 24 20 -2 #rect
Mh0 f2 @|PageIcon #fIcon
Mh0 f4 expr data #txt
Mh0 f4 outCond ivp=="exit.ivp" #txt
Mh0 f4 480 612 480 1195 #arcP
Mh0 f5 actionDecl 'ch.soreco.orderbook.ui.Order out;
' #txt
Mh0 f5 actionTable 'out=in;
out.matchedOrder.orderId=in.matchedOrder.orderId;
' #txt
Mh0 f5 actionCode 'import ch.soreco.orderbook.enums.OrderState;
import ch.ivyteam.ivy.ext.SessionLockManager;
SessionLockManager lockManager = SessionLockManager.getInstance();

// order must be in a pendant state
/*
if(
	in.matchedOrder.orderState.equals(OrderState.InPendencyCheck.toString())
	|| in.matchedOrder.orderState.equals(OrderState.InPendencyRecordingCheck.toString())
	|| in.matchedOrder.orderState.equals(OrderState.InPendencyRecording.toString())
	|| in.matchedOrder.orderState.equals(OrderState.Pendant.toString())
){
*/
	if(lockManager.isIdLocked(in.matchedOrder.orderId.toString())){
		in.success = false;
		String lockedBy = lockManager.getLockingUser(in.matchedOrder.orderId.toString());
		in.error = "Der Auftrag konnte nicht zusammengeführt werden, da der Auftrag Nr. "+in.matchedOrder.orderId+" bereits von "+lockedBy+" bearbeitet wird";
		for(int i=0;i<in.rsOrdersMatch.size();i++){
			if(in.rsOrdersMatch.getField(i,"orderId").toString().toNumber()==in.matchedOrder.orderId){
				in.rsOrdersMatch.putField(i,"lockedBy",lockedBy);
				}
			}
		}
	else {
		in.success = true;
		in.error = "";
	}
/*
} else {
	in.error = "Der Auftrag konnte nicht zusammengeführt werden, da sich der Auftrag Nr. "+in.matchedOrder.orderId+" nicht mehr in einem Pendenz-Status befindet";
	in.success = false;
	
	for(int i=0;i<in.rsOrdersMatch.size();i++){
	if(in.rsOrdersMatch.getField(i,"orderId").toString().toNumber()==in.matchedOrder.orderId){
		in.rsOrdersMatch.putField(i,"lockedBy", "-");
		}
	}
	
}
*/


' #txt
Mh0 f5 type ch.soreco.orderbook.ui.Order #txt
Mh0 f5 @C|.xml '<?xml version="1.0" encoding="UTF-8" standalone="yes"?>
<elementInfo>
    <language>
        <name>set matched Order and check lock &amp; state</name>
        <nameStyle>40
</nameStyle>
        <desc>18.03.2011 / PB
replace: matchedOrder.orderId = in.rsOrdersMatch.getAt(in.i).getField(&quot;orderId&quot;).toString().toNumber()
value set by form

03.05.2011 / PB
state must be checked</desc>
    </language>
</elementInfo>
' #txt
Mh0 f5 606 644 36 24 20 -2 #rect
Mh0 f5 @|StepIcon #fIcon
Mh0 f16 type ch.soreco.orderbook.ui.Order #txt
Mh0 f16 processCall 'Functional Processes/orderbook/Contact:set(ch.soreco.orderbook.bo.Contact)' #txt
Mh0 f16 doCall true #txt
Mh0 f16 requestActionDecl '<ch.soreco.orderbook.bo.Contact contact> param;
' #txt
Mh0 f16 requestMappingAction 'param.contact=in.currentContact;
' #txt
Mh0 f16 responseActionDecl 'ch.soreco.orderbook.ui.Order out;
' #txt
Mh0 f16 responseMappingAction 'out=in;
out.currentContact=result.contact;
out.error=result.error;
out.success=result.success;
' #txt
Mh0 f16 @C|.xml '<?xml version="1.0" encoding="UTF-8" standalone="yes"?>
<elementInfo>
    <language>
        <name>Save currentContact as Contact to Matched Order</name>
        <nameStyle>47
</nameStyle>
    </language>
</elementInfo>
' #txt
Mh0 f16 606 988 36 24 20 -2 #rect
Mh0 f16 @|CallSubIcon #fIcon
Mh0 f25 type ch.soreco.orderbook.ui.Order #txt
Mh0 f25 processCall 'Functional Processes/orderbook/Order:get(ch.soreco.orderbook.bo.Order)' #txt
Mh0 f25 doCall true #txt
Mh0 f25 requestActionDecl '<ch.soreco.orderbook.bo.Order filter> param;
' #txt
Mh0 f25 requestMappingAction 'param.filter=in.matchedOrder;
' #txt
Mh0 f25 responseActionDecl 'ch.soreco.orderbook.ui.Order out;
' #txt
Mh0 f25 responseMappingAction 'out=in;
out.error=result.error;
out.matchedOrder=result.order;
out.success=result.success;
' #txt
Mh0 f25 @C|.xml '<?xml version="1.0" encoding="UTF-8" standalone="yes"?>
<elementInfo>
    <language>
        <name>get Matched Order</name>
        <nameStyle>17
</nameStyle>
    </language>
</elementInfo>
' #txt
Mh0 f25 606 772 36 24 20 -2 #rect
Mh0 f25 @|CallSubIcon #fIcon
Mh0 f10 actionDecl 'ch.soreco.orderbook.ui.Order out;
' #txt
Mh0 f10 actionTable 'out=in;
out.currentContact=null;
out.currentContact.contactMergedFromOrderId=in.order.orderId;
out.currentContact.contactOrderId=in.matchedOrder.orderId;
out.currentContact.incomeDate=in.order.orderStart;
out.currentContact.scanFileId=in.order.scanFileId;
' #txt
Mh0 f10 type ch.soreco.orderbook.ui.Order #txt
Mh0 f10 @C|.xml '<?xml version="1.0" encoding="UTF-8" standalone="yes"?>
<elementInfo>
    <language>
        <name>set Order Data as Current Contact</name>
        <nameStyle>33,7
</nameStyle>
    </language>
</elementInfo>
' #txt
Mh0 f10 606 892 36 24 20 -2 #rect
Mh0 f10 @|StepIcon #fIcon
Mh0 f12 type ch.soreco.orderbook.ui.Order #txt
Mh0 f12 @C|.xml '<?xml version="1.0" encoding="UTF-8" standalone="yes"?>
<elementInfo>
    <language>
        <name>succesful?</name>
        <nameStyle>10
</nameStyle>
    </language>
</elementInfo>
' #txt
Mh0 f12 610 1034 28 28 14 0 #rect
Mh0 f12 @|AlternativeIcon #fIcon
Mh0 f13 expr out #txt
Mh0 f13 624 1012 624 1034 #arcP
Mh0 f8 type ch.soreco.orderbook.ui.Order #txt
Mh0 f8 processCall 'Functional Processes/orderbook/Order:setPlainOrder(ch.soreco.orderbook.bo.Order)' #txt
Mh0 f8 doCall true #txt
Mh0 f8 requestActionDecl '<ch.soreco.orderbook.bo.Order order> param;
' #txt
Mh0 f8 requestMappingAction 'param.order=in.order;
' #txt
Mh0 f8 responseActionDecl 'ch.soreco.orderbook.ui.Order out;
' #txt
Mh0 f8 responseMappingAction 'out=in;
out.error=result.error;
out.order=result.order;
out.success=result.success;
' #txt
Mh0 f8 @C|.xml '<?xml version="1.0" encoding="UTF-8" standalone="yes"?>
<elementInfo>
    <language>
        <name>save old order (state:Matched)</name>
        <nameStyle>30,7
</nameStyle>
    </language>
</elementInfo>
' #txt
Mh0 f8 606 1132 36 24 20 -2 #rect
Mh0 f8 @|CallSubIcon #fIcon
Mh0 f15 expr in #txt
Mh0 f15 610 1048 486 612 #arcP
Mh0 f15 1 544 1048 #addKink
Mh0 f15 2 544 720 #addKink
Mh0 f15 1 0.49305504433689834 0 0 #arcLabel
Mh0 f17 actionDecl 'ch.soreco.orderbook.ui.Order out;
' #txt
Mh0 f17 actionTable 'out=in;
out.order.BPId=in.matchedOrder.BPId;
out.order.matchedToOrder=in.matchedOrder.orderId;
out.order.orderEnd=new DateTime();
out.order.orderState=ch.soreco.orderbook.enums.OrderState.Merged.toString();
' #txt
Mh0 f17 type ch.soreco.orderbook.ui.Order #txt
Mh0 f17 @C|.xml '<?xml version="1.0" encoding="UTF-8" standalone="yes"?>
<elementInfo>
    <language>
        <name>set matched</name>
        <nameStyle>11
</nameStyle>
        <desc>as of 16.12.2011
set to Matched state</desc>
    </language>
</elementInfo>
' #txt
Mh0 f17 606 1084 36 24 20 -2 #rect
Mh0 f17 @|StepIcon #fIcon
Mh0 f18 expr in #txt
Mh0 f18 outCond in.success #txt
Mh0 f18 624 1062 624 1084 #arcP
Mh0 f14 expr out #txt
Mh0 f14 624 1108 624 1132 #arcP
Mh0 f19 actionDecl 'ch.soreco.orderbook.ui.Order out;
' #txt
Mh0 f19 actionTable 'out=in;
' #txt
Mh0 f19 actionCode 'in.matchedOrder.contacts.add(in.currentContact);
in.order.matchedToOrder = in.matchedOrder.orderId;' #txt
Mh0 f19 type ch.soreco.orderbook.ui.Order #txt
Mh0 f19 @C|.xml '<?xml version="1.0" encoding="UTF-8" standalone="yes"?>
<elementInfo>
    <language>
        <name>add to matched Order</name>
        <nameStyle>20
</nameStyle>
    </language>
</elementInfo>
' #txt
Mh0 f19 606 940 36 24 20 -2 #rect
Mh0 f19 @|StepIcon #fIcon
Mh0 f20 expr out #txt
Mh0 f20 624 916 624 940 #arcP
Mh0 f7 expr out #txt
Mh0 f7 624 964 624 988 #arcP
Mh0 f21 actionDecl 'ch.soreco.orderbook.ui.Order out;
' #txt
Mh0 f21 actionTable 'out=in;
out.order=in.matchedOrder;
' #txt
Mh0 f21 actionCode 'import ch.ivyteam.ivy.ext.SessionLockManager;
import ch.soreco.orderbook.ui.enums.ViewType;

SessionLockManager lockManager = SessionLockManager.getInstance();
Boolean lockable = false;
lockable = lockManager.lockIdForSession(in.matchedOrder.orderId.toString(), ivy.session);
if(!lockable) {
	ivy.log.info("Could''nt get lock for "+in.matchedOrder.orderId+" by session id "+ivy.session.getIdentifier());		
	in.eViewType = ViewType.READ;
	}
else {
	ivy.log.info("Locked "+in.matchedOrder.orderId+" by session id "+ivy.session.getIdentifier()+" in application "+ivy.request.getApplication().getName());
}' #txt
Mh0 f21 type ch.soreco.orderbook.ui.Order #txt
Mh0 f21 @C|.xml '<?xml version="1.0" encoding="UTF-8" standalone="yes"?>
<elementInfo>
    <language>
        <name>set matched as order</name>
        <nameStyle>20,7
</nameStyle>
    </language>
</elementInfo>
' #txt
Mh0 f21 606 1196 36 24 20 -2 #rect
Mh0 f21 @|StepIcon #fIcon
Mh0 f22 expr out #txt
Mh0 f22 624 1156 624 1196 #arcP
Mh0 f24 type ch.soreco.orderbook.ui.Order #txt
Mh0 f24 processCall 'Functional Processes/orderbook/OrderBook:call(ch.soreco.orderbook.bo.Order)' #txt
Mh0 f24 doCall true #txt
Mh0 f24 requestActionDecl '<ch.soreco.orderbook.bo.Order filter> param;
' #txt
Mh0 f24 requestMappingAction 'param.filter=in.orderFilter;
' #txt
Mh0 f24 responseActionDecl 'ch.soreco.orderbook.ui.Order out;
' #txt
Mh0 f24 responseMappingAction 'out=in;
out.error=result.error;
out.i=0;
out.orderBook=result.orderBook;
out.rsOrdersMatch=result.rsOrderBook;
out.success=result.success;
' #txt
Mh0 f24 @C|.xml '<?xml version="1.0" encoding="UTF-8" standalone="yes"?>
<elementInfo>
    <language>
        <name>get OrderBook Values</name>
        <nameStyle>20
</nameStyle>
    </language>
</elementInfo>
' #txt
Mh0 f24 462 308 36 24 20 -2 #rect
Mh0 f24 @|CallSubIcon #fIcon
Mh0 f27 actionDecl 'ch.soreco.orderbook.ui.Order out;
' #txt
Mh0 f27 actionTable 'out=in;
' #txt
Mh0 f27 type ch.soreco.orderbook.ui.Order #txt
Mh0 f27 358 500 36 24 20 -2 #rect
Mh0 f27 @|StepIcon #fIcon
Mh0 f28 expr data #txt
Mh0 f28 outCond ivp=="filter.ivp" #txt
Mh0 f28 462 600 376 524 #arcP
Mh0 f28 1 376 600 #addKink
Mh0 f28 0 0.9084715599858657 0 0 #arcLabel
Mh0 f29 expr out #txt
Mh0 f29 376 500 462 320 #arcP
Mh0 f29 1 376 320 #addKink
Mh0 f29 1 0.0022145437565978267 0 0 #arcLabel
Mh0 f26 type ch.soreco.orderbook.ui.Order #txt
Mh0 f26 466 506 28 28 14 0 #rect
Mh0 f26 @|AlternativeIcon #fIcon
Mh0 f31 actionDecl 'ch.soreco.orderbook.ui.Order out;
' #txt
Mh0 f31 actionTable 'out=in;
out.currentContact=null;
out.currentContact.contactMergedFromOrderId=in.order.orderId;
out.currentContact.contactOrderId=in.order.orderId;
out.currentContact.incomeDate=in.order.orderStart;
out.currentContact.scanFileId=in.order.scanFileId;
' #txt
Mh0 f31 type ch.soreco.orderbook.ui.Order #txt
Mh0 f31 @C|.xml '<?xml version="1.0" encoding="UTF-8" standalone="yes"?>
<elementInfo>
    <language>
        <name>set scanFile of this order 
as contactOfMatched order</name>
        <nameStyle>53,7
</nameStyle>
    </language>
</elementInfo>
' #txt
Mh0 f31 1038 660 36 24 20 -2 #rect
Mh0 f31 @|StepIcon #fIcon
Mh0 f3 expr in #txt
Mh0 f3 480 534 480 588 #arcP
Mh0 f34 actionDecl 'ch.soreco.orderbook.ui.Order out;
' #txt
Mh0 f34 actionTable 'out=in;
out.matchedOrder=in.order;
' #txt
Mh0 f34 type ch.soreco.orderbook.ui.Order #txt
Mh0 f34 @C|.xml '<?xml version="1.0" encoding="UTF-8" standalone="yes"?>
<elementInfo>
    <language>
        <name>set this Order as Matched Order</name>
        <nameStyle>31
</nameStyle>
    </language>
</elementInfo>
' #txt
Mh0 f34 1038 540 36 24 20 -2 #rect
Mh0 f34 @|StepIcon #fIcon
Mh0 f38 actionDecl 'ch.soreco.orderbook.ui.Order out;
' #txt
Mh0 f38 actionTable 'out=in;
' #txt
Mh0 f38 actionCode 'import ch.soreco.orderbook.bo.Contact;
Boolean isAlreadyAContact = false;
for(Contact contact :in.matchedOrder.contacts){
	if(contact.contactMergedFromOrderId==in.order.orderId) {
		isAlreadyAContact = true;
		break;
		}
	}
if(!isAlreadyAContact) {
	in.matchedOrder.contacts.add(in.currentContact);
	}

' #txt
Mh0 f38 type ch.soreco.orderbook.ui.Order #txt
Mh0 f38 @C|.xml '<?xml version="1.0" encoding="UTF-8" standalone="yes"?>
<elementInfo>
    <language>
        <name>add to matched Order
and set editor</name>
        <nameStyle>35,7
</nameStyle>
    </language>
</elementInfo>
' #txt
Mh0 f38 1038 724 36 24 20 -2 #rect
Mh0 f38 @|StepIcon #fIcon
Mh0 f41 type ch.soreco.orderbook.ui.Order #txt
Mh0 f41 processCall 'Functional Processes/orderbook/Order:set(ch.soreco.orderbook.bo.Order)' #txt
Mh0 f41 doCall true #txt
Mh0 f41 requestActionDecl '<ch.soreco.orderbook.bo.Order order> param;
' #txt
Mh0 f41 requestMappingAction 'param.order=in.matchedOrder;
' #txt
Mh0 f41 responseActionDecl 'ch.soreco.orderbook.ui.Order out;
' #txt
Mh0 f41 responseMappingAction 'out=in;
out.error=result.error;
out.order=result.order;
out.success=result.success;
' #txt
Mh0 f41 @C|.xml '<?xml version="1.0" encoding="UTF-8" standalone="yes"?>
<elementInfo>
    <language>
        <name>set order as order</name>
        <nameStyle>18
</nameStyle>
    </language>
</elementInfo>
' #txt
Mh0 f41 1038 772 36 24 20 -2 #rect
Mh0 f41 @|CallSubIcon #fIcon
Mh0 f36 expr out #txt
Mh0 f36 1056 796 642 1208 #arcP
Mh0 f36 1 1056 1208 #addKink
Mh0 f36 1 0.12222527100559964 0 0 #arcLabel
Mh0 f43 type ch.soreco.orderbook.ui.Order #txt
Mh0 f43 processCall 'Functional Processes/common/File:show(ch.soreco.common.bo.File)' #txt
Mh0 f43 doCall true #txt
Mh0 f43 requestActionDecl '<ch.soreco.common.bo.File filter> param;
' #txt
Mh0 f43 requestMappingAction 'param.filter.fileId=in.rsOrdersMatch.getField(in.i,"scanFileId").toString().toNumber();
' #txt
Mh0 f43 responseActionDecl 'ch.soreco.orderbook.ui.Order out;
' #txt
Mh0 f43 responseMappingAction 'out=in;
' #txt
Mh0 f43 @C|.xml '<?xml version="1.0" encoding="UTF-8" standalone="yes"?>
<elementInfo>
    <language>
        <name>Show MatchOrderScanFile</name>
        <nameStyle>23
</nameStyle>
    </language>
</elementInfo>
' #txt
Mh0 f43 190 564 36 24 20 -2 #rect
Mh0 f43 @|CallSubIcon #fIcon
Mh0 f43 -65536|-1|-16777216 #nodeStyle
Mh0 f45 actionDecl 'ch.soreco.orderbook.ui.Order out;
' #txt
Mh0 f45 actionTable 'out=in;
out.i=0;
' #txt
Mh0 f45 actionCode 'import java.util.HashMap;
import ch.soreco.orderbook.bo.Order;
import ch.soreco.orderbook.bo.Contact;
import ch.soreco.orderbook.bo.Paper;
import ch.soreco.orderbook.bo.SignatureRequest;
import ch.soreco.orderbook.enums.OrderState;
import ch.ivyteam.ivy.ext.SessionLockManager;

Recordset rsOrders = new Recordset();

//"Pendent", "In Pendenzprüfung", "In Pendenzbearbeitung", "In Abbruchprüfung"
List<String> addables = new List<String>();
addables.add(OrderState.Dispatched.toString());
addables.add(OrderState.Recording.toString());
addables.add(OrderState.InCheck.toString());
addables.add(OrderState.InIdCheck.toString());
addables.add(OrderState.In4eCheck.toString());
addables.add(OrderState.InAbortCheck.toString());

addables.add(OrderState.Pendant.toString());
addables.add(OrderState.InPendencyCheck.toString());
addables.add(OrderState.InPendencyRecording.toString());
addables.add(OrderState.InPendencyRecordingCheck.toString());

// 18.03.2011 / PB set text of requested field
HashMap hMap = new HashMap();
HashMap hMapDate = new HashMap();
HashMap hMapLastOrderId = new HashMap();

for(Order cOrder : in.orderBook){

		if(cOrder.contacts.size() > 0){
			
		if(cOrder.orderId == cOrder.matchedToOrder){
			
		Contact cContact = cOrder.contacts.get(0) as Contact;
		hMapLastOrderId.put(cOrder.orderId,cContact.contactMergedFromOrderId);
		hMapDate.put(cOrder.orderId, cContact.incomeDate);
			boolean lastSigRequest = false;
					if(cContact.signatures.size() > 0){
						SignatureRequest lastSig = cContact.signatures.get(cContact.signatures.size() - 1) as SignatureRequest;
						if(lastSig.isRequested){
							lastSigRequest = lastSig.isRequested;
							hMap.put(cOrder.orderId,"Unterschrift");
							hMapDate.remove(cOrder.orderId);
							hMapDate.put(cOrder.orderId, lastSig.signatureRequestDate);
						} 
					}
					if(cContact.papers.size() > 0) {
						
						Paper lastPaper = cContact.papers.get(cContact.papers.size() - 1) as Paper;
												
						if(lastPaper.individualPaperType.trim().length() > 0){
							hMap.remove(cOrder.orderId);
							hMap.put(cOrder.orderId,lastPaper.individualPaperType);
							hMapDate.remove(cOrder.orderId);
							hMapDate.put(cOrder.orderId, lastPaper.paperRequestDate);
						} else if(lastPaper.standardPaperType.trim().length() > 0 && !lastPaper.standardPaperType.trim().equalsIgnoreCase("Default")){
							hMap.remove(cOrder.orderId);
							String paperType = ivy.cms.co("/ch/soreco/orderbook/enums/StandardPaperType/"+lastPaper.standardPaperType+"/0_name");
							hMap.put(cOrder.orderId,paperType);
						} else if(lastPaper.isPaper && lastSigRequest){
							hMap.remove(cOrder.orderId);
							hMap.put(cOrder.orderId,"Unterschrift und zusätzliche Unterlagen");
						} else	if(lastPaper.isCRMIssued){
							hMap.remove(cOrder.orderId);
							hMap.put(cOrder.orderId,"Zusätzliche Unterlagen");
						} 										

					}
		}

	}
}

SessionLockManager lockManager = SessionLockManager.getInstance();

for(Record rec:in.rsOrdersMatch.getRecords()){
	String lockedBy = lockManager.getLockingUser(rec.getField("orderId").toString());
	String state = rec.getField("orderState").toString();
	if(addables.indexOf(state)>-1 && in.order.orderId != rec.getField("orderId")){
			rec.putField("lockedBy", lockedBy);
			if(hMap.get(rec.getField("orderId")).toString().length() > 0){
				rec.putField("requested", hMap.get(rec.getField("orderId")));
				rec.putField("requestDate",	hMapDate.get(rec.getField("orderId")));
			} else {
				rec.putField("requested", "");
				rec.putField("requestDate",	"");				
			}

			rec.putField("lastOrderId",hMapLastOrderId.get(rec.getField("orderId")));
			rsOrders.add(rec);
		}
	}
out.rsOrdersMatch = rsOrders;' #txt
Mh0 f45 type ch.soreco.orderbook.ui.Order #txt
Mh0 f45 @C|.xml '<?xml version="1.0" encoding="UTF-8" standalone="yes"?>
<elementInfo>
    <language>
        <name>remove not matchable Records
reset i</name>
        <nameStyle>36,7
</nameStyle>
    </language>
</elementInfo>
' #txt
Mh0 f45 462 452 36 24 20 -2 #rect
Mh0 f45 @|StepIcon #fIcon
Mh0 f30 expr out #txt
Mh0 f30 480 476 480 506 #arcP
Mh0 f39 actionDecl 'ch.soreco.orderbook.ui.Order out;
' #txt
Mh0 f39 actionTable 'out=in;
' #txt
Mh0 f39 type ch.soreco.orderbook.ui.Order #txt
Mh0 f39 @C|.xml '<?xml version="1.0" encoding="UTF-8" standalone="yes"?>
<elementInfo>
    <language>
        <name>no match!</name>
        <nameStyle>9
</nameStyle>
    </language>
</elementInfo>
' #txt
Mh0 f39 606 540 36 24 20 -2 #rect
Mh0 f39 @|StepIcon #fIcon
Mh0 f48 expr data #txt
Mh0 f48 outCond ivp=="nomatch.ivp" #txt
Mh0 f48 496 588 606 552 #arcP
Mh0 f48 1 544 552 #addKink
Mh0 f48 0 0.9597719015364328 0 0 #arcLabel
Mh0 f49 expr out #txt
Mh0 f49 642 552 1038 552 #arcP
Mh0 f50 type ch.soreco.orderbook.ui.Order #txt
Mh0 f50 processCall 'Functional Processes/common/File:show(ch.soreco.common.bo.File)' #txt
Mh0 f50 doCall true #txt
Mh0 f50 requestActionDecl '<ch.soreco.common.bo.File filter> param;
' #txt
Mh0 f50 requestMappingAction 'param.filter.fileId=in.order.scanFileId;
' #txt
Mh0 f50 responseActionDecl 'ch.soreco.orderbook.ui.Order out;
' #txt
Mh0 f50 responseMappingAction 'out=in;
' #txt
Mh0 f50 @C|.xml '<?xml version="1.0" encoding="UTF-8" standalone="yes"?>
<elementInfo>
    <language>
        <name>Show ScanFile</name>
        <nameStyle>13
</nameStyle>
    </language>
</elementInfo>
' #txt
Mh0 f50 190 596 36 24 20 -2 #rect
Mh0 f50 @|CallSubIcon #fIcon
Mh0 f50 -65536|-1|-16777216 #nodeStyle
Mh0 f33 actionDecl 'ch.soreco.orderbook.ui.Order out;
' #txt
Mh0 f33 actionTable 'out=in;
out.matchedOrder.editorUserId=ivy.session.getSessionUserName();
out.matchedOrder.orderState=ch.soreco.orderbook.enums.OrderState.Recording.toString();
' #txt
Mh0 f33 actionCode '//set the matched order to the greater quantity type
//e.g. order has "A" and matched order has "B"->resulting order quantity type is "A"
if(in.matchedOrder.orderQuantityType.equals("")||in.matchedOrder.orderQuantityType>in.order.orderQuantityType){
	out.matchedOrder.orderQuantityType = in.order.orderQuantityType;
	}
' #txt
Mh0 f33 type ch.soreco.orderbook.ui.Order #txt
Mh0 f33 @C|.xml '<?xml version="1.0" encoding="UTF-8" standalone="yes"?>
<elementInfo>
    <language>
        <name>set Matched Order to State Recording</name>
        <nameStyle>36
</nameStyle>
    </language>
</elementInfo>
' #txt
Mh0 f33 606 812 36 24 20 -2 #rect
Mh0 f33 @|StepIcon #fIcon
Mh0 f37 expr out #txt
Mh0 f37 624 796 624 812 #arcP
Mh0 f42 type ch.soreco.orderbook.ui.Order #txt
Mh0 f42 processCall 'Start Processes/Archive/CheckDocuments:call(ch.soreco.orderbook.ui.enums.ViewType,Integer,String)' #txt
Mh0 f42 doCall true #txt
Mh0 f42 requestActionDecl '<ch.soreco.orderbook.ui.enums.ViewType viewType,java.lang.Integer orderId,java.lang.String uiType> param;
' #txt
Mh0 f42 requestMappingAction 'param.viewType=ch.soreco.orderbook.ui.enums.ViewType.READ;
param.orderId=in.rsOrdersMatch.getField(in.i,"lastOrderId").toString().toNumber() > 0 ? in.rsOrdersMatch.getField(in.i,"lastOrderId").toString().toNumber() : in.rsOrdersMatch.getField(in.i,"orderId").toString().toNumber();
param.uiType="SCANPLAIN";
' #txt
Mh0 f42 responseActionDecl 'ch.soreco.orderbook.ui.Order out;
' #txt
Mh0 f42 responseMappingAction 'out=in;
' #txt
Mh0 f42 @C|.xml '<?xml version="1.0" encoding="UTF-8" standalone="yes"?>
<elementInfo>
    <language>
        <name>showMatchOrderScanFile</name>
        <nameStyle>22,5,7
</nameStyle>
    </language>
</elementInfo>
' #txt
Mh0 f42 190 652 36 24 20 -2 #rect
Mh0 f42 @|CallSubIcon #fIcon
Mh0 f53 type ch.soreco.orderbook.ui.Order #txt
Mh0 f53 processCall 'Start Processes/Archive/CheckDocuments:call(ch.soreco.orderbook.ui.enums.ViewType,Integer,String)' #txt
Mh0 f53 doCall true #txt
Mh0 f53 requestActionDecl '<ch.soreco.orderbook.ui.enums.ViewType viewType,java.lang.Integer orderId,java.lang.String uiType> param;
' #txt
Mh0 f53 requestMappingAction 'param.viewType=ch.soreco.orderbook.ui.enums.ViewType.READ;
param.orderId=in.order.orderId;
param.uiType="SCANPLAIN";
' #txt
Mh0 f53 responseActionDecl 'ch.soreco.orderbook.ui.Order out;
' #txt
Mh0 f53 responseMappingAction 'out=in;
' #txt
Mh0 f53 @C|.xml '<?xml version="1.0" encoding="UTF-8" standalone="yes"?>
<elementInfo>
    <language>
        <name>show ScanFile</name>
        <nameStyle>13,5,7
</nameStyle>
    </language>
</elementInfo>
' #txt
Mh0 f53 190 700 36 24 20 -2 #rect
Mh0 f53 @|CallSubIcon #fIcon
Mh0 f54 expr data #txt
Mh0 f54 outCond ivp=="showFile.ivp" #txt
Mh0 f54 468 612 226 664 #arcP
Mh0 f54 1 416 664 #addKink
Mh0 f54 1 0.07083334691730749 0 0 #arcLabel
Mh0 f44 expr data #txt
Mh0 f44 outCond ivp=="showScanFile.ivp" #txt
Mh0 f44 474 612 226 712 #arcP
Mh0 f44 1 424 712 #addKink
Mh0 f44 0 0.8011077447684998 0 0 #arcLabel
Mh0 f55 type ch.soreco.orderbook.ui.Order #txt
Mh0 f55 @C|.xml '<?xml version="1.0" encoding="UTF-8" standalone="yes"?>
<elementInfo>
    <language>
        <name>loop matched orders for full data</name>
        <nameStyle>33
</nameStyle>
    </language>
</elementInfo>
' #txt
Mh0 f55 466 362 28 28 16 -31 #rect
Mh0 f55 @|AlternativeIcon #fIcon
Mh0 f56 actionDecl 'ch.soreco.orderbook.ui.Order out;
' #txt
Mh0 f56 actionTable 'out=in;
out.i=in.i + 1;
' #txt
Mh0 f56 type ch.soreco.orderbook.ui.Order #txt
Mh0 f56 @C|.xml '<?xml version="1.0" encoding="UTF-8" standalone="yes"?>
<elementInfo>
    <language>
        <name>i++</name>
        <nameStyle>3
</nameStyle>
    </language>
</elementInfo>
' #txt
Mh0 f56 582 420 36 24 20 -2 #rect
Mh0 f56 @|StepIcon #fIcon
Mh0 f57 type ch.soreco.orderbook.ui.Order #txt
Mh0 f57 processCall 'Functional Processes/orderbook/Order:get(ch.soreco.orderbook.bo.Order)' #txt
Mh0 f57 doCall true #txt
Mh0 f57 requestActionDecl '<ch.soreco.orderbook.bo.Order filter> param;
' #txt
Mh0 f57 requestMappingAction 'param.filter.orderId=in.orderBook.get(in.i).orderId;
' #txt
Mh0 f57 responseActionDecl 'ch.soreco.orderbook.ui.Order out;
' #txt
Mh0 f57 responseMappingAction 'out=in;
out.orderBook=in.orderBook.removeAt(in.i).add(in.i,result.order);
' #txt
Mh0 f57 @C|.xml '<?xml version="1.0" encoding="UTF-8" standalone="yes"?>
<elementInfo>
    <language>
        <name>get order</name>
        <nameStyle>9
</nameStyle>
    </language>
</elementInfo>
' #txt
Mh0 f57 582 364 36 24 20 -2 #rect
Mh0 f57 @|CallSubIcon #fIcon
Mh0 f59 expr out #txt
Mh0 f59 480 332 480 362 #arcP
Mh0 f46 expr in #txt
Mh0 f46 outCond 'in.i < in.orderBook.size()' #txt
Mh0 f46 494 376 582 376 #arcP
Mh0 f62 expr out #txt
Mh0 f62 582 432 486 384 #arcP
Mh0 f62 1 520 432 #addKink
Mh0 f62 0 0.675751530609978 0 0 #arcLabel
Mh0 f63 expr in #txt
Mh0 f63 480 390 480 452 #arcP
Mh0 f63 0 0.7231936486691166 0 0 #arcLabel
Mh0 f58 expr out #txt
Mh0 f58 600 388 600 420 #arcP
Mh0 f58 0 0.06164593767809521 0 0 #arcLabel
Mh0 f60 type ch.soreco.orderbook.ui.Order #txt
Mh0 f60 @C|.xml '<?xml version="1.0" encoding="UTF-8" standalone="yes"?>
<elementInfo>
    <language>
        <name>valid order?</name>
        <nameStyle>12
</nameStyle>
    </language>
</elementInfo>
' #txt
Mh0 f60 610 698 28 28 14 0 #rect
Mh0 f60 @|AlternativeIcon #fIcon
Mh0 f9 expr in #txt
Mh0 f9 outCond in.success #txt
Mh0 f9 624 726 624 772 #arcP
Mh0 f64 expr in #txt
Mh0 f64 610 712 490 612 #arcP
Mh0 f64 1 576 712 #addKink
Mh0 f64 1 0.4620921358622809 0 0 #arcLabel
Mh0 f6 expr out #txt
Mh0 f6 624 668 624 698 #arcP
Mh0 f61 type ch.soreco.orderbook.ui.Order #txt
Mh0 f61 processCall 'Functional Processes/orderbook/Order:getOrderState(ch.soreco.orderbook.bo.Order)' #txt
Mh0 f61 doCall true #txt
Mh0 f61 requestActionDecl '<ch.soreco.orderbook.bo.Order Order> param;
' #txt
Mh0 f61 requestMappingAction 'param.Order.orderId=in.matchedOrder.orderId;
' #txt
Mh0 f61 responseActionDecl 'ch.soreco.orderbook.ui.Order out;
' #txt
Mh0 f61 responseMappingAction 'out=in;
out.error=result.error;
out.matchedOrder.orderState=result.OrderState;
out.success=result.success;
' #txt
Mh0 f61 @C|.xml '<?xml version="1.0" encoding="UTF-8" standalone="yes"?>
<elementInfo>
    <language>
        <name>getOrderState(Order)</name>
    </language>
</elementInfo>
' #txt
Mh0 f61 606 588 36 24 20 -2 #rect
Mh0 f61 @|CallSubIcon #fIcon
Mh0 f68 expr data #txt
Mh0 f68 outCond ivp=="match.ivp" #txt
Mh0 f68 498 600 606 600 #arcP
Mh0 f67 expr out #txt
Mh0 f67 624 612 624 644 #arcP
Mh0 f65 actionDecl 'ch.soreco.orderbook.ui.Order out;
' #txt
Mh0 f65 actionTable 'out=in;
' #txt
Mh0 f65 dbExceptionId '>> Ignore Exception' #txt
Mh0 f65 dbSql '<?xml version=""1.0"" standalone=""no""?>
<!DOCTYPE ANY_SQL SYSTEM  ""sqlStatements.dtd"">
<ANY_SQL><Verbatim quote=''true''>update tbl_Contacts set incomeDate = convert(datetime, in.order.orderStart,  121)
where contactMergedfromOrderId = in.order.orderId</Verbatim></ANY_SQL>' #txt
Mh0 f65 dbUrl bzp_ivy_daten #txt
Mh0 f65 cache '{/cache false /invalidation false /scope 0 /groupname ""/lifetime_group "0"/invalidation_time_group ""/identifier ""/lifetime_entry "0"/invalidation_time_entry ""}' #txt
Mh0 f65 dbWizard 'update tbl_Contacts set incomeDate = convert(datetime, in.order.orderStart,  121)
where contactMergedfromOrderId = in.order.orderId' #txt
Mh0 f65 lotSize 2147483647 #txt
Mh0 f65 startIdx 0 #txt
Mh0 f65 type ch.soreco.orderbook.ui.Order #txt
Mh0 f65 @C|.xml '<?xml version="1.0" encoding="UTF-8" standalone="yes"?>
<elementInfo>
    <language>
        <name>fix incomedate</name>
        <nameStyle>14
</nameStyle>
    </language>
</elementInfo>
' #txt
Mh0 f65 534 1252 36 24 20 -2 #rect
Mh0 f65 @|DBStepIcon #fIcon
Mh0 f65 -613726|-1|-16777216 #nodeStyle
Mh0 f23 expr out #txt
Mh0 f23 537 1252 490 1215 #arcP
Mh0 f66 expr out #txt
Mh0 f66 609 1220 567 1252 #arcP
Mh0 f69 type ch.soreco.orderbook.ui.Order #txt
Mh0 f69 @C|.xml '<?xml version="1.0" encoding="UTF-8" standalone="yes"?>
<elementInfo>
    <language>
        <name>has multiple contacts?</name>
        <nameStyle>22,7
</nameStyle>
    </language>
</elementInfo>
' #txt
Mh0 f69 610 850 28 28 14 0 #rect
Mh0 f69 @|AlternativeIcon #fIcon
Mh0 f70 expr out #txt
Mh0 f70 624 836 624 850 #arcP
Mh0 f71 actionDecl 'ch.soreco.orderbook.ui.Order out;
' #txt
Mh0 f71 actionTable 'out=in;
' #txt
Mh0 f71 actionCode 'import ch.soreco.orderbook.bo.Contact;

in.currentContact = in.order.contacts.get(in.i) as Contact;

in.currentContact.contactOrderId = in.matchedOrder.orderId;
//in.currentContact.contactMergedFromOrderId = in.order.orderId;//in.matchedOrder.orderId;
in.currentContact.contactId = null;

in.matchedOrder.contacts.add(in.currentContact); // befor: addAll in.order.contacts
in.order.matchedToOrder = in.matchedOrder.orderId;

' #txt
Mh0 f71 type ch.soreco.orderbook.ui.Order #txt
Mh0 f71 @C|.xml '<?xml version="1.0" encoding="UTF-8" standalone="yes"?>
<elementInfo>
    <language>
        <name>copy contact</name>
        <nameStyle>12,7
</nameStyle>
    </language>
</elementInfo>
' #txt
Mh0 f71 830 932 36 24 20 -2 #rect
Mh0 f71 @|StepIcon #fIcon
Mh0 f71 -613726|-1|-16777216 #nodeStyle
Mh0 f77 actionDecl 'ch.soreco.orderbook.ui.Order out;
' #txt
Mh0 f77 actionTable 'out=in;
' #txt
Mh0 f77 actionCode 'in.matchedOrder.editorUserId = ivy.session.getSessionUserName();
in.matchedOrder.matchedToOrder = in.order.orderId;' #txt
Mh0 f77 type ch.soreco.orderbook.ui.Order #txt
Mh0 f77 @C|.xml '<?xml version="1.0" encoding="UTF-8" standalone="yes"?>
<elementInfo>
    <language>
        <name>set matchedToOrder
set editor</name>
        <nameStyle>29,7
</nameStyle>
    </language>
</elementInfo>
' #txt
Mh0 f77 1254 724 36 24 20 -2 #rect
Mh0 f77 @|StepIcon #fIcon
Mh0 f78 expr out #txt
Mh0 f78 1074 736 1254 736 #arcP
Mh0 f47 expr out #txt
Mh0 f47 1272 748 1074 784 #arcP
Mh0 f47 1 1272 784 #addKink
Mh0 f47 1 0.37997535524188547 0 0 #arcLabel
Mh0 f40 expr out #txt
Mh0 f40 1056 684 1056 724 #arcP
Mh0 f75 type ch.soreco.orderbook.ui.Order #txt
Mh0 f75 @C|.xml '<?xml version="1.0" encoding="UTF-8" standalone="yes"?>
<elementInfo>
    <language>
        <name>already has contacts?</name>
        <nameStyle>21,7
</nameStyle>
    </language>
</elementInfo>
' #txt
Mh0 f75 1042 594 28 28 14 0 #rect
Mh0 f75 @|AlternativeIcon #fIcon
Mh0 f76 expr out #txt
Mh0 f76 1056 564 1056 594 #arcP
Mh0 f76 0 0.5020815935538564 0 0 #arcLabel
Mh0 f79 expr in #txt
Mh0 f79 outCond 'in.matchedOrder.contacts.size() > 0' #txt
Mh0 f79 1070 608 1272 724 #arcP
Mh0 f79 1 1272 608 #addKink
Mh0 f79 0 0.78585024154529 0 0 #arcLabel
Mh0 f52 expr in #txt
Mh0 f52 1056 622 1056 660 #arcP
Mh0 f73 @C|.xml '<?xml version="1.0" encoding="UTF-8" standalone="yes"?>
<elementInfo>
    <language>
        <name>Fix for ITS-983 / PB / 14.11.2011
if an order already has contacts =&gt; don''t create a new contact
befor fix: problem after merge, one contact was created empty</name>
        <nameStyle>158,7
</nameStyle>
    </language>
</elementInfo>
' #txt
Mh0 f73 1298 578 60 60 -15 -24 #rect
Mh0 f73 @|IBIcon #fIcon
Mh0 f73 -1|-1|-16777216 #nodeStyle
Mh0 f80 1298 608 1070 608 #arcP
Mh0 f81 type ch.soreco.orderbook.ui.Order #txt
Mh0 f81 processCall 'Functional Processes/orderbook/Contact:set(ch.soreco.orderbook.bo.Contact)' #txt
Mh0 f81 doCall true #txt
Mh0 f81 requestActionDecl '<ch.soreco.orderbook.bo.Contact contact> param;
' #txt
Mh0 f81 requestMappingAction 'param.contact=in.currentContact;
' #txt
Mh0 f81 responseActionDecl 'ch.soreco.orderbook.ui.Order out;
' #txt
Mh0 f81 responseMappingAction 'out=in;
out.success=result.success;
' #txt
Mh0 f81 @C|.xml '<?xml version="1.0" encoding="UTF-8" standalone="yes"?>
<elementInfo>
    <language>
        <name>set(Contact)</name>
        <nameStyle>12,5,7
</nameStyle>
    </language>
</elementInfo>
' #txt
Mh0 f81 950 932 36 24 20 -2 #rect
Mh0 f81 @|CallSubIcon #fIcon
Mh0 f82 actionDecl 'ch.soreco.orderbook.ui.Order out;
' #txt
Mh0 f82 actionTable 'out=in;
out.i=in.i + 1;
' #txt
Mh0 f82 type ch.soreco.orderbook.ui.Order #txt
Mh0 f82 @C|.xml '<?xml version="1.0" encoding="UTF-8" standalone="yes"?>
<elementInfo>
    <language>
        <name>i++</name>
        <nameStyle>3,7
</nameStyle>
    </language>
</elementInfo>
' #txt
Mh0 f82 950 852 36 24 20 -2 #rect
Mh0 f82 @|StepIcon #fIcon
Mh0 f83 type ch.soreco.orderbook.ui.Order #txt
Mh0 f83 834 850 28 28 14 0 #rect
Mh0 f83 @|AlternativeIcon #fIcon
Mh0 f72 expr in #txt
Mh0 f72 outCond 'in.i < in.order.contacts.size() && in.success' #txt
Mh0 f72 848 878 848 932 #arcP
Mh0 f74 expr out #txt
Mh0 f74 968 932 968 876 #arcP
Mh0 f86 expr out #txt
Mh0 f86 950 864 862 864 #arcP
Mh0 f87 expr in #txt
Mh0 f87 839 869 638 1048 #arcP
Mh0 f87 1 808 888 #addKink
Mh0 f87 2 808 1048 #addKink
Mh0 f87 1 0.9835926666545424 0 0 #arcLabel
Mh0 f88 @C|.xml '<?xml version="1.0" encoding="UTF-8" standalone="yes"?>
<elementInfo>
    <language>
        <name>Fix for ITS-983 / PB / 14.11.2011
copy all contacts to the merged order, not only the current contact (= mergedOrder)</name>
        <nameStyle>34,7
83,7
</nameStyle>
    </language>
</elementInfo>
' #txt
Mh0 f88 1114 914 60 60 -19 -14 #rect
Mh0 f88 @|IBIcon #fIcon
Mh0 f88 -1|-1|-16777216 #nodeStyle
Mh0 f89 1114 944 986 944 #arcP
Mh0 f84 expr in #txt
Mh0 f84 outCond 'in.order.contacts.size() >0' #txt
Mh0 f84 638 864 834 864 #arcP
Mh0 f11 expr in #txt
Mh0 f11 624 878 624 892 #arcP
Mh0 f90 type ch.soreco.orderbook.ui.Order #txt
Mh0 f90 processCall 'Functional Processes/orderbook/Order:get(ch.soreco.orderbook.bo.Order)' #txt
Mh0 f90 doCall true #txt
Mh0 f90 requestActionDecl '<ch.soreco.orderbook.bo.Order filter> param;
' #txt
Mh0 f90 requestMappingAction 'param.filter.orderId=in.order.orderId;
' #txt
Mh0 f90 responseActionDecl 'ch.soreco.orderbook.ui.Order out;
' #txt
Mh0 f90 responseMappingAction 'out=in;
out.order=result.order;
' #txt
Mh0 f90 @C|.xml '<?xml version="1.0" encoding="UTF-8" standalone="yes"?>
<elementInfo>
    <language>
        <name>get(Order)</name>
        <nameStyle>10,5,7
</nameStyle>
    </language>
</elementInfo>
' #txt
Mh0 f90 462 116 36 24 20 -2 #rect
Mh0 f90 @|CallSubIcon #fIcon
Mh0 f92 expr in #txt
Mh0 f92 outCond in.rsOrdersMatch.size()==0 #txt
Mh0 f92 494 520 1056 540 #arcP
Mh0 f92 1 1056 520 #addKink
Mh0 f92 0 0.612117371444766 0 0 #arcLabel
Mh0 f85 expr out #txt
Mh0 f85 866 944 950 944 #arcP
Mh0 f91 actionDecl 'ch.soreco.orderbook.ui.Order out;
' #txt
Mh0 f91 actionTable 'out=in;
out.order.BPId=in.orderCopy.BPId;
out.order.comment=in.orderCopy.comment;
out.order.FAClanId=in.orderCopy.FAClanId;
' #txt
Mh0 f91 type ch.soreco.orderbook.ui.Order #txt
Mh0 f91 @C|.xml '<?xml version="1.0" encoding="UTF-8" standalone="yes"?>
<elementInfo>
    <language>
        <name>map back BPId, FAClanId
and comment</name>
        <nameStyle>24,7
11,7
</nameStyle>
    </language>
</elementInfo>
' #txt
Mh0 f91 462 164 36 24 20 -2 #rect
Mh0 f91 @|StepIcon #fIcon
Mh0 f93 expr out #txt
Mh0 f93 480 140 480 164 #arcP
Mh0 f94 actionDecl 'ch.soreco.orderbook.ui.Order out;
' #txt
Mh0 f94 actionTable 'out=in;
out.orderCopy.BPId=in.order.BPId;
out.orderCopy.comment=in.order.comment;
out.orderCopy.FAClanId=in.order.FAClanId;
' #txt
Mh0 f94 type ch.soreco.orderbook.ui.Order #txt
Mh0 f94 @C|.xml '<?xml version="1.0" encoding="UTF-8" standalone="yes"?>
<elementInfo>
    <language>
        <name>copy BPId, FAClanId
and comment</name>
        <nameStyle>20,7
11,7
</nameStyle>
    </language>
</elementInfo>
' #txt
Mh0 f94 462 68 36 24 20 -2 #rect
Mh0 f94 @|StepIcon #fIcon
Mh0 f95 expr out #txt
Mh0 f95 480 37 480 68 #arcP
Mh0 f35 expr out #txt
Mh0 f35 480 92 480 116 #arcP
Mh0 f96 @C|.xml '<?xml version="1.0" encoding="UTF-8" standalone="yes"?>
<elementInfo>
    <language>
        <name>Fix for ITS-1118:16.12.2011:
set state to Matched for IMTF Archiving Process</name>
        <nameStyle>76
</nameStyle>
    </language>
</elementInfo>
' #txt
Mh0 f96 752 1081 273 30 -136 -16 #rect
Mh0 f96 @|IBIcon #fIcon
Mh0 f96 -1|-1|-16777216 #nodeStyle
Mh0 f97 751 1096 642 1096 #arcP
Mh0 f98 actionDecl 'ch.soreco.orderbook.ui.Order out;
' #txt
Mh0 f98 actionTable 'out=in;
' #txt
Mh0 f98 actionCode 'if(in.order.getOrderTypeEnum()!=null
	&&in.order.getOrderTypeEnum().requiresFAClanId()
	&&in.order.getFAClanId()!=null
	&&!in.order.getFAClanId().equals("")
	&&!in.order.getFAClanId().equals("0")
	){
	in.orderFilter.FAClanId = in.order.getFAClanId();
	}
else {
	in.orderFilter.FAClanId = null;
	}' #txt
Mh0 f98 type ch.soreco.orderbook.ui.Order #txt
Mh0 f98 @C|.xml '<?xml version="1.0" encoding="UTF-8" standalone="yes"?>
<elementInfo>
    <language>
        <name>add </name>
        <nameStyle>4,7
</nameStyle>
    </language>
</elementInfo>
' #txt
Mh0 f98 462 228 36 24 20 -2 #rect
Mh0 f98 @|StepIcon #fIcon
Mh0 f99 expr out #txt
Mh0 f99 480 188 480 228 #arcP
Mh0 f32 expr out #txt
Mh0 f32 480 252 480 308 #arcP
>Proto Mh0 .type ch.soreco.orderbook.ui.Order #txt
>Proto Mh0 .processKind CALLABLE_SUB #txt
>Proto Mh0 0 0 32 24 18 0 #rect
>Proto Mh0 @|BIcon #fIcon
Mh0 f2 out f4 tail #connect
Mh0 f4 head f1 mainIn #connect
Mh0 f16 mainOut f13 tail #connect
Mh0 f13 head f12 in #connect
Mh0 f15 head f2 mainIn #connect
Mh0 f12 out f18 tail #connect
Mh0 f18 head f17 mainIn #connect
Mh0 f12 out f15 tail #connect
Mh0 f17 mainOut f14 tail #connect
Mh0 f14 head f8 mainIn #connect
Mh0 f10 mainOut f20 tail #connect
Mh0 f20 head f19 mainIn #connect
Mh0 f19 mainOut f7 tail #connect
Mh0 f7 head f16 mainIn #connect
Mh0 f8 mainOut f22 tail #connect
Mh0 f22 head f21 mainIn #connect
Mh0 f28 head f27 mainIn #connect
Mh0 f27 mainOut f29 tail #connect
Mh0 f29 head f24 mainIn #connect
Mh0 f3 head f2 mainIn #connect
Mh0 f41 mainOut f36 tail #connect
Mh0 f36 head f21 mainIn #connect
Mh0 f45 mainOut f30 tail #connect
Mh0 f30 head f26 in #connect
Mh0 f48 head f39 mainIn #connect
Mh0 f39 mainOut f49 tail #connect
Mh0 f49 head f34 mainIn #connect
Mh0 f25 mainOut f37 tail #connect
Mh0 f37 head f33 mainIn #connect
Mh0 f54 head f42 mainIn #connect
Mh0 f44 head f53 mainIn #connect
Mh0 f24 mainOut f59 tail #connect
Mh0 f59 head f55 in #connect
Mh0 f55 out f46 tail #connect
Mh0 f46 head f57 mainIn #connect
Mh0 f56 mainOut f62 tail #connect
Mh0 f62 head f55 in #connect
Mh0 f55 out f63 tail #connect
Mh0 f63 head f45 mainIn #connect
Mh0 f57 mainOut f58 tail #connect
Mh0 f58 head f56 mainIn #connect
Mh0 f60 out f9 tail #connect
Mh0 f9 head f25 mainIn #connect
Mh0 f60 out f64 tail #connect
Mh0 f64 head f2 mainIn #connect
Mh0 f5 mainOut f6 tail #connect
Mh0 f6 head f60 in #connect
Mh0 f2 out f68 tail #connect
Mh0 f68 head f61 mainIn #connect
Mh0 f2 out f28 tail #connect
Mh0 f2 out f54 tail #connect
Mh0 f2 out f48 tail #connect
Mh0 f2 out f44 tail #connect
Mh0 f61 mainOut f67 tail #connect
Mh0 f67 head f5 mainIn #connect
Mh0 f65 mainOut f23 tail #connect
Mh0 f23 head f1 mainIn #connect
Mh0 f21 mainOut f66 tail #connect
Mh0 f66 head f65 mainIn #connect
Mh0 f33 mainOut f70 tail #connect
Mh0 f70 head f69 in #connect
Mh0 f38 mainOut f78 tail #connect
Mh0 f78 head f77 mainIn #connect
Mh0 f77 mainOut f47 tail #connect
Mh0 f47 head f41 mainIn #connect
Mh0 f31 mainOut f40 tail #connect
Mh0 f40 head f38 mainIn #connect
Mh0 f34 mainOut f76 tail #connect
Mh0 f76 head f75 in #connect
Mh0 f75 out f79 tail #connect
Mh0 f79 head f77 mainIn #connect
Mh0 f75 out f52 tail #connect
Mh0 f52 head f31 mainIn #connect
Mh0 f73 ao f80 tail #connect
Mh0 f80 head f75 @CG|ai #connect
Mh0 f83 out f72 tail #connect
Mh0 f72 head f71 mainIn #connect
Mh0 f81 mainOut f74 tail #connect
Mh0 f74 head f82 mainIn #connect
Mh0 f82 mainOut f86 tail #connect
Mh0 f86 head f83 in #connect
Mh0 f83 out f87 tail #connect
Mh0 f87 head f12 in #connect
Mh0 f88 ao f89 tail #connect
Mh0 f89 head f81 @CG|ai #connect
Mh0 f69 out f84 tail #connect
Mh0 f84 head f83 in #connect
Mh0 f69 out f11 tail #connect
Mh0 f11 head f10 mainIn #connect
Mh0 f26 out f92 tail #connect
Mh0 f92 head f34 mainIn #connect
Mh0 f26 out f3 tail #connect
Mh0 f71 mainOut f85 tail #connect
Mh0 f85 head f81 mainIn #connect
Mh0 f90 mainOut f93 tail #connect
Mh0 f93 head f91 mainIn #connect
Mh0 f0 mainOut f95 tail #connect
Mh0 f95 head f94 mainIn #connect
Mh0 f94 mainOut f35 tail #connect
Mh0 f35 head f90 mainIn #connect
Mh0 f96 ao f97 tail #connect
Mh0 f97 head f17 @CG|ai #connect
Mh0 f91 mainOut f99 tail #connect
Mh0 f99 head f98 mainIn #connect
Mh0 f98 mainOut f32 tail #connect
Mh0 f32 head f24 mainIn #connect
