[Ivy]
[>Created: Wed Nov 16 15:38:33 CET 2011]
12C0CE5BB693FE88 3.15 #module
>Proto >Proto Collection #zClass
Pd0 Pend Big #zClass
Pd0 B #cInfo
Pd0 #process
Pd0 @InfoButton f30 '' #zField
Pd0 @TextInP .resExport .resExport #zField
Pd0 @TextInP .type .type #zField
Pd0 @TextInP .processKind .processKind #zField
Pd0 @AnnotationInP-0n ai ai #zField
Pd0 @TextInP .xml .xml #zField
Pd0 @TextInP .responsibility .responsibility #zField
Pd0 @StartSub f0 '' #zField
Pd0 @EndSub f1 '' #zField
Pd0 @CallSub f29 '' #zField
Pd0 @GridStep f7 '' #zField
Pd0 @Page f36 '' #zField
Pd0 @CallSub f46 '' #zField
Pd0 @CallSub f38 '' #zField
Pd0 @GridStep f35 '' #zField
Pd0 @GridStep f4 '' #zField
Pd0 @GridStep f49 '' #zField
Pd0 @CallSub f9 '' #zField
Pd0 @PushWFArc f39 '' #zField
Pd0 @PushWFArc f52 '' #zField
Pd0 @PushWFArc f54 '' #zField
Pd0 @PushWFArc f5 '' #zField
Pd0 @PushWFArc f8 '' #zField
Pd0 @PushWFArc f11 '' #zField
Pd0 @PushWFArc f3 '' #zField
Pd0 @Alternative f21 '' #zField
Pd0 @CallSub f27 '' #zField
Pd0 @CallSub f55 '' #zField
Pd0 @GridStep f2 '' #zField
Pd0 @PushWFArc f56 '' #zField
Pd0 @PushWFArc f17 '' #zField
Pd0 @PushWFArc f18 '' #zField
Pd0 @PushWFArc f15 '' #zField
Pd0 @CallSub f26 '' #zField
Pd0 @GridStep f31 '' #zField
Pd0 @PushWFArc f24 '' #zField
Pd0 @PushWFArc f33 '' #zField
Pd0 @PushWFArc f41 '' #zField
Pd0 @GridStep f22 '' #zField
Pd0 @Page f25 '' #zField
Pd0 @PushWFArc f48 '' #zField
Pd0 @PushWFArc f28 '' #zField
Pd0 @CallSub f10 '' #zField
Pd0 @CallSub f16 '' #zField
Pd0 @PushWFArc f20 '' #zField
Pd0 @PushWFArc f13 '' #zField
Pd0 @PushWFArc f23 '' #zField
Pd0 @GridStep f12 '' #zField
Pd0 @PushWFArc f32 '' #zField
Pd0 @Page f40 '' #zField
Pd0 @CallSub f80 '' #zField
Pd0 @CallSub f82 '' #zField
Pd0 @GridStep f58 '' #zField
Pd0 @GridStep f66 '' #zField
Pd0 @CallSub f37 '' #zField
Pd0 @GridStep f42 '' #zField
Pd0 @GridStep f43 '' #zField
Pd0 @GridStep f61 '' #zField
Pd0 @PushWFArc f53 '' #zField
Pd0 @PushWFArc f59 '' #zField
Pd0 @PushWFArc f60 '' #zField
Pd0 @PushWFArc f62 '' #zField
Pd0 @PushWFArc f67 '' #zField
Pd0 @PushWFArc f69 '' #zField
Pd0 @PushWFArc f83 '' #zField
Pd0 @PushWFArc f44 '' #zField
Pd0 @PushWFArc f89 '' #zField
Pd0 @PushWFArc f45 '' #zField
Pd0 @PushWFArc f47 '' #zField
Pd0 @PushWFArc f57 '' #zField
Pd0 @GridStep f63 '' #zField
Pd0 @PushWFArc f64 '' #zField
Pd0 @PushWFArc f50 '' #zField
Pd0 @PushWFArc f34 '' #zField
Pd0 @PushWFArc f51 '' #zField
Pd0 @CallSub f99 '' #zField
Pd0 @Alternative f92 '' #zField
Pd0 @Alternative f101 '' #zField
Pd0 @Alternative f91 '' #zField
Pd0 @CallSub f84 '' #zField
Pd0 @PushWFArc f93 '' #zField
Pd0 @PushWFArc f94 '' #zField
Pd0 @GridStep f68 '' #zField
Pd0 @PushWFArc f14 '' #zField
Pd0 @PushWFArc f72 '' #zField
Pd0 @PushWFArc f73 '' #zField
Pd0 @PushWFArc f74 '' #zField
Pd0 @CallSub f87 '' #zField
Pd0 @PushWFArc f75 '' #zField
Pd0 @PushWFArc f77 '' #zField
Pd0 @GridStep f78 '' #zField
Pd0 @PushWFArc f79 '' #zField
Pd0 @PushWFArc f19 '' #zField
Pd0 @GridStep f86 '' #zField
Pd0 @PushWFArc f65 '' #zField
Pd0 @PushWFArc f71 '' #zField
Pd0 @PushWFArc f76 '' #zField
Pd0 @PushWFArc f85 '' #zField
Pd0 @PushWFArc f6 '' #zField
Pd0 @PushWFArc f81 '' #zField
Pd0 @CallSub f105 '' #zField
Pd0 @PushWFArc f70 '' #zField
>Proto Pd0 Pd0 Pend #zField
Pd0 f30 @C|.xml '<?xml version="1.0" encoding="UTF-8" standalone="yes"?>
<elementInfo>
    <language>
        <name>16.03.2011 / PB
old methods replaced 
by multi-doc view</name>
        <nameStyle>55
</nameStyle>
    </language>
</elementInfo>
' #txt
Pd0 f30 188 354 168 157 -37 -56 #rect
Pd0 f30 @|IBIcon #fIcon
Pd0 f30 -1|-1|-16777216 #nodeStyle
Pd0 f0 inParamDecl '<ch.soreco.orderbook.bo.Order order,ch.soreco.orderbook.ui.enums.ViewType viewType> param;' #txt
Pd0 f0 inParamTable 'out.eViewType=param.viewType;
out.order=param.order;
' #txt
Pd0 f0 outParamDecl '<java.lang.String error,java.lang.Boolean success,ch.soreco.orderbook.bo.Order order> result;
' #txt
Pd0 f0 outParamTable 'result.error=in.error;
result.success=in.success;
result.order=in.order;
' #txt
Pd0 f0 actionDecl 'ch.soreco.orderbook.ui.Order out;
' #txt
Pd0 f0 callSignature call(ch.soreco.orderbook.bo.Order,ch.soreco.orderbook.ui.enums.ViewType) #txt
Pd0 f0 type ch.soreco.orderbook.ui.Order #txt
Pd0 f0 @C|.xml '<?xml version="1.0" encoding="UTF-8" standalone="yes"?>
<elementInfo>
    <language>
        <name>call(Order,ViewType)</name>
        <nameStyle>20,5,7
</nameStyle>
    </language>
</elementInfo>
' #txt
Pd0 f0 515 19 26 26 14 0 #rect
Pd0 f0 @|StartSubIcon #fIcon
Pd0 f1 type ch.soreco.orderbook.ui.Order #txt
Pd0 f1 531 1123 26 26 14 0 #rect
Pd0 f1 @|EndSubIcon #fIcon
Pd0 f29 type ch.soreco.orderbook.ui.Order #txt
Pd0 f29 processCall 'Functional Processes/common/File:show(ch.soreco.common.bo.File)' #txt
Pd0 f29 doCall true #txt
Pd0 f29 requestActionDecl '<ch.soreco.common.bo.File filter> param;
' #txt
Pd0 f29 requestMappingAction 'param.filter.fileId=in.order.scanFileId;
' #txt
Pd0 f29 responseActionDecl 'ch.soreco.orderbook.ui.Order out;
' #txt
Pd0 f29 responseMappingAction 'out=in;
' #txt
Pd0 f29 @C|.xml '<?xml version="1.0" encoding="UTF-8" standalone="yes"?>
<elementInfo>
    <language>
        <name>Show ScanFile</name>
        <nameStyle>13
</nameStyle>
    </language>
</elementInfo>
' #txt
Pd0 f29 198 428 36 24 20 -2 #rect
Pd0 f29 @|CallSubIcon #fIcon
Pd0 f29 -65536|-1|-16777216 #nodeStyle
Pd0 f7 actionDecl 'ch.soreco.orderbook.ui.Order out;
' #txt
Pd0 f7 actionTable 'out=in;
out.success=true;
' #txt
Pd0 f7 type ch.soreco.orderbook.ui.Order #txt
Pd0 f7 @C|.xml '<?xml version="1.0" encoding="UTF-8" standalone="yes"?>
<elementInfo>
    <language>
        <name>close</name>
        <nameStyle>5
</nameStyle>
    </language>
</elementInfo>
' #txt
Pd0 f7 1014 684 36 24 20 -2 #rect
Pd0 f7 @|StepIcon #fIcon
Pd0 f36 outTypes "ch.soreco.orderbook.ui.Order","ch.soreco.orderbook.ui.Order","ch.soreco.orderbook.ui.Order","ch.soreco.orderbook.ui.Order","ch.soreco.orderbook.ui.Order","ch.soreco.orderbook.ui.Order","ch.soreco.orderbook.ui.Order","ch.soreco.orderbook.ui.Order","ch.soreco.orderbook.ui.Order","ch.soreco.orderbook.ui.Order","ch.soreco.orderbook.ui.Order","ch.soreco.orderbook.ui.Order","ch.soreco.orderbook.ui.Order" #txt
Pd0 f36 outLinks "match.ivp","continue.ivp","discard.ivp","saveAndClose.ivp","close.ivp","save.ivp","showScanFile.ivp","addNew.ivp","showContactFile.ivp","exitPend.ivp","addOrEditObjectDialog.ivp","showRelatedOrder.ivp","showHistory.ivp" #txt
Pd0 f36 template "Adressmutation.ivc" #txt
Pd0 f36 type ch.soreco.orderbook.ui.Order #txt
Pd0 f36 skipLink skip.ivp #txt
Pd0 f36 sortLink sort.ivp #txt
Pd0 f36 templateWizard '#
#Wed Nov 16 15:38:32 CET 2011
' #txt
Pd0 f36 pageArchivingActivated false #txt
Pd0 f36 @C|.xml '<?xml version="1.0" encoding="UTF-8" standalone="yes"?>
<elementInfo>
    <language>
        <name>Pendency Check</name>
        <nameStyle>14,7
</nameStyle>
    </language>
</elementInfo>
' #txt
Pd0 f36 @C|.responsibility Everybody #txt
Pd0 f36 510 524 36 24 20 -2 #rect
Pd0 f36 @|PageIcon #fIcon
Pd0 f46 type ch.soreco.orderbook.ui.Order #txt
Pd0 f46 processCall 'Functional Processes/orderUISave:call(ch.soreco.orderbook.ui.Order)' #txt
Pd0 f46 doCall true #txt
Pd0 f46 requestActionDecl '<ch.soreco.orderbook.ui.Order orderUI> param;
' #txt
Pd0 f46 requestMappingAction 'param.orderUI=in;
' #txt
Pd0 f46 responseActionDecl 'ch.soreco.orderbook.ui.Order out;
' #txt
Pd0 f46 responseMappingAction 'out=result.orderUI;
' #txt
Pd0 f46 @C|.xml '<?xml version="1.0" encoding="UTF-8" standalone="yes"?>
<elementInfo>
    <language>
        <name>Save orderUI</name>
        <nameStyle>12
</nameStyle>
    </language>
</elementInfo>
' #txt
Pd0 f46 526 884 36 24 20 -2 #rect
Pd0 f46 @|CallSubIcon #fIcon
Pd0 f38 type ch.soreco.orderbook.ui.Order #txt
Pd0 f38 processCall 'Business Processes/Adressmutation/Match:call(ch.soreco.orderbook.bo.Order,ch.soreco.orderbook.bo.Order)' #txt
Pd0 f38 doCall true #txt
Pd0 f38 requestActionDecl '<ch.soreco.orderbook.bo.Order order,ch.soreco.orderbook.bo.Order filter> param;
' #txt
Pd0 f38 requestMappingAction 'param.order=in.order;
param.filter.BPId=in.order.BPId;
' #txt
Pd0 f38 responseActionDecl 'ch.soreco.orderbook.ui.Order out;
' #txt
Pd0 f38 responseMappingAction 'out=in;
out.order=result.order;
' #txt
Pd0 f38 @C|.xml '<?xml version="1.0" encoding="UTF-8" standalone="yes"?>
<elementInfo>
    <language>
        <name>Match</name>
        <nameStyle>5
</nameStyle>
    </language>
</elementInfo>
' #txt
Pd0 f38 406 428 36 24 20 -2 #rect
Pd0 f38 @|CallSubIcon #fIcon
Pd0 f35 actionDecl 'ch.soreco.orderbook.ui.Order out;
' #txt
Pd0 f35 actionTable 'out=in;
out.order.discard=false;
out.order.orderState=ch.soreco.orderbook.enums.OrderState.InPendencyRecordingCheck.toString();
' #txt
Pd0 f35 type ch.soreco.orderbook.ui.Order #txt
Pd0 f35 @C|.xml '<?xml version="1.0" encoding="UTF-8" standalone="yes"?>
<elementInfo>
    <language>
        <name>Weiterführen
InPendencyRecording
to InPendencyRecordingCheck</name>
        <nameStyle>60
</nameStyle>
    </language>
</elementInfo>
' #txt
Pd0 f35 422 692 36 24 20 -2 #rect
Pd0 f35 @|StepIcon #fIcon
Pd0 f4 actionDecl 'ch.soreco.orderbook.ui.Order out;
' #txt
Pd0 f4 actionTable 'out=in;
' #txt
Pd0 f4 type ch.soreco.orderbook.ui.Order #txt
Pd0 f4 @C|.xml '<?xml version="1.0" encoding="UTF-8" standalone="yes"?>
<elementInfo>
    <language>
        <name>save and close</name>
        <nameStyle>14
</nameStyle>
    </language>
</elementInfo>
' #txt
Pd0 f4 854 684 36 24 20 -2 #rect
Pd0 f4 @|StepIcon #fIcon
Pd0 f49 actionDecl 'ch.soreco.orderbook.ui.Order out;
' #txt
Pd0 f49 actionTable 'out=in;
out.order.discard=true;
out.order.orderState=ch.soreco.orderbook.enums.OrderState.InAbortCheck.toString();
' #txt
Pd0 f49 type ch.soreco.orderbook.ui.Order #txt
Pd0 f49 @C|.xml '<?xml version="1.0" encoding="UTF-8" standalone="yes"?>
<elementInfo>
    <language>
        <name>verwerfen
InPendencyRecording
to InAbortCheck</name>
        <nameStyle>45
</nameStyle>
    </language>
</elementInfo>
' #txt
Pd0 f49 654 692 36 24 20 -2 #rect
Pd0 f49 @|StepIcon #fIcon
Pd0 f9 type ch.soreco.orderbook.ui.Order #txt
Pd0 f9 processCall 'Functional Processes/orderUISave:call(ch.soreco.orderbook.ui.Order)' #txt
Pd0 f9 doCall true #txt
Pd0 f9 requestActionDecl '<ch.soreco.orderbook.ui.Order orderUI> param;
' #txt
Pd0 f9 requestMappingAction 'param.orderUI=in;
' #txt
Pd0 f9 responseActionDecl 'ch.soreco.orderbook.ui.Order out;
' #txt
Pd0 f9 responseMappingAction 'out=result.orderUI;
' #txt
Pd0 f9 @C|.xml '<?xml version="1.0" encoding="UTF-8" standalone="yes"?>
<elementInfo>
    <language>
        <name>Save orderUI</name>
        <nameStyle>12
</nameStyle>
    </language>
</elementInfo>
' #txt
Pd0 f9 1014 524 36 24 20 -2 #rect
Pd0 f9 @|CallSubIcon #fIcon
Pd0 f39 expr data #txt
Pd0 f39 outCond ivp=="match.ivp" #txt
Pd0 f39 510 530 424 452 #arcP
Pd0 f39 1 424 504 #addKink
Pd0 f39 0 0.7876424235157484 0 0 #arcLabel
Pd0 f52 expr data #txt
Pd0 f52 outCond ivp=="continue.ivp" #txt
Pd0 f52 522 548 446 692 #arcP
Pd0 f54 expr data #txt
Pd0 f54 outCond ivp=="discard.ivp" #txt
Pd0 f54 538 548 662 692 #arcP
Pd0 f5 expr data #txt
Pd0 f5 outCond ivp=="saveAndClose.ivp" #txt
Pd0 f5 546 544 854 688 #arcP
Pd0 f8 expr data #txt
Pd0 f8 outCond ivp=="close.ivp" #txt
Pd0 f8 546 542 1014 690 #arcP
Pd0 f11 expr data #txt
Pd0 f11 outCond ivp=="save.ivp" #txt
Pd0 f11 546 536 1014 536 #arcP
Pd0 f3 expr out #txt
Pd0 f3 1032 708 557 1136 #arcP
Pd0 f3 1 1032 1136 #addKink
Pd0 f3 1 0.28952570006810396 0 0 #arcLabel
Pd0 f21 type ch.soreco.orderbook.ui.Order #txt
Pd0 f21 @C|.xml '<?xml version="1.0" encoding="UTF-8" standalone="yes"?>
<elementInfo>
    <language>
        <name>matched to Order?</name>
        <nameStyle>17
</nameStyle>
    </language>
</elementInfo>
' #txt
Pd0 f21 514 234 28 28 14 0 #rect
Pd0 f21 @|AlternativeIcon #fIcon
Pd0 f27 type ch.soreco.orderbook.ui.Order #txt
Pd0 f27 processCall 'Functional Processes/HTMLGet:call(Integer,ch.soreco.orderbook.bo.Order,ch.soreco.orderbook.ui.enums.ViewType)' #txt
Pd0 f27 doCall true #txt
Pd0 f27 requestActionDecl '<java.lang.Integer currentChild,ch.soreco.orderbook.bo.Order order,ch.soreco.orderbook.ui.enums.ViewType viewType> param;
' #txt
Pd0 f27 requestMappingAction 'param.currentChild=in.currentChild;
param.order=in.order;
param.viewType=in.eViewType;
' #txt
Pd0 f27 responseActionDecl 'ch.soreco.orderbook.ui.Order out;
' #txt
Pd0 f27 responseMappingAction 'out=result.orderUI;
' #txt
Pd0 f27 @C|.xml '<?xml version="1.0" encoding="UTF-8" standalone="yes"?>
<elementInfo>
    <language>
        <name>get HTML</name>
        <nameStyle>8
</nameStyle>
    </language>
</elementInfo>
' #txt
Pd0 f27 510 348 36 24 20 -2 #rect
Pd0 f27 @|CallSubIcon #fIcon
Pd0 f55 type ch.soreco.orderbook.ui.Order #txt
Pd0 f55 processCall 'Business Processes/Adressmutation/BPMatch:call(ch.soreco.orderbook.ui.Order)' #txt
Pd0 f55 doCall true #txt
Pd0 f55 requestActionDecl '<ch.soreco.orderbook.ui.Order orderUI> param;
' #txt
Pd0 f55 requestMappingAction 'param.orderUI=in;
' #txt
Pd0 f55 responseActionDecl 'ch.soreco.orderbook.ui.Order out;
' #txt
Pd0 f55 responseMappingAction 'out=result.orderUI;
' #txt
Pd0 f55 @C|.xml '<?xml version="1.0" encoding="UTF-8" standalone="yes"?>
<elementInfo>
    <language>
        <name>BP Match</name>
        <nameStyle>8
</nameStyle>
    </language>
</elementInfo>
' #txt
Pd0 f55 62 380 36 24 20 -2 #rect
Pd0 f55 @|CallSubIcon #fIcon
Pd0 f2 actionDecl 'ch.soreco.orderbook.ui.Order out;
' #txt
Pd0 f2 actionTable 'out=in;
' #txt
Pd0 f2 actionCode 'import ch.soreco.orderbook.enums.OrderState;
if(in.order.orderState.equals(OrderState.Pendant.toString())){
	//set editor and orderState 
	in.order.editorUserId = ivy.session.getSessionUserName();
	in.order.orderState = OrderState.InPendencyRecording.toString();
	//save new State
	ivy.persistence.Adressmutation.merge(in.order);
	}
	' #txt
Pd0 f2 type ch.soreco.orderbook.ui.Order #txt
Pd0 f2 @C|.xml '<?xml version="1.0" encoding="UTF-8" standalone="yes"?>
<elementInfo>
    <language>
        <name>set Editor on Pendant</name>
        <nameStyle>21
</nameStyle>
    </language>
</elementInfo>
' #txt
Pd0 f2 510 84 36 24 20 -2 #rect
Pd0 f2 @|StepIcon #fIcon
Pd0 f56 expr in #txt
Pd0 f56 514 248 80 380 #arcP
Pd0 f56 1 80 248 #addKink
Pd0 f56 0 0.7316877680844941 0 0 #arcLabel
Pd0 f17 expr out #txt
Pd0 f17 528 45 528 84 #arcP
Pd0 f18 expr out #txt
Pd0 f18 80 404 531 1136 #arcP
Pd0 f18 1 80 1136 #addKink
Pd0 f18 0 0.859100283201509 0 0 #arcLabel
Pd0 f15 expr out #txt
Pd0 f15 424 428 510 360 #arcP
Pd0 f15 1 424 360 #addKink
Pd0 f15 0 0.9693120959485775 0 0 #arcLabel
Pd0 f26 type ch.soreco.orderbook.ui.Order #txt
Pd0 f26 processCall 'Functional Processes/common/File:show(ch.soreco.common.bo.File)' #txt
Pd0 f26 doCall true #txt
Pd0 f26 requestActionDecl '<ch.soreco.common.bo.File filter> param;
' #txt
Pd0 f26 requestMappingAction 'param.filter.fileId=in.i;
' #txt
Pd0 f26 responseActionDecl 'ch.soreco.orderbook.ui.Order out;
' #txt
Pd0 f26 responseMappingAction 'out=in;
' #txt
Pd0 f26 @C|.xml '<?xml version="1.0" encoding="UTF-8" standalone="yes"?>
<elementInfo>
    <language>
        <name>Show Contact File by i</name>
        <nameStyle>22
</nameStyle>
    </language>
</elementInfo>
' #txt
Pd0 f26 198 468 36 24 20 -2 #rect
Pd0 f26 @|CallSubIcon #fIcon
Pd0 f26 -65536|-1|-16777216 #nodeStyle
Pd0 f31 actionDecl 'ch.soreco.orderbook.ui.Order out;
' #txt
Pd0 f31 actionTable 'out=in;
out.showChild=4;
' #txt
Pd0 f31 type ch.soreco.orderbook.ui.Order #txt
Pd0 f31 @C|.xml '<?xml version="1.0" encoding="UTF-8" standalone="yes"?>
<elementInfo>
    <language>
        <name>set Accordion:open Contact</name>
        <nameStyle>26
</nameStyle>
    </language>
</elementInfo>
' #txt
Pd0 f31 510 180 36 24 20 -2 #rect
Pd0 f31 @|StepIcon #fIcon
Pd0 f24 expr out #txt
Pd0 f24 528 204 528 234 #arcP
Pd0 f33 expr out #txt
Pd0 f33 528 108 528 180 #arcP
Pd0 f41 expr in #txt
Pd0 f41 outCond in.order.BPId.trim().length()>0 #txt
Pd0 f41 528 262 528 348 #arcP
Pd0 f22 actionDecl 'ch.soreco.orderbook.ui.Order out;
' #txt
Pd0 f22 actionTable 'out=in;
' #txt
Pd0 f22 actionCode 'import ch.soreco.webbies.common.html.form.ClassConverter;

import ch.soreco.orderbook.bo.CorrespondenceContainer;
import ch.soreco.orderbook.bo.RecordingLSV;
import ch.soreco.orderbook.bo.DomicileOrOwner;
import ch.soreco.orderbook.bo.SignatureRequest;
import ch.soreco.orderbook.bo.Paper;

import ch.soreco.webbies.common.html.generics.AttributeClassHtml;
import ch.soreco.orderbook.bo.RecordingMeta;

out.html = "new Object "+in.newObject+" at index "+in.i;
if(in.newObject.equals("")){
	// do nothing
	}
if(in.newObject.equals("Paper")) {
	Paper paper = new Paper();
	paper.contactId = in.currentContact.contactId;
	paper.paperRequestDate = new DateTime();
	paper.isPaper = true;
	
	out.html = ClassConverter.getClassHTML(paper,"orderContactPapers$$"+in.i,in.modify,false);
	}
	
if(in.newObject.equals("SignatureRequest")) {
	SignatureRequest sign = new SignatureRequest();
	sign.contactId = in.currentContact.contactId;
	sign.signatureRequestDate = new DateTime();
	sign.isRequested = true;
	sign.signatureNeedsOrderNo = true;
	out.html = ClassConverter.getClassHTML(sign,"orderContactsSignatureRequests$$"+in.i,in.modify,true);
	}

if(in.newObject.equals("DomicileOrOwner")) {
	DomicileOrOwner doo = new DomicileOrOwner();
	doo.recording = in.order.recording;
	out.html = ClassConverter.getClassHTML(doo,"recordingDomicileOrOwners$$"+in.i,in.modify,true);
	}	

if(in.newObject.equals("RecordingLSV")) {
	RecordingLSV lsv = new RecordingLSV();
	lsv.recording = in.order.recording;
	out.html = ClassConverter.getClassHTML(lsv,"recordingLSV$$"+in.i,in.modify,true);
	}
if(in.newObject.equals("CorrespondenceContainer")) {
	CorrespondenceContainer correspondenceContainer = new CorrespondenceContainer();
	correspondenceContainer.correspondence = in.order.recording.correspondence;
	out.html = ClassConverter.getClassHTML(correspondenceContainer,"order$$recording$$correspondence$$correspondenceContainer$$"+in.i,in.modify,true);
	}
	
	if(in.newObject.equals("RecordingMeta")) {
	RecordingMeta meta = new RecordingMeta();
	meta.recording = in.order.recording;
	AttributeClassHtml ach = new AttributeClassHtml(in.genericView, meta, "recordingMetas",in.i);
	out.html = ach.toHtml();
	}' #txt
Pd0 f22 type ch.soreco.orderbook.ui.Order #txt
Pd0 f22 @C|.xml '<?xml version="1.0" encoding="UTF-8" standalone="yes"?>
<elementInfo>
    <language>
        <name>get Html of new Entry</name>
        <nameStyle>21
</nameStyle>
    </language>
</elementInfo>
' #txt
Pd0 f22 798 380 36 24 20 -2 #rect
Pd0 f22 @|StepIcon #fIcon
Pd0 f25 template "AjaxLoadedEntry.ivc" #txt
Pd0 f25 type ch.soreco.orderbook.ui.Order #txt
Pd0 f25 skipLink skip.ivp #txt
Pd0 f25 sortLink sort.ivp #txt
Pd0 f25 templateWizard '#
#Tue Feb 01 23:46:19 CET 2011
' #txt
Pd0 f25 pageArchivingActivated false #txt
Pd0 f25 @C|.xml '<?xml version="1.0" encoding="UTF-8" standalone="yes"?>
<elementInfo>
    <language>
        <name>get new Entry by Ajax Load</name>
        <nameStyle>26
</nameStyle>
    </language>
</elementInfo>
' #txt
Pd0 f25 @C|.responsibility Everybody #txt
Pd0 f25 798 420 36 24 20 -2 #rect
Pd0 f25 @|PageIcon #fIcon
Pd0 f48 expr out #txt
Pd0 f48 816 404 816 420 #arcP
Pd0 f28 expr data #txt
Pd0 f28 outCond ivp=="addNew.ivp" #txt
Pd0 f28 533 524 798 392 #arcP
Pd0 f28 1 584 392 #addKink
Pd0 f28 0 0.8563796604357719 0 0 #arcLabel
Pd0 f10 type ch.soreco.orderbook.ui.Order #txt
Pd0 f10 processCall 'Start Processes/Archive/CheckDocuments:call(ch.soreco.orderbook.ui.enums.ViewType,Integer,String)' #txt
Pd0 f10 doCall true #txt
Pd0 f10 requestActionDecl '<ch.soreco.orderbook.ui.enums.ViewType viewType,java.lang.Integer orderId,java.lang.String uiType> param;
' #txt
Pd0 f10 requestMappingAction 'param.viewType=ch.soreco.orderbook.ui.enums.ViewType.READ;
param.orderId=in.orderContacts.size()> 0 ? in.orderContacts.get(0).contactMergedFromOrderId :in.order.orderId;
param.uiType="SCANPLAIN";
' #txt
Pd0 f10 responseActionDecl 'ch.soreco.orderbook.ui.Order out;
' #txt
Pd0 f10 responseMappingAction 'out=in;
' #txt
Pd0 f10 @C|.xml '<?xml version="1.0" encoding="UTF-8" standalone="yes"?>
<elementInfo>
    <language>
        <name>show files of last order</name>
        <nameStyle>24,5,7
</nameStyle>
    </language>
</elementInfo>
' #txt
Pd0 f10 198 524 36 24 20 -2 #rect
Pd0 f10 @|CallSubIcon #fIcon
Pd0 f16 type ch.soreco.orderbook.ui.Order #txt
Pd0 f16 processCall 'Start Processes/Archive/CheckDocuments:call(ch.soreco.orderbook.ui.enums.ViewType,Integer,String)' #txt
Pd0 f16 doCall true #txt
Pd0 f16 requestActionDecl '<ch.soreco.orderbook.ui.enums.ViewType viewType,java.lang.Integer orderId,java.lang.String uiType> param;
' #txt
Pd0 f16 requestMappingAction 'param.viewType=ch.soreco.orderbook.ui.enums.ViewType.READ;
param.orderId=in.orderContacts.get(in.i).contactMergedFromOrderId.intValue() > 0 ? in.orderContacts.get(in.i).contactMergedFromOrderId : in.orderContacts.get(in.i).contactOrderId;
param.uiType="SCANPLAIN";
' #txt
Pd0 f16 responseActionDecl 'ch.soreco.orderbook.ui.Order out;
' #txt
Pd0 f16 responseMappingAction 'out=in;
' #txt
Pd0 f16 @C|.xml '<?xml version="1.0" encoding="UTF-8" standalone="yes"?>
<elementInfo>
    <language>
        <name>show files of contact</name>
        <nameStyle>21,5,7
</nameStyle>
    </language>
</elementInfo>
' #txt
Pd0 f16 198 572 36 24 20 -2 #rect
Pd0 f16 @|CallSubIcon #fIcon
Pd0 f20 expr data #txt
Pd0 f20 outCond ivp=="showScanFile.ivp" #txt
Pd0 f20 510 536 234 536 #arcP
Pd0 f20 0 0.3065775864720672 0 0 #arcLabel
Pd0 f13 expr data #txt
Pd0 f13 outCond ivp=="showContactFile.ivp" #txt
Pd0 f13 510 545 234 584 #arcP
Pd0 f13 1 432 584 #addKink
Pd0 f13 0 0.8700152720435305 0 0 #arcLabel
Pd0 f23 expr out #txt
Pd0 f23 1032 524 539 348 #arcP
Pd0 f23 1 1032 288 #addKink
Pd0 f23 2 592 288 #addKink
Pd0 f23 1 0.3253764259097589 0 0 #arcLabel
Pd0 f12 actionDecl 'ch.soreco.orderbook.ui.Order out;
' #txt
Pd0 f12 actionTable 'out=in;
out.order.discard=false;
out.order.orderState=ch.soreco.orderbook.enums.OrderState.In4eCheck.toString();
' #txt
Pd0 f12 type ch.soreco.orderbook.ui.Order #txt
Pd0 f12 @C|.xml '<?xml version="1.0" encoding="UTF-8" standalone="yes"?>
<elementInfo>
    <language>
        <name>ExitPend
PendencyState
to In4eCheck</name>
        <nameStyle>35
</nameStyle>
    </language>
</elementInfo>
' #txt
Pd0 f12 254 692 36 24 20 -2 #rect
Pd0 f12 @|StepIcon #fIcon
Pd0 f32 expr data #txt
Pd0 f32 outCond ivp=="exitPend.ivp" #txt
Pd0 f32 510 548 290 692 #arcP
Pd0 f40 outTypes "ch.soreco.orderbook.ui.Order","ch.soreco.orderbook.ui.Order","ch.soreco.orderbook.ui.Order" #txt
Pd0 f40 outLinks "submit.ivp","cancel.ivp","delete.ivp" #txt
Pd0 f40 template "/ProcessPages/Edit/AjaxLoadedDialog.ivc" #txt
Pd0 f40 type ch.soreco.orderbook.ui.Order #txt
Pd0 f40 skipLink skip.ivp #txt
Pd0 f40 sortLink sort.ivp #txt
Pd0 f40 templateWizard '#
#Thu Jul 28 12:44:19 CEST 2011
' #txt
Pd0 f40 pageArchivingActivated false #txt
Pd0 f40 @C|.xml '<?xml version="1.0" encoding="UTF-8" standalone="yes"?>
<elementInfo>
    <language>
        <name>get new Entry by Ajax Load</name>
        <nameStyle>26
</nameStyle>
    </language>
</elementInfo>
' #txt
Pd0 f40 @C|.responsibility Everybody #txt
Pd0 f40 1094 356 36 24 20 -2 #rect
Pd0 f40 @|PageIcon #fIcon
Pd0 f80 type ch.soreco.orderbook.ui.Order #txt
Pd0 f80 processCall 'Functional Processes/orderUISave:call(ch.soreco.orderbook.ui.Order)' #txt
Pd0 f80 doCall true #txt
Pd0 f80 requestActionDecl '<ch.soreco.orderbook.ui.Order orderUI> param;
' #txt
Pd0 f80 requestMappingAction 'param.orderUI=in;
' #txt
Pd0 f80 responseActionDecl 'ch.soreco.orderbook.ui.Order out;
' #txt
Pd0 f80 responseMappingAction 'out=result.orderUI;
' #txt
Pd0 f80 @C|.xml '<?xml version="1.0" encoding="UTF-8" standalone="yes"?>
<elementInfo>
    <language>
        <name>Save orderUI</name>
        <nameStyle>12
</nameStyle>
    </language>
</elementInfo>
' #txt
Pd0 f80 758 316 36 24 20 -2 #rect
Pd0 f80 @|CallSubIcon #fIcon
Pd0 f82 type ch.soreco.orderbook.ui.Order #txt
Pd0 f82 processCall 'Functional Processes/HTMLGet:call(Integer,ch.soreco.orderbook.bo.Order,ch.soreco.orderbook.ui.enums.ViewType)' #txt
Pd0 f82 doCall true #txt
Pd0 f82 requestActionDecl '<java.lang.Integer currentChild,ch.soreco.orderbook.bo.Order order,ch.soreco.orderbook.ui.enums.ViewType viewType> param;
' #txt
Pd0 f82 requestMappingAction 'param.currentChild=in.currentChild;
param.order=in.order;
param.viewType=in.eViewType;
' #txt
Pd0 f82 responseActionDecl 'ch.soreco.orderbook.ui.Order out;
' #txt
Pd0 f82 responseMappingAction 'out=result.orderUI;
out.i=in.i;
out.newObject=in.newObject;
' #txt
Pd0 f82 @C|.xml '<?xml version="1.0" encoding="UTF-8" standalone="yes"?>
<elementInfo>
    <language>
        <name>get HTML</name>
        <nameStyle>8
</nameStyle>
    </language>
</elementInfo>
' #txt
Pd0 f82 878 316 36 24 20 -2 #rect
Pd0 f82 @|CallSubIcon #fIcon
Pd0 f58 actionDecl 'ch.soreco.orderbook.ui.Order out;
' #txt
Pd0 f58 actionTable 'out=in;
' #txt
Pd0 f58 type ch.soreco.orderbook.ui.Order #txt
Pd0 f58 1454 356 36 24 20 -2 #rect
Pd0 f58 @|StepIcon #fIcon
Pd0 f66 actionDecl 'ch.soreco.orderbook.ui.Order out;
' #txt
Pd0 f66 actionTable 'out=in;
' #txt
Pd0 f66 actionCode '
if(in.newObject.trim().equals("PendencyTicket")){
//	if(in.i > 0){
//		in.orderPendencyTickets.removeAt(in.i);
		ivy.persistence.Adressmutation.remove(in.currentPendencyTicket);
	//}
	
}' #txt
Pd0 f66 type ch.soreco.orderbook.ui.Order #txt
Pd0 f66 @C|.xml '<?xml version="1.0" encoding="UTF-8" standalone="yes"?>
<elementInfo>
    <language>
        <name>delete ticket</name>
        <nameStyle>13
</nameStyle>
    </language>
</elementInfo>
' #txt
Pd0 f66 1278 396 36 24 20 -2 #rect
Pd0 f66 @|StepIcon #fIcon
Pd0 f37 type ch.soreco.orderbook.ui.Order #txt
Pd0 f37 processCall 'Functional Processes/orderUISave:call(ch.soreco.orderbook.ui.Order)' #txt
Pd0 f37 doCall true #txt
Pd0 f37 requestActionDecl '<ch.soreco.orderbook.ui.Order orderUI> param;
' #txt
Pd0 f37 requestMappingAction 'param.orderUI=in;
' #txt
Pd0 f37 responseActionDecl 'ch.soreco.orderbook.ui.Order out;
' #txt
Pd0 f37 responseMappingAction 'out=result.orderUI;
' #txt
Pd0 f37 @C|.xml '<?xml version="1.0" encoding="UTF-8" standalone="yes"?>
<elementInfo>
    <language>
        <name>Save orderUI</name>
        <nameStyle>12
</nameStyle>
    </language>
</elementInfo>
' #txt
Pd0 f37 1454 396 36 24 20 -2 #rect
Pd0 f37 @|CallSubIcon #fIcon
Pd0 f42 actionDecl 'ch.soreco.orderbook.ui.Order out;
' #txt
Pd0 f42 actionTable 'out=in;
out.order.editorUserId=ivy.session.getSessionUserName();
' #txt
Pd0 f42 type ch.soreco.orderbook.ui.Order #txt
Pd0 f42 @C|.xml '<?xml version="1.0" encoding="UTF-8" standalone="yes"?>
<elementInfo>
    <language>
        <name>set editor</name>
        <nameStyle>10
</nameStyle>
    </language>
</elementInfo>
' #txt
Pd0 f42 1454 436 36 24 20 -2 #rect
Pd0 f42 @|StepIcon #fIcon
Pd0 f43 actionDecl 'ch.soreco.orderbook.ui.Order out;
' #txt
Pd0 f43 actionTable 'out=in;
' #txt
Pd0 f43 actionCode 'import ch.soreco.webbies.common.html.generics.AttributeConstants;
import ch.soreco.orderbook.enums.PendencyTicketType;
import ch.soreco.orderbook.bo.PendencyTicket;
import ch.soreco.webbies.common.html.generics.AttributeClassHtml;
import ch.soreco.webbies.common.html.form.ClassConverter;

out.html = "new Object "+in.newObject+" at index "+in.i;
if(in.newObject.equals("")){
	// do nothing
	}
else if(in.newObject.trim().equals("PendencyTicket")){
	if(in.i>-1&&in.orderPendencyTickets.size()>0){
		in.currentPendencyTicket = in.orderPendencyTickets.get(in.i);
			if(in.currentPendencyTicket.dueDate.toString().length() == 0) {
				in.currentPendencyTicket.dueDate = null;
			}
			if(in.currentPendencyTicket.remindAt.toString().length() == 0) {
				in.currentPendencyTicket.remindAt = null;
			}			
		}
	else {
		in.currentPendencyTicket.order = in.order;
		in.currentPendencyTicket.pendencyTicketType = PendencyTicketType.UNDEFINED.toString();
		in.orderPendencyTickets.add(in.currentPendencyTicket);
		in.i = 0;
		}
	in.currentPendencyTicket.order = in.order;
	String view = AttributeConstants.CONTENTPREFIX;
	AttributeClassHtml ach = new AttributeClassHtml(view, in.currentPendencyTicket, "currentPendencyTicket");
	out.html = ach.toHtml();
	//out.html = ClassConverter.getClassHTML(currentPendencyTicket,"currentPendencyTicket,in.modify,true);
	}' #txt
Pd0 f43 type ch.soreco.orderbook.ui.Order #txt
Pd0 f43 @C|.xml '<?xml version="1.0" encoding="UTF-8" standalone="yes"?>
<elementInfo>
    <language>
        <name>get Html of new Entry</name>
        <nameStyle>21
</nameStyle>
    </language>
</elementInfo>
' #txt
Pd0 f43 1094 316 36 24 20 -2 #rect
Pd0 f43 @|StepIcon #fIcon
Pd0 f61 actionDecl 'ch.soreco.orderbook.ui.Order out;
' #txt
Pd0 f61 actionTable 'out=in;
' #txt
Pd0 f61 actionCode 'import ch.soreco.orderbook.bo.PendencyTicket;

if(in.newObject.trim().equals("PendencyTicket")){
	if(in.i > 0){
		in.orderPendencyTickets.set(in.i,in.currentPendencyTicket);
	}
	
}
' #txt
Pd0 f61 type ch.soreco.orderbook.ui.Order #txt
Pd0 f61 @C|.xml '<?xml version="1.0" encoding="UTF-8" standalone="yes"?>
<elementInfo>
    <language>
        <name>map current Ticket</name>
        <nameStyle>18
</nameStyle>
    </language>
</elementInfo>
' #txt
Pd0 f61 1094 436 36 24 20 -2 #rect
Pd0 f61 @|StepIcon #fIcon
Pd0 f53 expr out #txt
Pd0 f53 1112 340 1112 356 #arcP
Pd0 f59 expr out #txt
Pd0 f59 1472 396 1472 380 #arcP
Pd0 f60 expr data #txt
Pd0 f60 outCond ivp=="cancel.ivp" #txt
Pd0 f60 1130 368 1454 368 #arcP
Pd0 f62 expr data #txt
Pd0 f62 outCond ivp=="submit.ivp" #txt
Pd0 f62 1112 380 1112 436 #arcP
Pd0 f67 expr data #txt
Pd0 f67 outCond ivp=="delete.ivp" #txt
Pd0 f67 1129 380 1278 408 #arcP
Pd0 f67 1 1168 408 #addKink
Pd0 f67 1 0.26222529396789007 0 0 #arcLabel
Pd0 f69 expr out #txt
Pd0 f69 1314 408 1458 380 #arcP
Pd0 f69 1 1424 408 #addKink
Pd0 f69 0 0.7128661179079138 0 0 #arcLabel
Pd0 f83 expr out #txt
Pd0 f83 794 328 878 328 #arcP
Pd0 f44 expr out #txt
Pd0 f44 914 328 1094 328 #arcP
Pd0 f89 expr out #txt
Pd0 f89 1130 448 1454 448 #arcP
Pd0 f45 expr out #txt
Pd0 f45 1472 436 1472 420 #arcP
Pd0 f47 expr data #txt
Pd0 f47 outCond ivp=="addOrEditObjectDialog.ivp" #txt
Pd0 f47 531 524 758 328 #arcP
Pd0 f47 1 584 328 #addKink
Pd0 f47 0 0.945009941108528 0 0 #arcLabel
Pd0 f57 expr out #txt
Pd0 f57 1472 356 536 348 #arcP
Pd0 f57 1 1472 264 #addKink
Pd0 f57 2 592 264 #addKink
Pd0 f57 1 0.5096677355768097 0 0 #arcLabel
Pd0 f63 actionDecl 'ch.soreco.orderbook.ui.Order out;
' #txt
Pd0 f63 actionTable 'out=in;
' #txt
Pd0 f63 type ch.soreco.orderbook.ui.Order #txt
Pd0 f63 526 788 36 24 20 -2 #rect
Pd0 f63 @|StepIcon #fIcon
Pd0 f64 expr out #txt
Pd0 f64 440 716 526 800 #arcP
Pd0 f64 1 440 800 #addKink
Pd0 f64 0 0.885095449897132 0 0 #arcLabel
Pd0 f50 expr out #txt
Pd0 f50 272 716 526 800 #arcP
Pd0 f50 1 272 800 #addKink
Pd0 f50 1 0.1815785118439447 0 0 #arcLabel
Pd0 f34 expr out #txt
Pd0 f34 672 716 562 800 #arcP
Pd0 f34 1 672 800 #addKink
Pd0 f34 0 0.9723940036960799 0 0 #arcLabel
Pd0 f51 expr out #txt
Pd0 f51 872 708 562 800 #arcP
Pd0 f51 1 872 800 #addKink
Pd0 f51 1 0.2788058921978238 0 0 #arcLabel
Pd0 f99 type ch.soreco.orderbook.ui.Order #txt
Pd0 f99 processCall 'Business Processes/chooseProcess:call(Integer,ch.soreco.orderbook.ui.enums.ViewType)' #txt
Pd0 f99 doCall true #txt
Pd0 f99 requestActionDecl '<java.lang.Integer orderId,ch.soreco.orderbook.ui.enums.ViewType viewType> param;
' #txt
Pd0 f99 requestMappingAction 'param.orderId=in.orderCopy.orderId;
param.viewType=ch.soreco.orderbook.ui.enums.ViewType.EDIT;
' #txt
Pd0 f99 responseActionDecl 'ch.soreco.orderbook.ui.Order out;
' #txt
Pd0 f99 responseMappingAction 'out=in;
' #txt
Pd0 f99 @C|.xml '<?xml version="1.0" encoding="UTF-8" standalone="yes"?>
<elementInfo>
    <language>
        <name>Bearbeiten</name>
        <nameStyle>10
</nameStyle>
    </language>
</elementInfo>
' #txt
Pd0 f99 846 1060 36 24 20 -2 #rect
Pd0 f99 @|CallSubIcon #fIcon
Pd0 f92 type ch.soreco.orderbook.ui.Order #txt
Pd0 f92 @C|.xml '<?xml version="1.0" encoding="UTF-8" standalone="yes"?>
<elementInfo>
    <language>
        <name>newOrder?</name>
        <nameStyle>9
</nameStyle>
    </language>
</elementInfo>
' #txt
Pd0 f92 530 938 28 28 14 0 #rect
Pd0 f92 @|AlternativeIcon #fIcon
Pd0 f101 type ch.soreco.orderbook.ui.Order #txt
Pd0 f101 @C|.xml '<?xml version="1.0" encoding="UTF-8" standalone="yes"?>
<elementInfo>
    <language>
        <name>further processing?</name>
        <nameStyle>19
</nameStyle>
    </language>
</elementInfo>
' #txt
Pd0 f101 530 1058 28 28 14 0 #rect
Pd0 f101 @|AlternativeIcon #fIcon
Pd0 f91 type ch.soreco.orderbook.ui.Order #txt
Pd0 f91 @C|.xml '<?xml version="1.0" encoding="UTF-8" standalone="yes"?>
<elementInfo>
    <language>
        <name>proceed?</name>
        <nameStyle>8
</nameStyle>
    </language>
</elementInfo>
' #txt
Pd0 f91 674 1002 28 28 14 0 #rect
Pd0 f91 @|AlternativeIcon #fIcon
Pd0 f84 type ch.soreco.orderbook.ui.Order #txt
Pd0 f84 processCall 'Business Processes/Adressmutation/DependentOrder:newDependentOrder(ch.soreco.orderbook.bo.Order)' #txt
Pd0 f84 doCall true #txt
Pd0 f84 requestActionDecl '<ch.soreco.orderbook.bo.Order order> param;
' #txt
Pd0 f84 requestMappingAction 'param.order=in.order;
param.order.checkerUserId=in.orderCopy.checkerUserId.length() > 0 ? in.orderCopy.checkerUserId : in.order.checkerUserId;
param.order.editorUserId=in.orderCopy.editorUserId.length() > 0 ? in.orderCopy.editorUserId : ivy.session.getSessionUserName();
' #txt
Pd0 f84 responseActionDecl 'ch.soreco.orderbook.ui.Order out;
' #txt
Pd0 f84 responseMappingAction 'out=in;
out.newOrder=result.proceed;
out.orderCopy=result.order;
' #txt
Pd0 f84 @C|.xml '<?xml version="1.0" encoding="UTF-8" standalone="yes"?>
<elementInfo>
    <language>
        <name>newDependentOrder(Order)</name>
        <nameStyle>24,5,7
</nameStyle>
    </language>
</elementInfo>
' #txt
Pd0 f84 670 940 36 24 20 -2 #rect
Pd0 f84 @|CallSubIcon #fIcon
Pd0 f93 expr in #txt
Pd0 f93 outCond in.newOrder #txt
Pd0 f93 558 952 670 952 #arcP
Pd0 f94 expr out #txt
Pd0 f94 688 964 688 1002 #arcP
Pd0 f68 actionDecl 'ch.soreco.orderbook.ui.Order out;
' #txt
Pd0 f68 actionTable 'out=in;
' #txt
Pd0 f68 actionCode 'import ch.ivyteam.ivy.ext.SessionLockManager;

SessionLockManager lockManager = SessionLockManager.getInstance();
if(lockManager.lockIdForSession(in.order.orderId.toString(),ivy.session)){
	lockManager.releaseLockId(in.order.orderId.toString());	
	ivy.log.info("Released lock for "+in.order.orderId+" by session id "+ivy.session.getIdentifier());
	}
	

' #txt
Pd0 f68 type ch.soreco.orderbook.ui.Order #txt
Pd0 f68 @C|.xml '<?xml version="1.0" encoding="UTF-8" standalone="yes"?>
<elementInfo>
    <language>
        <name>set orderCopy
as Order
&amp; releaseLock</name>
        <nameStyle>36
</nameStyle>
    </language>
</elementInfo>
' #txt
Pd0 f68 702 1060 36 24 20 -2 #rect
Pd0 f68 @|StepIcon #fIcon
Pd0 f14 expr in #txt
Pd0 f14 outCond in.newOrder #txt
Pd0 f14 558 1072 702 1072 #arcP
Pd0 f72 expr out #txt
Pd0 f72 738 1072 846 1072 #arcP
Pd0 f73 expr in #txt
Pd0 f73 544 1086 544 1123 #arcP
Pd0 f73 0 0.49017155706580723 0 0 #arcLabel
Pd0 f74 expr out #txt
Pd0 f74 864 1084 557 1136 #arcP
Pd0 f74 1 864 1136 #addKink
Pd0 f74 1 0.3854534586676267 0 0 #arcLabel
Pd0 f87 type ch.soreco.orderbook.ui.Order #txt
Pd0 f87 processCall 'Business Processes/chooseProcess:call(Integer,ch.soreco.orderbook.ui.enums.ViewType)' #txt
Pd0 f87 doCall true #txt
Pd0 f87 requestActionDecl '<java.lang.Integer orderId,ch.soreco.orderbook.ui.enums.ViewType viewType> param;
' #txt
Pd0 f87 requestMappingAction 'param.orderId=in.order.orderId;
param.viewType=ch.soreco.orderbook.ui.enums.ViewType.READ;
' #txt
Pd0 f87 responseActionDecl 'ch.soreco.orderbook.ui.Order out;
' #txt
Pd0 f87 responseMappingAction 'out=in;
' #txt
Pd0 f87 @C|.xml '<?xml version="1.0" encoding="UTF-8" standalone="yes"?>
<elementInfo>
    <language>
        <name>show related Order</name>
        <nameStyle>18
</nameStyle>
    </language>
</elementInfo>
' #txt
Pd0 f87 1014 612 36 24 20 -2 #rect
Pd0 f87 @|CallSubIcon #fIcon
Pd0 f75 expr data #txt
Pd0 f75 outCond ivp=="showRelatedOrder.ivp" #txt
Pd0 f75 546 539 1014 621 #arcP
Pd0 f77 expr out #txt
Pd0 f77 1032 636 1032 684 #arcP
Pd0 f78 actionDecl 'ch.soreco.orderbook.ui.Order out;
' #txt
Pd0 f78 actionTable 'out=in;
' #txt
Pd0 f78 actionCode 'import ch.ivyteam.ivy.security.IUser;
import ch.soreco.orderbook.util.Authority;
import ch.soreco.orderbook.enums.OrderType;
import java.util.Collections;

in.orderTypeList.clear();

for(ch.soreco.orderbook.enums.OrderType ot : ch.soreco.orderbook.enums.OrderType.values()){
	if(!ot.toString().equals("Default") && !ot.toString().equals("Order")){
			String otString = ivy.cms.co("/ch/soreco/orderbook/enums/OrderType/"+ot+"/0_name")+"!"+ot;
			in.orderTypeList.add(otString);
	}	
}

Collections.sort(in.orderTypeList, String.CASE_INSENSITIVE_ORDER);

in.userList.clear();

List<IUser> users = ivy.session.getSecurityContext().getUsers() as List<IUser>;
in.userList.add("");
for(int i = 0; i < users.size(); i++){
	IUser cUser = users.get(i) as IUser;
	if(!cUser.getName().trim().equalsIgnoreCase("SYSTEM") && !cUser.getName().trim().equalsIgnoreCase("Developer")){	
		in.userList.add(cUser.getName());
	}
}


Collections.sort(in.userList, String.CASE_INSENSITIVE_ORDER);' #txt
Pd0 f78 type ch.soreco.orderbook.ui.Order #txt
Pd0 f78 @C|.xml '<?xml version="1.0" encoding="UTF-8" standalone="yes"?>
<elementInfo>
    <language>
        <name>prepare orderList &amp; userList</name>
        <nameStyle>28
</nameStyle>
    </language>
</elementInfo>
' #txt
Pd0 f78 510 420 36 24 20 -2 #rect
Pd0 f78 @|StepIcon #fIcon
Pd0 f79 expr out #txt
Pd0 f79 528 372 528 420 #arcP
Pd0 f19 expr out #txt
Pd0 f19 528 444 528 524 #arcP
Pd0 f86 actionDecl 'ch.soreco.orderbook.ui.Order out;
' #txt
Pd0 f86 actionTable 'out=in;
out.order.checkerUserId=in.orderCopy.checkerUserId.length() > 0 && !in.newOrder ? in.orderCopy.checkerUserId : in.order.checkerUserId;
out.order.editorUserId=in.orderCopy.editorUserId.length() > 0 && !in.newOrder ? in.orderCopy.editorUserId : ivy.session.getSessionUserName();
' #txt
Pd0 f86 type ch.soreco.orderbook.ui.Order #txt
Pd0 f86 @C|.xml '<?xml version="1.0" encoding="UTF-8" standalone="yes"?>
<elementInfo>
    <language>
        <name>set editor &amp; checker</name>
        <nameStyle>20
</nameStyle>
        <desc>workaround; copy checker from copy into current order</desc>
    </language>
</elementInfo>
' #txt
Pd0 f86 526 844 36 24 20 -2 #rect
Pd0 f86 @|StepIcon #fIcon
Pd0 f65 expr out #txt
Pd0 f65 544 812 544 844 #arcP
Pd0 f71 expr in #txt
Pd0 f71 outCond in.newOrder #txt
Pd0 f71 674 1016 549 1063 #arcP
Pd0 f71 1 576 1016 #addKink
Pd0 f71 0 0.7677762235813264 0 0 #arcLabel
Pd0 f76 expr in #txt
Pd0 f76 544 966 544 1058 #arcP
Pd0 f85 expr out #txt
Pd0 f85 544 868 544 884 #arcP
Pd0 f6 expr out #txt
Pd0 f6 544 908 544 938 #arcP
Pd0 f81 expr in #txt
Pd0 f81 702 1016 557 1136 #arcP
Pd0 f81 1 968 1016 #addKink
Pd0 f81 2 968 1136 #addKink
Pd0 f81 1 0.8726782679857646 0 0 #arcLabel
Pd0 f105 type ch.soreco.orderbook.ui.Order #txt
Pd0 f105 processCall 'Business Processes/History/ShowSimpleOrderHistory:showSimpleHistory(ch.soreco.orderbook.functional.History)' #txt
Pd0 f105 doCall true #txt
Pd0 f105 requestActionDecl '<ch.soreco.orderbook.functional.History history> param;
' #txt
Pd0 f105 requestMappingAction 'param.history.fetchId=in.order.orderId;
param.history.historyTable="tbl_Orders_History";
param.history.idName="orderId";
' #txt
Pd0 f105 responseActionDecl 'ch.soreco.orderbook.ui.Order out;
' #txt
Pd0 f105 responseMappingAction 'out=in;
' #txt
Pd0 f105 @C|.xml '<?xml version="1.0" encoding="UTF-8" standalone="yes"?>
<elementInfo>
    <language>
        <name>show history</name>
        <nameStyle>12,7
</nameStyle>
    </language>
</elementInfo>
' #txt
Pd0 f105 198 620 36 24 20 -2 #rect
Pd0 f105 @|CallSubIcon #fIcon
Pd0 f70 expr data #txt
Pd0 f70 outCond ivp=="showHistory.ivp" #txt
Pd0 f70 510 546 234 632 #arcP
Pd0 f70 1 352 632 #addKink
Pd0 f70 0 0.8248890074574807 0 0 #arcLabel
>Proto Pd0 .type ch.soreco.orderbook.ui.Order #txt
>Proto Pd0 .processKind CALLABLE_SUB #txt
>Proto Pd0 0 0 32 24 18 0 #rect
>Proto Pd0 @|BIcon #fIcon
Pd0 f36 out f39 tail #connect
Pd0 f39 head f38 mainIn #connect
Pd0 f36 out f52 tail #connect
Pd0 f52 head f35 mainIn #connect
Pd0 f36 out f54 tail #connect
Pd0 f54 head f49 mainIn #connect
Pd0 f36 out f5 tail #connect
Pd0 f5 head f4 mainIn #connect
Pd0 f36 out f8 tail #connect
Pd0 f8 head f7 mainIn #connect
Pd0 f36 out f11 tail #connect
Pd0 f11 head f9 mainIn #connect
Pd0 f7 mainOut f3 tail #connect
Pd0 f3 head f1 mainIn #connect
Pd0 f56 head f55 mainIn #connect
Pd0 f0 mainOut f17 tail #connect
Pd0 f17 head f2 mainIn #connect
Pd0 f55 mainOut f18 tail #connect
Pd0 f18 head f1 mainIn #connect
Pd0 f38 mainOut f15 tail #connect
Pd0 f15 head f27 mainIn #connect
Pd0 f31 mainOut f24 tail #connect
Pd0 f24 head f21 in #connect
Pd0 f2 mainOut f33 tail #connect
Pd0 f33 head f31 mainIn #connect
Pd0 f21 out f41 tail #connect
Pd0 f41 head f27 mainIn #connect
Pd0 f21 out f56 tail #connect
Pd0 f22 mainOut f48 tail #connect
Pd0 f48 head f25 mainIn #connect
Pd0 f28 head f22 mainIn #connect
Pd0 f36 out f20 tail #connect
Pd0 f20 head f10 mainIn #connect
Pd0 f36 out f28 tail #connect
Pd0 f36 out f13 tail #connect
Pd0 f13 head f16 mainIn #connect
Pd0 f9 mainOut f23 tail #connect
Pd0 f23 head f27 mainIn #connect
Pd0 f36 out f32 tail #connect
Pd0 f32 head f12 mainIn #connect
Pd0 f43 mainOut f53 tail #connect
Pd0 f53 head f40 mainIn #connect
Pd0 f37 mainOut f59 tail #connect
Pd0 f59 head f58 mainIn #connect
Pd0 f60 head f58 mainIn #connect
Pd0 f40 out f62 tail #connect
Pd0 f62 head f61 mainIn #connect
Pd0 f40 out f60 tail #connect
Pd0 f40 out f67 tail #connect
Pd0 f67 head f66 mainIn #connect
Pd0 f66 mainOut f69 tail #connect
Pd0 f69 head f58 mainIn #connect
Pd0 f80 mainOut f83 tail #connect
Pd0 f83 head f82 mainIn #connect
Pd0 f82 mainOut f44 tail #connect
Pd0 f44 head f43 mainIn #connect
Pd0 f61 mainOut f89 tail #connect
Pd0 f89 head f42 mainIn #connect
Pd0 f42 mainOut f45 tail #connect
Pd0 f45 head f37 mainIn #connect
Pd0 f36 out f47 tail #connect
Pd0 f47 head f80 mainIn #connect
Pd0 f58 mainOut f57 tail #connect
Pd0 f57 head f27 mainIn #connect
Pd0 f35 mainOut f64 tail #connect
Pd0 f64 head f63 mainIn #connect
Pd0 f12 mainOut f50 tail #connect
Pd0 f50 head f63 mainIn #connect
Pd0 f49 mainOut f34 tail #connect
Pd0 f34 head f63 mainIn #connect
Pd0 f4 mainOut f51 tail #connect
Pd0 f51 head f63 mainIn #connect
Pd0 f92 out f93 tail #connect
Pd0 f93 head f84 mainIn #connect
Pd0 f84 mainOut f94 tail #connect
Pd0 f94 head f91 in #connect
Pd0 f101 out f14 tail #connect
Pd0 f14 head f68 mainIn #connect
Pd0 f68 mainOut f72 tail #connect
Pd0 f72 head f99 mainIn #connect
Pd0 f101 out f73 tail #connect
Pd0 f73 head f1 mainIn #connect
Pd0 f99 mainOut f74 tail #connect
Pd0 f74 head f1 mainIn #connect
Pd0 f36 out f75 tail #connect
Pd0 f75 head f87 mainIn #connect
Pd0 f87 mainOut f77 tail #connect
Pd0 f77 head f7 mainIn #connect
Pd0 f27 mainOut f79 tail #connect
Pd0 f79 head f78 mainIn #connect
Pd0 f78 mainOut f19 tail #connect
Pd0 f19 head f36 mainIn #connect
Pd0 f63 mainOut f65 tail #connect
Pd0 f65 head f86 mainIn #connect
Pd0 f91 out f71 tail #connect
Pd0 f71 head f101 in #connect
Pd0 f92 out f76 tail #connect
Pd0 f76 head f101 in #connect
Pd0 f86 mainOut f85 tail #connect
Pd0 f85 head f46 mainIn #connect
Pd0 f46 mainOut f6 tail #connect
Pd0 f6 head f92 in #connect
Pd0 f91 out f81 tail #connect
Pd0 f81 head f1 mainIn #connect
Pd0 f36 out f70 tail #connect
Pd0 f70 head f105 mainIn #connect
