#Tue Jul 19 09:25:51 CEST 2011
default.sort.value=-1
table.default.page.size.value=
table.source=in.rsClasses
col5=\#Tue Jul 19 09\:25\:51 CEST 2011\r\nbody.value\=IF(value.toString().equals("true"), "<%\\\=ivy.cms.co(\\\\"/Content/Shared/Images/branch_edit\\\\")%>", "<%\\\=ivy.cms.co(\\\\"/Content/Shared/Images/branch_add\\\\")%>")\r\nlink.value\=\\\#Wed May 18 13\\\:27\\\:27 CEST 2011\\r\\nivp\\\=gotoAdminClass.ivp\\r\\nrow.index\\\=in.i\\r\\n\r\nheader.value\=Class\r\nname.value\=isConfigured\r\n
footer.show.value=false
col4=\#Tue Jul 19 09\:25\:51 CEST 2011\r\nbody.value\=IF(value.toString().equals("true"), "<%\\\=ivy.cms.co(\\\\"/Content/Shared/Images/element_edit\\\\")%>", "<%\\\=ivy.cms.co(\\\\"/Content/Shared/Images/element_add\\\\")%>")\r\nlink.value\=\\\#Mon May 16 09\\\:56\\\:01 CEST 2011\\r\\nivp\\\=gotoFormAttributes.ivp\\r\\nrow.index\\\=in.i\\r\\n\r\nheader.value\=Fields\r\nname.value\=isConfigured\r\n
table.empty.value=
col3=\#Tue Jul 19 09\:25\:51 CEST 2011\r\ncondition.value\=false\r\nbody.value\=IF(value.toString().equals("true")&&record.getField("ClassType").equals("Entity"), "List", "")\r\nlink.value\=\\\#Mon May 23 13\\\:27\\\:58 CEST 2011\\r\\nivp\\\=gotoEntityList.ivp\\r\\nrow.index\\\=in.i\\r\\n\r\nheader.value\=List\r\nname.value\=isConfigured\r\n
col2=\#Tue Jul 19 09\:25\:51 CEST 2011\r\nbody.value\=IF(value.toString().equals("true")&&record.getField("ClassType").equals("Entity"), "Table", "")\r\nlink.value\=\\\#Tue May 17 00\\\:56\\\:44 CEST 2011\\r\\nivp\\\=gotoEntityTable.ivp\\r\\nrow.index\\\=in.i\\r\\n\r\nheader.value\=Table\r\nname.value\=isConfigured\r\n
header.show.value=true
col1=\#Tue Jul 19 09\:25\:51 CEST 2011\r\nbody.value\=ivy.html.escape(value)\r\nheader.value\=Class Type\r\nname.value\=ClassType\r\n
table.caption.value=
col0=\#Tue Jul 19 09\:25\:51 CEST 2011\r\nbody.value\=ivy.html.escape(value)\r\nheader.value\=Class Name\r\nname.value\=ClassName\r\n
auto.header.value=false
