<%
String RecordingOrderType = ivy.html.get("in.order.orderType");
String RecordingTyped= "/ch/soreco/orderbook/enums/OrderType/"+RecordingOrderType +"/0_helpfile";
String RecordingTypedPath = ivy.cms.cr(RecordingTyped);
String RecordingLink = "";
if(!RecordingTypedPath.equals("")) {
  RecordingLink ="<a class=\"help\" title=\"Help for "+RecordingOrderType +"\" target=\"_blank\" href=\""+RecordingTypedPath +"\">"+ivy.cms.co("/Content/Shared/Images/help")+"</a>";
}
%>
<%=RecordingLink %>