<FORM NAME="formgetDay" METHOD="POST" ACTION='<%=ivy.html.ref("getDay.ivp")%>'   ONSUBMIT="return checkformgetDay();">
<!--ivyform--><table BORDER="0"><tr >
<td ><!--i.tforDate-->Datum</td>
<td ><!--i.aforDate--><INPUT TYPE="TEXT" NAME="forDate" CLASS="Date"  VALUE="<%=ivy.html.getFormValue("in.forDate")%>"></td>
<td ><!--i.submit-->
<SCRIPT LANGUAGE="JavaScript" SRC="<%=ivy.html.wr("scripts/validation/_Empty.js")%>"></SCRIPT>
<SCRIPT LANGUAGE="JavaScript">
function checkformgetDay()
{
  return (true 
    && _Empty(document.formgetDay.forDate,"Bitte ein Datum setzen.","<%=ivy.request.getContentLocale().getLanguage()%>"));
}
</SCRIPT>
<INPUT  TYPE="SUBMIT" NAME="Submit" VALUE="Go">
</td>
</tr>


</table></FORM>